lc = 0.1;

Point(1) = {-0.8, -0.8, 0, lc};
Point(2) = {0.8, -0.8, 0, lc};
Point(3) = {0.8, 0.8, 0, lc};
Point(4) = {-0.8, 0.8, 0, lc};

Line(1) = {1,2};
Line(2) = {3,2};
Line(3) = {3,4};
Line(4) = {4,1};

Line Loop(1) = {4,1,-2,3};

Plane Surface(1) = {1};
