%!PS-Adobe-2.0 EPSF-1.2
%%Creator: MATLAB, The MathWorks, Inc. Version 8.0.0.783 (R2012b). Operating System: Microsoft Windows 7.
%%Title: ..\meshes\poligoni-triangle\triangle0.005-solution.eps
%%CreationDate: 02/26/2013  01:39:09
%%DocumentNeededFonts: Helvetica
%%DocumentProcessColors: Cyan Magenta Yellow Black
%%Pages: 1
%%BoundingBox:    70   211   557   583
%%EndComments

%%BeginProlog
% MathWorks dictionary
/MathWorks 160 dict begin
% definition operators
/bdef {bind def} bind def
/ldef {load def} bind def
/xdef {exch def} bdef
/xstore {exch store} bdef
% operator abbreviations
/c  /clip ldef
/cc /concat ldef
/cp /closepath ldef
/gr /grestore ldef
/gs /gsave ldef
/mt /moveto ldef
/np /newpath ldef
/cm /currentmatrix ldef
/sm /setmatrix ldef
/rm /rmoveto ldef
/rl /rlineto ldef
/s {show newpath} bdef
/sc {setcmykcolor} bdef
/sr /setrgbcolor ldef
/sg /setgray ldef
/w /setlinewidth ldef
/j /setlinejoin ldef
/cap /setlinecap ldef
/rc {rectclip} bdef
/rf {rectfill} bdef
% page state control
/pgsv () def
/bpage {/pgsv save def} bdef
/epage {pgsv restore} bdef
/bplot /gsave ldef
/eplot {stroke grestore} bdef
% orientation switch
/portraitMode 0 def /landscapeMode 1 def /rotateMode 2 def
% coordinate system mappings
/dpi2point 0 def
% font control
/FontSize 0 def
/FMS {/FontSize xstore findfont [FontSize 0 0 FontSize neg 0 0]
  makefont setfont} bdef
/ISOLatin1Encoding where {pop /WindowsLatin1Encoding 256 array bdef
ISOLatin1Encoding WindowsLatin1Encoding copy pop
/.notdef/.notdef/quotesinglbase/florin/quotedblbase/ellipsis/dagger
/daggerdbl/circumflex/perthousand/Scaron/guilsinglleft/OE/.notdef/.notdef
/.notdef/.notdef/quoteleft/quoteright/quotedblleft/quotedblright/bullet
/endash/emdash/tilde/trademark/scaron/guilsinglright/oe/.notdef/.notdef
/Ydieresis WindowsLatin1Encoding 128 32 getinterval astore pop}
{/WindowsLatin1Encoding StandardEncoding bdef} ifelse
/reencode {exch dup where {pop load} {pop StandardEncoding} ifelse
  exch dup 3 1 roll findfont dup length dict begin
  { 1 index /FID ne {def}{pop pop} ifelse } forall
  /Encoding exch def currentdict end definefont pop} bdef
/isroman {findfont /CharStrings get /Agrave known} bdef
/FMSR {3 1 roll 1 index dup isroman {reencode} {pop pop} ifelse
  exch FMS} bdef
/csm {1 dpi2point div -1 dpi2point div scale neg translate
 dup landscapeMode eq {pop -90 rotate}
  {rotateMode eq {90 rotate} if} ifelse} bdef
% line types: solid, dotted, dashed, dotdash
/SO { [] 0 setdash } bdef
/DO { [.5 dpi2point mul 4 dpi2point mul] 0 setdash } bdef
/DA { [6 dpi2point mul] 0 setdash } bdef
/DD { [.5 dpi2point mul 4 dpi2point mul 6 dpi2point mul 4
  dpi2point mul] 0 setdash } bdef
% macros for lines and objects
/L {lineto stroke} bdef
/MP {3 1 roll moveto 1 sub {rlineto} repeat} bdef
/AP {{rlineto} repeat} bdef
/PDlw -1 def
/W {/PDlw currentlinewidth def setlinewidth} def
/PP {closepath eofill} bdef
/DP {closepath stroke} bdef
/MR {4 -2 roll moveto dup  0 exch rlineto exch 0 rlineto
  neg 0 exch rlineto closepath} bdef
/FR {MR stroke} bdef
/PR {MR fill} bdef
/L1i {{currentfile picstr readhexstring pop} image} bdef
/tMatrix matrix def
/MakeOval {newpath tMatrix currentmatrix pop translate scale
0 0 1 0 360 arc tMatrix setmatrix} bdef
/FO {MakeOval stroke} bdef
/PO {MakeOval fill} bdef
/PD {currentlinewidth 2 div 0 360 arc fill
   PDlw -1 eq not {PDlw w /PDlw -1 def} if} def
/FA {newpath tMatrix currentmatrix pop translate scale
  0 0 1 5 -2 roll arc tMatrix setmatrix stroke} bdef
/PA {newpath tMatrix currentmatrix pop	translate 0 0 moveto scale
  0 0 1 5 -2 roll arc closepath tMatrix setmatrix fill} bdef
/FAn {newpath tMatrix currentmatrix pop translate scale
  0 0 1 5 -2 roll arcn tMatrix setmatrix stroke} bdef
/PAn {newpath tMatrix currentmatrix pop translate 0 0 moveto scale
  0 0 1 5 -2 roll arcn closepath tMatrix setmatrix fill} bdef
/vradius 0 def /hradius 0 def /lry 0 def
/lrx 0 def /uly 0 def /ulx 0 def /rad 0 def
/MRR {/vradius xdef /hradius xdef /lry xdef /lrx xdef /uly xdef
  /ulx xdef newpath tMatrix currentmatrix pop ulx hradius add uly
  vradius add translate hradius vradius scale 0 0 1 180 270 arc 
  tMatrix setmatrix lrx hradius sub uly vradius add translate
  hradius vradius scale 0 0 1 270 360 arc tMatrix setmatrix
  lrx hradius sub lry vradius sub translate hradius vradius scale
  0 0 1 0 90 arc tMatrix setmatrix ulx hradius add lry vradius sub
  translate hradius vradius scale 0 0 1 90 180 arc tMatrix setmatrix
  closepath} bdef
/FRR {MRR stroke } bdef
/PRR {MRR fill } bdef
/MlrRR {/lry xdef /lrx xdef /uly xdef /ulx xdef /rad lry uly sub 2 div def
  newpath tMatrix currentmatrix pop ulx rad add uly rad add translate
  rad rad scale 0 0 1 90 270 arc tMatrix setmatrix lrx rad sub lry rad
  sub translate rad rad scale 0 0 1 270 90 arc tMatrix setmatrix
  closepath} bdef
/FlrRR {MlrRR stroke } bdef
/PlrRR {MlrRR fill } bdef
/MtbRR {/lry xdef /lrx xdef /uly xdef /ulx xdef /rad lrx ulx sub 2 div def
  newpath tMatrix currentmatrix pop ulx rad add uly rad add translate
  rad rad scale 0 0 1 180 360 arc tMatrix setmatrix lrx rad sub lry rad
  sub translate rad rad scale 0 0 1 0 180 arc tMatrix setmatrix
  closepath} bdef
/FtbRR {MtbRR stroke } bdef
/PtbRR {MtbRR fill } bdef
/stri 6 array def /dtri 6 array def
/smat 6 array def /dmat 6 array def
/tmat1 6 array def /tmat2 6 array def /dif 3 array def
/asub {/ind2 exch def /ind1 exch def dup dup
  ind1 get exch ind2 get sub exch } bdef
/tri_to_matrix {
  2 0 asub 3 1 asub 4 0 asub 5 1 asub
  dup 0 get exch 1 get 7 -1 roll astore } bdef
/compute_transform {
  dmat dtri tri_to_matrix tmat1 invertmatrix 
  smat stri tri_to_matrix tmat2 concatmatrix } bdef
/ds {stri astore pop} bdef
/dt {dtri astore pop} bdef
/db {2 copy /cols xdef /rows xdef mul dup string
  currentfile exch readhexstring pop
  /bmap xdef pop pop} bdef
/it {gs np dtri aload pop moveto lineto lineto cp c
  cols rows 8 compute_transform 
  {bmap} image gr}bdef
/il {newpath moveto lineto stroke}bdef
currentdict end def
%%EndProlog

%%BeginSetup
MathWorks begin

0 cap

end
%%EndSetup

%%Page: 1 1
%%BeginPageSetup
%%PageBoundingBox:    70   211   557   583
MathWorks begin
bpage
%%EndPageSetup

%%BeginObject: obj1
bplot

/dpi2point 12 def
portraitMode 0216 7344 csm

  630   340  5848  4462 MR c np
85 dict begin %Colortable dictionary
/c0 { 0.000000 0.000000 0.000000 sr} bdef
/c1 { 1.000000 1.000000 1.000000 sr} bdef
/c2 { 0.900000 0.000000 0.000000 sr} bdef
/c3 { 0.000000 0.820000 0.000000 sr} bdef
/c4 { 0.000000 0.000000 0.800000 sr} bdef
/c5 { 0.910000 0.820000 0.320000 sr} bdef
/c6 { 1.000000 0.260000 0.820000 sr} bdef
/c7 { 0.000000 0.820000 0.820000 sr} bdef
c0
1 j
1 sg
   0    0 6919 5187 PR
6 w
0 2335 -2329 -1069 0 -2336 6261 3794 4 MP
PP
2329 1070 0 2335 -2329 -1069 0 -2336 6261 3794 5 MP stroke
2329 1070 3033 -822 -2328 -1070 3227 4616 4 MP
PP
-3034 822 2329 1070 3033 -822 -2328 -1070 3227 4616 5 MP stroke
0 2335 3033 -821 0 -2336 899 3546 4 MP
PP
-3033 822 0 2335 3033 -821 0 -2336 899 3546 5 MP stroke
4 w
DO
SO
6 w
0 sg
3227 4616 mt 6261 3794 L
3227 4616 mt  899 3546 L
 899 3546 mt  899 1210 L
3227 4616 mt 3298 4648 L
%%IncludeResource: font Helvetica
/Helvetica /WindowsLatin1Encoding 120 FMSR

3329 4774 mt 
(0) s
3833 4451 mt 3905 4484 L
3936 4610 mt 
(0.2) s
4440 4287 mt 4512 4320 L
4543 4445 mt 
(0.4) s
5047 4123 mt 5118 4156 L
5150 4281 mt 
(0.6) s
5654 3959 mt 5725 3991 L
5757 4117 mt 
(0.8) s
6261 3794 mt 6332 3827 L
6363 3953 mt 
(1) s
3227 4616 mt 3151 4636 L
3051 4756 mt 
(0) s
2761 4402 mt 2685 4422 L
2486 4542 mt 
(0.2) s
2295 4188 mt 2219 4208 L
2020 4328 mt 
(0.4) s
1830 3974 mt 1754 3994 L
1555 4114 mt 
(0.6) s
1364 3760 mt 1288 3780 L
1089 3900 mt 
(0.8) s
 899 3546 mt  823 3566 L
 723 3686 mt 
(1) s
 899 3546 mt  827 3513 L
 730 3542 mt 
(0) s
 899 3212 mt  827 3179 L
 630 3209 mt 
(0.2) s
 899 2878 mt  827 2845 L
 630 2875 mt 
(0.4) s
 899 2544 mt  827 2512 L
 630 2541 mt 
(0.6) s
 899 2211 mt  827 2178 L
 630 2207 mt 
(0.8) s
 899 1877 mt  827 1844 L
 730 1874 mt 
(1) s
 899 1543 mt  827 1510 L
 630 1540 mt 
(1.2) s
 899 1210 mt  827 1177 L
 630 1206 mt 
(1.4) s
gs 899 388 5363 4228 MR c np
1 sg
-10 -173 -73 -33 -73 -33 61 -17 61 -16 22 617 23 -167 6094 3377 
8 MP
PP
0 sg
-11 -178 -10 -173 -73 -33 -73 -33 61 -17 61 -16 22 617 23 -167 
6094 3377 9 MP stroke
1 sg
29 431 105 190 106 59 42 29 42 18 -33 -50 -33 -158 -114 -447 
-115 -838 -29 -13 -29 -14 5271 3340 12 MP
PP
0 sg
29 793 29 431 105 190 106 59 42 29 42 18 -33 -50 -33 -158 
-114 -447 -115 -838 -29 -13 -29 -14 5271 3340 13 MP stroke
1 sg
-86 -129 -96 446 -96 77 91 51 90 -44 29 3 29 -7 63 47 
62 -381 3581 1736 10 MP
PP
0 sg
-86 -63 -86 -129 -96 446 -96 77 91 51 90 -44 29 3 29 -7 
63 47 62 -381 3581 1736 11 MP stroke
1 sg
-9 33 74 109 74 7 110 15 111 -14 -90 44 -91 -51 -47 -76 
-47 -109 -38 -8 -38 -19 4115 1617 12 MP
PP
0 sg
-9 69 -9 33 74 109 74 7 110 15 111 -14 -90 44 -91 -51 
-47 -76 -47 -109 -38 -8 -38 -19 4115 1617 13 MP stroke
1 sg
-74 -109 -103 -85 -104 -148 -17 30 -17 16 76 196 77 20 117 53 
117 26 1 1 1 7 3985 1399 12 MP
PP
0 sg
-74 -7 -74 -109 -103 -85 -104 -148 -17 30 -17 16 76 196 77 20 
117 53 117 26 1 1 1 7 3985 1399 13 MP stroke
1 sg
-76 -196 -128 -328 -127 -550 6 488 6 263 41 134 41 79 133 67 
133 -3 25 27 25 23 -1 7 -1 9 4221 1486 14 MP
PP
0 sg
-77 -20 -76 -196 -128 -328 -127 -550 6 488 6 263 41 134 41 79 
133 67 133 -3 25 27 25 23 -1 7 -1 9 4221 1486 15 MP stroke
1 sg
-41 -134 -153 -345 -154 -597 19 429 20 280 120 307 121 84 64 15 
65 15 -10 24 -10 1 4535 1616 12 MP
PP
0 sg
-41 -79 -41 -134 -153 -345 -154 -597 19 429 20 280 120 307 121 84 
64 15 65 15 -10 24 -10 1 4535 1616 13 MP stroke
1 sg
33 50 112 71 112 7 42 27 43 24 -18 19 -17 1 -121 -84 
-120 -307 -49 22 -50 12 4984 2028 12 MP
PP
0 sg
33 158 33 50 112 71 112 7 42 27 43 24 -18 19 -17 1 
-121 -84 -120 -307 -49 22 -50 12 4984 2028 13 MP stroke
1 sg
54 -26 15 7 14 1 109 35 109 26 -24 28 -23 13 -112 -7 
-112 -71 -42 -18 -42 -29 5002 1867 12 MP
PP
0 sg
54 41 54 -26 15 7 14 1 109 35 109 26 -24 28 -23 13 
-112 -7 -112 -71 -42 -18 -42 -29 5002 1867 13 MP stroke
1 sg
30 30 106 67 106 17 52 13 52 9 -54 26 -54 -41 -106 -59 
-105 -190 -29 -11 -29 -8 5271 2135 12 MP
PP
0 sg
31 147 30 30 106 67 106 17 52 13 52 9 -54 26 -54 -41 
-106 -59 -105 -190 -29 -11 -29 -8 5271 2135 13 MP stroke
1 sg
31 421 81 143 82 49 63 37 62 29 -30 -30 -31 -147 -118 -471 
-118 -842 -26 -12 -26 -12 5559 3472 12 MP
PP
0 sg
30 835 31 421 81 143 82 49 63 37 62 29 -30 -30 -31 -147 
-118 -471 -118 -842 -26 -12 -26 -12 5559 3472 13 MP stroke
1 sg
45 0 123 17 123 1 0 49 1 39 -106 -17 -106 -67 -62 -29 
-63 -37 5335 2024 10 MP
PP
0 sg
45 44 45 0 123 17 123 1 0 49 1 39 -106 -17 -106 -67 
-62 -29 -63 -37 5335 2024 11 MP stroke
1 sg
47 410 86 160 86 19 3 -7 4 19 13 25 12 -153 -97 -475 
-97 -810 -52 -24 -52 -24 5876 3618 12 MP
PP
0 sg
47 860 47 410 86 160 86 19 3 -7 4 19 13 25 12 -153 
-97 -475 -97 -810 -52 -24 -52 -24 5876 3618 13 MP stroke
1 sg
-81 -143 -40 -33 -40 -36 -12 153 -13 -25 142 79 143 29 36 39 
37 30 -45 0 -45 -44 5335 2024 12 MP
PP
0 sg
-82 -49 -81 -143 -40 -33 -40 -36 -12 153 -13 -25 142 79 143 29 
36 39 37 30 -45 0 -45 -44 5335 2024 13 MP stroke
1 sg
-29 -793 -118 -54 -118 -54 118 842 118 471 29 8 29 11 5213 2116 
8 MP
PP
0 sg
-29 -431 -29 -793 -118 -54 -118 -54 118 842 118 471 29 8 29 11 
5213 2116 9 MP stroke
1 sg
22 -57 124 32 124 -13 54 47 54 39 -54 36 -54 9 -143 -29 
-142 -79 -4 -19 -3 7 5610 2169 12 MP
PP
0 sg
22 27 22 -57 124 32 124 -13 54 47 54 39 -54 36 -54 9 
-143 -29 -142 -79 -4 -19 -3 7 5610 2169 13 MP stroke
1 sg
88 144 -47 -410 -47 -860 -119 -55 -120 -55 10 173 11 178 68 388 
68 285 5958 2704 10 MP
PP
0 sg
88 212 88 144 -47 -410 -47 -860 -119 -55 -120 -55 10 173 11 178 
68 388 68 285 5958 2704 11 MP stroke
1 sg
-86 -160 -88 -144 -88 -212 78 287 77 -95 41 30 41 17 78 175 
77 91 -22 57 -22 -27 5610 2169 12 MP
PP
0 sg
-86 -19 -86 -160 -88 -144 -88 -212 78 287 77 -95 41 30 41 17 
78 175 77 91 -22 57 -22 -27 5610 2169 13 MP stroke
1 sg
68 -18 100 860 100 492 -77 95 -78 -287 -68 -285 -68 -388 -23 167 
-22 -617 6139 3827 10 MP
PP
0 sg
68 -19 68 -18 100 860 100 492 -77 95 -78 -287 -68 -285 -68 -388 
-23 167 -22 -617 6139 3827 11 MP stroke
1 sg
-30 -835 -106 -49 -107 -49 97 810 97 475 40 36 40 33 5498 2216 
8 MP
PP
0 sg
-31 -421 -30 -835 -106 -49 -107 -49 97 810 97 475 40 36 40 33 
5498 2216 9 MP stroke
1 sg
-41 -30 -100 -492 -100 -860 115 -31 114 -31 33 977 32 446 -6 19 
-6 19 5721 2465 10 MP
PP
0 sg
-41 -17 -41 -30 -100 -492 -100 -860 115 -31 114 -31 33 977 32 446 
-6 19 -6 19 5721 2465 11 MP stroke
1 sg
-102 -3 -32 -446 -33 -977 82 -22 83 -23 50 620 51 422 1 246 
1 168 5506 2515 10 MP
PP
0 sg
-101 15 -102 -3 -32 -446 -33 -977 82 -22 83 -23 50 620 51 422 
1 246 1 168 5506 2515 11 MP stroke
1 sg
-14 -221 -131 -60 -131 -60 115 838 114 447 50 -12 49 -22 -20 -280 
-19 -429 4924 2771 10 MP
PP
0 sg
-13 -201 -14 -221 -131 -60 -131 -60 115 838 114 447 50 -12 49 -22 
-20 -280 -19 -429 4924 2771 11 MP stroke
1 sg
20 -27 133 17 132 -15 32 57 33 48 -33 21 -33 18 -98 -3 
-98 -12 -54 -39 -54 -47 5318 2180 12 MP
PP
0 sg
20 -18 20 -27 133 17 132 -15 32 57 33 48 -33 21 -33 18 
-98 -3 -98 -12 -54 -39 -54 -47 5318 2180 13 MP stroke
1 sg
-124 -32 -77 -91 -78 -175 6 -19 6 -19 102 3 101 -15 114 207 
114 77 0 8 0 -2 -20 27 -20 18 5318 2180 14 MP
PP
0 sg
-124 13 -124 -32 -77 -91 -78 -175 6 -19 6 -19 102 3 101 -15 
114 207 114 77 0 8 0 -2 -20 27 -20 18 5318 2180 15 MP stroke
1 sg
-144 -68 -51 -422 -50 -620 148 -40 149 -40 46 777 46 489 5220 2785 
8 MP
PP
0 sg
-144 -76 -144 -68 -51 -422 -50 -620 148 -40 149 -40 46 777 46 489 
5220 2785 9 MP stroke
1 sg
0 15 -29 360 -30 173 -114 -77 -114 -207 -1 -168 -1 -246 144 68 
144 76 5220 2785 10 MP
PP
0 sg
1 6 0 15 -29 360 -30 173 -114 -77 -114 -207 -1 -168 -1 -246 
144 68 144 76 5220 2785 11 MP stroke
1 sg
54 -36 98 12 98 3 61 44 60 39 -4 4 -3 4 -50 14 
-49 12 -123 -1 -123 -17 -37 -30 -36 -39 5318 2049 14 MP
PP
0 sg
54 -9 54 -36 98 12 98 3 61 44 60 39 -4 4 -3 4 
-50 14 -49 12 -123 -1 -123 -17 -37 -30 -36 -39 5318 2049 15 MP stroke
1 sg
-15 -253 -145 -67 -146 -67 14 221 13 201 154 597 153 345 -6 -263 
-6 -488 4629 2580 10 MP
PP
0 sg
-16 -226 -15 -253 -145 -67 -146 -67 14 221 13 201 154 597 153 345 
-6 -263 -6 -488 4629 2580 11 MP stroke
1 sg
-98 -167 0 -15 -1 -6 -46 -489 -46 -777 189 -51 190 -52 4 100 
5 121 -15 985 -16 412 -12 -6 -12 4 -22 8 -22 9 5023 2521 
16 MP
PP
0 sg
-98 -76 -98 -167 0 -15 -1 -6 -46 -489 -46 -777 189 -51 190 -52 
4 100 5 121 -15 985 -16 412 -12 -6 -12 4 -22 8 -22 9 
5023 2521 17 MP stroke
1 sg
29 -360 98 167 98 76 11 222 10 74 -5 -4 -6 6 -132 15 
-133 -17 0 2 0 -8 5278 2231 12 MP
PP
0 sg
30 -173 29 -360 98 167 98 76 11 222 10 74 -5 -4 -6 6 
-132 15 -133 -17 0 2 0 -8 5278 2231 13 MP stroke
1 sg
125 97 -24 21 -25 17 -112 -1 -113 -5 -10 -74 -11 -222 22 -9 
22 -8 4979 2538 10 MP
PP
0 sg
126 184 125 97 -24 21 -25 17 -112 -1 -113 -5 -10 -74 -11 -222 
22 -9 22 -8 4979 2538 11 MP stroke
1 sg
33 -21 156 -4 155 -9 2 1 2 1 -6 49 -6 47 -124 19 
-124 18 -60 -39 -61 -44 5014 2079 12 MP
PP
0 sg
33 -18 33 -21 156 -4 155 -9 2 1 2 1 -6 49 -6 47 
-124 19 -124 18 -60 -39 -61 -44 5014 2079 13 MP stroke
1 sg
5 4 113 5 112 1 70 48 70 40 -155 9 -156 4 -33 -48 
-32 -57 5013 2223 10 MP
PP
0 sg
6 -6 5 4 113 5 112 1 70 48 70 40 -155 9 -156 4 
-33 -48 -32 -57 5013 2223 11 MP stroke
1 sg
0 -49 49 -12 50 -14 108 46 109 43 -91 32 -91 23 -14 -1 
-15 -7 -52 -9 -52 -13 4998 1874 12 MP
PP
0 sg
-1 -39 0 -49 49 -12 50 -14 108 46 109 43 -91 32 -91 23 
-14 -1 -15 -7 -52 -9 -52 -13 4998 1874 13 MP stroke
1 sg
128 328 17 -16 17 -30 -44 -418 -44 -786 -116 -53 -116 -54 15 253 
16 226 4629 2580 10 MP
PP
0 sg
127 550 128 328 17 -16 17 -30 -44 -418 -44 -786 -116 -53 -116 -54 
15 253 16 226 4629 2580 11 MP stroke
1 sg
-111 7 -125 -97 -126 -184 12 -4 12 6 162 93 162 -22 63 110 
62 63 4506 2292 10 MP
PP
0 sg
-111 28 -111 7 -125 -97 -126 -184 12 -4 12 6 162 93 162 -22 
63 110 62 63 4506 2292 11 MP stroke
1 sg
24 92 -29 1 -29 -4 -162 22 -162 -93 16 -412 15 -985 152 722 
152 407 4620 2804 10 MP
PP
0 sg
23 250 24 92 -29 1 -29 -4 -162 22 -162 -93 16 -412 15 -985 
152 722 152 407 4620 2804 11 MP stroke
1 sg
161 -44 11 919 10 495 -15 18 -15 5 -152 -407 -152 -722 -5 -121 
-4 -100 4933 4154 10 MP
PP
0 sg
161 -43 161 -44 11 919 10 495 -15 18 -15 5 -152 -407 -152 -722 
-5 -121 -4 -100 4933 4154 11 MP stroke
1 sg
4 -4 124 -18 124 -19 110 26 110 26 -66 41 -66 42 -63 0 
-63 -1 -109 -43 -108 -46 4900 1988 12 MP
PP
0 sg
3 -4 4 -4 124 -18 124 -19 110 26 110 26 -66 41 -66 42 
-63 0 -63 -1 -109 -43 -108 -46 4900 1988 13 MP stroke
1 sg
-67 3 -109 -26 -109 -35 91 -23 91 -32 63 1 63 0 45 27 
45 26 -23 26 -23 25 4513 1794 12 MP
PP
0 sg
-67 8 -67 3 -109 -26 -109 -35 91 -23 91 -32 63 1 63 0 
45 27 45 26 -23 26 -23 25 4513 1794 13 MP stroke
1 sg
-36 4 -2 -1 -2 -1 -70 -40 -70 -48 25 -17 24 -21 111 -7 
111 -28 54 16 54 9 -81 67 -81 63 4560 2137 14 MP
PP
0 sg
-37 4 -36 4 -2 -1 -2 -1 -70 -40 -70 -48 25 -17 24 -21 
111 -7 111 -28 54 16 54 9 -81 67 -81 63 4560 2137 15 MP stroke
1 sg
44 418 104 148 103 85 9 -33 9 -69 -98 -425 -97 -856 -59 -27 
-59 -27 4428 2952 10 MP
PP
0 sg
44 786 44 418 104 148 103 85 9 -33 9 -69 -98 -425 -97 -856 
-59 -27 -59 -27 4428 2952 11 MP stroke
1 sg
24 -28 67 -3 67 -8 97 31 97 29 -35 26 -36 25 -109 1 
-110 -9 -43 -24 -42 -27 4694 1742 12 MP
PP
0 sg
23 -13 24 -28 67 -3 67 -8 97 31 97 29 -35 26 -36 25 
-109 1 -110 -9 -43 -24 -42 -27 4694 1742 13 MP stroke
1 sg
-66 6 -110 -26 -110 -26 6 -47 6 -49 36 -4 37 -4 105 14 
105 13 29 59 29 58 4292 1993 12 MP
PP
0 sg
-67 6 -66 6 -110 -26 -110 -26 6 -47 6 -49 36 -4 37 -4 
105 14 105 13 29 59 29 58 4292 1993 13 MP stroke
1 sg
18 -19 110 9 109 -1 63 39 63 37 -126 -1 -125 -33 -65 -15 
-64 -15 4644 1671 10 MP
PP
0 sg
17 -1 18 -19 110 9 109 -1 63 39 63 37 -126 -1 -125 -33 
-65 -15 -64 -15 4644 1671 11 MP stroke
1 sg
-18 1 -54 -9 -54 -16 -62 -63 -63 -110 29 4 29 -1 118 48 
119 -14 19 17 20 8 -32 70 -32 63 4361 2270 14 MP
PP
0 sg
-19 2 -18 1 -54 -9 -54 -16 -62 -63 -63 -110 29 4 29 -1 
118 48 119 -14 19 17 20 8 -32 70 -32 63 4361 2270 15 MP stroke
1 sg
-40 -829 -96 -44 -95 -44 97 856 98 425 38 19 38 8 4039 1590 
8 MP
PP
0 sg
-40 -391 -40 -829 -96 -44 -95 -44 97 856 98 425 38 19 38 8 
4039 1590 9 MP stroke
1 sg
161 -3 -35 143 -34 65 -119 14 -118 -48 -24 -92 -23 -250 15 -5 
15 -18 4590 2827 10 MP
PP
0 sg
162 194 161 -3 -35 143 -34 65 -119 14 -118 -48 -24 -92 -23 -250 
15 -5 15 -18 4590 2827 11 MP stroke
1 sg
-15 23 -161 3 -162 -194 -10 -495 -11 -919 57 -15 57 -16 148 1098 
147 429 3 43 3 24 -21 21 -20 -3 4237 2660 14 MP
PP
0 sg
-15 1 -15 23 -161 3 -162 -194 -10 -495 -11 -919 57 -15 57 -16 
148 1098 147 429 3 43 3 24 -21 21 -20 -3 4237 2660 15 MP stroke
1 sg
-67 15 -105 -13 -105 -14 81 -63 81 -67 18 -1 19 -2 77 13 
77 11 -4 54 -4 52 4215 2140 12 MP
PP
0 sg
-68 15 -67 15 -105 -13 -105 -14 81 -63 81 -67 18 -1 19 -2 
77 13 77 11 -4 54 -4 52 4215 2140 13 MP stroke
1 sg
66 -41 66 -6 67 -6 20 2 20 2 18 7 19 7 7 61 
8 61 -134 4 -133 4 -45 -26 -45 -27 4557 1898 14 MP
PP
0 sg
66 -42 66 -41 66 -6 67 -6 20 2 20 2 18 7 19 7 
7 61 8 61 -134 4 -133 4 -45 -26 -45 -27 4557 1898 15 MP stroke
1 sg
51 5 -53 39 -53 4 -133 3 -133 -67 10 -1 10 -24 125 33 
126 1 4264 1607 10 MP
PP
0 sg
50 7 51 5 -53 39 -53 4 -133 3 -133 -67 10 -1 10 -24 
125 33 126 1 4264 1607 11 MP stroke
1 sg
23 -26 133 -4 134 -4 9 2 9 3 7 51 7 51 -75 6 
-76 6 -97 -29 -97 -31 4513 1794 12 MP
PP
0 sg
23 -25 23 -26 133 -4 134 -4 9 2 9 3 7 51 7 51 
-75 6 -76 6 -97 -29 -97 -31 4513 1794 13 MP stroke
1 sg
41 457 0 10 0 18 -54 247 -55 160 -147 -429 -148 -1098 161 -43 
161 -44 4175 4359 10 MP
PP
0 sg
41 722 41 457 0 10 0 18 -54 247 -55 160 -147 -429 -148 -1098 
161 -43 161 -44 4175 4359 11 MP stroke
1 sg
40 391 47 109 47 76 96 -77 96 -446 1 -249 1 -376 -143 342 
-143 -561 -41 -19 -41 -19 4119 2810 12 MP
PP
0 sg
40 829 40 391 47 109 47 76 96 -77 96 -446 1 -249 1 -376 
-143 342 -143 -561 -41 -19 -41 -19 4119 2810 13 MP stroke
1 sg
-29 1 -51 -5 -50 -7 -63 -37 -63 -39 36 -25 35 -26 76 -6 
75 -6 56 10 55 10 6 3 6 4 -16 55 -15 54 -15 6 
-15 6 4106 1598 18 MP
PP
0 sg
-28 2 -29 1 -51 -5 -50 -7 -63 -37 -63 -39 36 -25 35 -26 
76 -6 75 -6 56 10 55 10 6 3 6 4 -16 55 -15 54 
-15 6 -15 6 4106 1598 19 MP stroke
1 sg
-92 7 -77 -11 -77 -13 32 -63 32 -70 124 11 124 4 12 65 
13 61 4024 2262 10 MP
PP
0 sg
-91 9 -92 7 -77 -11 -77 -13 32 -63 32 -70 124 11 124 4 
12 65 13 61 4024 2262 11 MP stroke
1 sg
-105 42 -20 -2 -20 -2 -29 -58 -29 -59 67 -15 68 -15 78 15 
78 16 9 17 9 18 4041 2074 12 MP
PP
0 sg
-106 43 -105 42 -20 -2 -20 -2 -29 -58 -29 -59 67 -15 68 -15 
78 15 78 16 9 17 9 18 4041 2074 13 MP stroke
1 sg
35 -143 15 -23 15 -1 128 168 128 77 0 2 0 0 -34 13 
-34 12 -124 -4 -124 -11 -20 -8 -19 -17 4336 2428 14 MP
PP
0 sg
34 -65 35 -143 15 -23 15 -1 128 168 128 77 0 2 0 0 
-34 13 -34 12 -124 -4 -124 -11 -20 -8 -19 -17 4336 2428 15 MP stroke
1 sg
53 -39 29 -1 28 -2 95 45 94 47 -5 7 -4 7 -146 12 
-147 -22 -25 -23 -25 -27 4269 1552 12 MP
PP
0 sg
53 -4 53 -39 29 -1 28 -2 95 45 94 47 -5 7 -4 7 
-146 12 -147 -22 -25 -23 -25 -27 4269 1552 13 MP stroke
1 sg
106 -43 131 19 131 19 -10 30 -11 30 -53 12 -52 11 -155 -11 
-155 -11 -19 -7 -18 -7 4252 1989 12 MP
PP
0 sg
105 -42 106 -43 131 19 131 19 -10 30 -11 30 -53 12 -52 11 
-155 -11 -155 -11 -19 -7 -18 -7 4252 1989 13 MP stroke
1 sg
143 -342 4 -133 4 -90 -95 26 -94 26 -53 -24 -52 -24 4037 2772 
8 MP
PP
0 sg
143 561 143 -342 4 -133 4 -90 -95 26 -94 26 -53 -24 -52 -24 
4037 2772 9 MP stroke
1 sg
-88 61 -128 -77 -128 -168 20 3 21 -21 195 135 196 -10 3805 2553 
8 MP
PP
0 sg
-88 77 -88 61 -128 -77 -128 -168 20 3 21 -21 195 135 196 -10 
3805 2553 9 MP stroke
1 sg
-75 10 -117 -26 -117 -53 1 -9 1 -7 147 22 146 -12 45 27 
44 22 3837 1443 10 MP
PP
0 sg
-75 26 -75 10 -117 -26 -117 -53 1 -9 1 -7 147 22 146 -12 
45 27 44 22 3837 1443 11 MP stroke
1 sg
-7 -61 155 11 155 11 -13 48 -13 47 -125 5 -126 5 -9 -3 
-9 -2 4200 1853 10 MP
PP
0 sg
-8 -61 -7 -61 155 11 155 11 -13 48 -13 47 -125 5 -126 5 
-9 -3 -9 -2 4200 1853 11 MP stroke
1 sg
-94 31 -78 -16 -78 -15 4 -52 4 -54 92 -7 91 -9 1 1 
2 0 75 46 75 45 3871 2170 12 MP
PP
0 sg
-94 30 -94 31 -78 -16 -78 -15 4 -52 4 -54 92 -7 91 -9 
1 1 2 0 75 46 75 45 3871 2170 13 MP stroke
1 sg
-1 249 86 129 86 63 105 -457 105 -684 -186 51 -186 50 -4 90 
-4 133 3751 2553 10 MP
PP
0 sg
-1 376 -1 249 86 129 86 63 105 -457 105 -684 -186 51 -186 50 
-4 90 -4 133 3751 2553 11 MP stroke
1 sg
-5 7 -196 10 -195 -135 -3 -24 -3 -43 55 -160 54 -247 175 384 
176 140 9 32 9 16 -35 17 -35 6 3794 2557 14 MP
PP
0 sg
-6 -3 -5 7 -196 10 -195 -135 -3 -24 -3 -43 55 -160 54 -247 
175 384 176 140 9 32 9 16 -35 17 -35 6 3794 2557 15 MP stroke
1 sg
-116 47 -55 -10 -56 -10 -7 -51 -7 -51 126 -5 125 -5 53 19 
53 18 3825 1821 10 MP
PP
0 sg
-116 48 -116 47 -55 -10 -56 -10 -7 -51 -7 -51 126 -5 125 -5 
53 19 53 18 3825 1821 11 MP stroke
1 sg
-151 52 -41 -457 -41 -722 190 -51 190 -52 13 293 14 260 -11 357 
-11 259 3790 3293 10 MP
PP
0 sg
-152 61 -151 52 -41 -457 -41 -722 190 -51 190 -52 13 293 14 260 
-11 357 -11 259 3790 3293 11 MP stroke
1 sg
15 -6 173 -4 174 -5 4 1 5 1 0 38 0 38 -99 19 
-98 16 -94 -47 -95 -45 4106 1598 12 MP
PP
0 sg
15 -6 15 -6 173 -4 174 -5 4 1 5 1 0 38 0 38 
-99 19 -98 16 -94 -47 -95 -45 4106 1598 13 MP stroke
1 sg
79 179 -55 33 -54 27 -176 -140 -175 -384 0 -18 0 -10 151 -52 
152 -61 3790 3293 10 MP
PP
0 sg
78 426 79 179 -55 33 -54 27 -176 -140 -175 -384 0 -18 0 -10 
151 -52 152 -61 3790 3293 11 MP stroke
1 sg
126 10 32 39 33 40 -174 5 -173 4 15 -54 16 -55 4045 1719 
8 MP
PP
0 sg
125 11 126 10 32 39 33 40 -174 5 -173 4 15 -54 16 -55 
4045 1719 9 MP stroke
1 sg
-16 6 -131 -19 -131 -19 -9 -18 -9 -17 94 -31 94 -30 33 5 
33 4 29 56 29 57 3747 2048 12 MP
PP
0 sg
-16 6 -16 6 -131 -19 -131 -19 -9 -18 -9 -17 94 -31 94 -30 
33 5 33 4 29 56 29 57 3747 2048 13 MP stroke
1 sg
116 -48 14 1 15 1 47 41 48 42 -47 19 -46 19 -126 -10 
-125 -11 -6 -4 -6 -3 4057 1726 12 MP
PP
0 sg
116 -47 116 -48 14 1 15 1 47 41 48 42 -47 19 -46 19 
-126 -10 -125 -11 -6 -4 -6 -3 4057 1726 13 MP stroke
1 sg
-133 17 -2 0 -1 -1 -13 -61 -12 -65 34 -12 34 -13 120 17 
119 15 -6 42 -7 41 3755 2298 12 MP
PP
0 sg
-133 20 -133 17 -2 0 -1 -1 -13 -61 -12 -65 34 -12 34 -13 
120 17 119 15 -6 42 -7 41 3755 2298 13 MP stroke
1 sg
-103 13 -33 -4 -33 -5 -75 -45 -75 -46 133 -17 133 -20 93 19 
93 17 -15 38 -15 38 3599 2186 12 MP
PP
0 sg
-103 12 -103 13 -33 -4 -33 -5 -75 -45 -75 -46 133 -17 133 -20 
93 19 93 17 -15 38 -15 38 3599 2186 13 MP stroke
1 sg
-7 1 -105 684 -105 457 -62 381 -63 -47 4 -20 5 3 145 19 
144 -53 40 -88 40 -149 -14 -431 -15 -759 3357 2880 14 MP
PP
0 sg
-7 2 -7 1 -105 684 -105 457 -62 381 -63 -47 4 -20 5 3 
145 19 144 -53 40 -88 40 -149 -14 -431 -15 -759 3357 2880 15 MP stroke
1 sg
112 -18 0 17 0 -23 -144 53 -145 -19 16 21 15 -32 17 -2 
17 -2 3632 1434 10 MP
PP
0 sg
112 5 112 -18 0 17 0 -23 -144 53 -145 -19 16 21 15 -32 
17 -2 17 -2 3632 1434 11 MP stroke
1 sg
-1 -1 75 -10 75 -26 86 10 85 3 -15 32 -16 -21 -5 -3 
-4 20 -29 7 -29 -3 -111 14 -110 -15 3985 1399 14 MP
PP
0 sg
-1 -7 -1 -1 75 -10 75 -26 86 10 85 3 -15 32 -16 -21 
-5 -3 -4 20 -29 7 -29 -3 -111 14 -110 -15 3985 1399 15 MP stroke
1 sg
-56 11 -119 -15 -120 -17 0 0 0 -2 88 -61 88 -77 5 -7 
6 3 91 63 92 50 -9 21 -10 19 3630 2404 14 MP
PP
0 sg
-56 12 -56 11 -119 -15 -120 -17 0 0 0 -2 88 -61 88 -77 
5 -7 6 3 91 63 92 50 -9 21 -10 19 3630 2404 15 MP stroke
1 sg
-92 16 -15 -1 -14 -1 -53 -18 -53 -19 13 -47 13 -48 52 -11 
53 -12 126 29 126 29 -31 33 -32 34 3611 1851 14 MP
PP
0 sg
-93 16 -92 16 -15 -1 -14 -1 -53 -18 -53 -19 13 -47 13 -48 
52 -11 53 -12 126 29 126 29 -31 33 -32 34 3611 1851 15 MP stroke
1 sg
-17 2 -85 -3 -86 -10 -44 -22 -45 -27 4 -7 5 -7 98 -16 
99 -19 77 20 77 17 -33 37 -33 33 3632 1434 14 MP
PP
0 sg
-17 2 -17 2 -85 -3 -86 -10 -44 -22 -45 -27 4 -7 5 -7 
98 -16 99 -19 77 20 77 17 -33 37 -33 33 3632 1434 15 MP stroke
1 sg
76 25 -46 35 -46 35 -104 9 -105 9 -29 -57 -29 -56 103 -13 
103 -12 3599 2186 10 MP
PP
0 sg
77 25 76 25 -46 35 -46 35 -104 9 -105 9 -29 -57 -29 -56 
103 -13 103 -12 3599 2186 11 MP stroke
1 sg
-1 0 -126 -29 -126 -29 11 -30 10 -30 16 -6 16 -6 105 -9 
104 -9 68 30 69 29 -72 44 -72 45 3545 1918 14 MP
PP
0 sg
-2 0 -1 0 -126 -29 -126 -29 11 -30 10 -30 16 -6 16 -6 
105 -9 104 -9 68 30 69 29 -72 44 -72 45 3545 1918 15 MP stroke
1 sg
93 -16 76 28 76 28 -24 34 -24 33 -97 -4 -97 -4 -48 -42 
-47 -41 3796 1819 10 MP
PP
0 sg
92 -16 93 -16 76 28 76 28 -24 34 -24 33 -97 -4 -97 -4 
-48 -42 -47 -41 3796 1819 11 MP stroke
1 sg
190 -51 12 257 13 237 4 313 5 252 -52 227 -53 136 -141 -253 
-140 -514 -14 -260 -13 -293 3795 4462 12 MP
PP
0 sg
189 -51 190 -51 12 257 13 237 4 313 5 252 -52 227 -53 136 
-141 -253 -140 -514 -14 -260 -13 -293 3795 4462 13 MP stroke
1 sg
-32 -39 46 -19 47 -19 97 4 97 4 11 6 10 6 -42 43 
-42 43 -75 7 -75 6 -5 -1 -4 -1 3729 1619 14 MP
PP
0 sg
-33 -40 -32 -39 46 -19 47 -19 97 4 97 4 11 6 10 6 
-42 43 -42 43 -75 7 -75 6 -5 -1 -4 -1 3729 1619 15 MP stroke
1 sg
35 -17 138 22 137 13 31 28 30 26 -112 26 -111 21 -92 -50 
-91 -63 3794 2557 10 MP
PP
0 sg
35 -6 35 -17 138 22 137 13 31 28 30 26 -112 26 -111 21 
-92 -50 -91 -63 3794 2557 11 MP stroke
1 sg
11 -357 140 514 141 253 48 247 48 107 -50 40 -50 17 -71 26 
-71 17 -79 -179 -78 -426 3790 3293 12 MP
PP
0 sg
11 -259 11 -357 140 514 141 253 48 247 48 107 -50 40 -50 17 
-71 26 -71 17 -79 -179 -78 -426 3790 3293 13 MP stroke
1 sg
-4 1 -93 -17 -93 -19 7 -41 6 -42 56 -11 56 -12 98 23 
98 23 -64 47 -63 48 3561 2263 12 MP
PP
0 sg
-4 0 -4 1 -93 -17 -93 -19 7 -41 6 -42 56 -11 56 -12 
98 23 98 23 -64 47 -63 48 3561 2263 13 MP stroke
1 sg
55 -33 71 -17 71 -26 63 68 62 48 -41 38 -42 32 -137 -13 
-138 -22 -9 -16 -9 -32 3742 2628 12 MP
PP
0 sg
54 -27 55 -33 71 -17 71 -26 63 68 62 48 -41 38 -42 32 
-137 -13 -138 -22 -9 -16 -9 -32 3742 2628 13 MP stroke
1 sg
0 -38 75 -6 75 -7 95 19 95 18 -34 39 -34 36 -59 7 
-59 7 -77 -17 -77 -20 3720 1541 12 MP
PP
0 sg
0 -38 0 -38 75 -6 75 -7 95 19 95 18 -34 39 -34 36 
-59 7 -59 7 -77 -17 -77 -20 3720 1541 13 MP stroke
1 sg
0 -17 71 -15 70 -9 119 -68 118 -309 0 -157 0 -210 -149 313 
-149 212 -40 149 -40 88 3408 1453 12 MP
PP
0 sg
0 23 0 -17 71 -15 70 -9 119 -68 118 -309 0 -157 0 -210 
-149 313 -149 212 -40 149 -40 88 3408 1453 13 MP stroke
1 sg
-71 15 -112 18 -112 -5 33 -33 33 -37 59 -7 59 -7 90 18 
90 8 1 14 0 7 3267 1471 12 MP
PP
0 sg
-70 9 -71 15 -112 18 -112 -5 33 -33 33 -37 59 -7 59 -7 
90 18 90 8 1 14 0 7 3267 1471 13 MP stroke
1 sg
149 -313 23 -336 23 -430 -186 50 -187 51 15 759 14 431 3328 1690 
8 MP
PP
0 sg
149 -212 149 -313 23 -336 23 -430 -186 50 -187 51 15 759 14 431 
3328 1690 9 MP stroke
1 sg
9 -21 111 -21 112 -26 23 4 22 4 32 51 32 50 -15 7 
-16 7 -62 5 -62 5 -98 -23 -98 -23 3630 2404 14 MP
PP
0 sg
10 -19 9 -21 111 -21 112 -26 23 4 22 4 32 51 32 50 
-15 7 -16 7 -62 5 -62 5 -98 -23 -98 -23 3630 2404 15 MP stroke
1 sg
31 -33 1 0 2 0 130 13 131 13 27 39 27 38 -114 10 
-115 10 -76 -28 -76 -28 3611 1851 12 MP
PP
0 sg
32 -34 31 -33 1 0 2 0 130 13 131 13 27 39 27 38 
-114 10 -115 10 -76 -28 -76 -28 3611 1851 13 MP stroke
1 sg
15 -38 4 -1 4 0 147 7 146 7 11 42 12 42 -28 11 
-27 11 -73 4 -73 3 -76 -25 -77 -25 3599 2186 14 MP
PP
0 sg
15 -38 15 -38 4 -1 4 0 147 7 146 7 11 42 12 42 
-28 11 -27 11 -73 4 -73 3 -76 -25 -77 -25 3599 2186 15 MP stroke
1 sg
-65 9 -95 -18 -95 -19 42 -43 42 -43 127 11 128 11 28 15 
28 15 -37 28 -37 25 3249 1611 12 MP
PP
0 sg
-66 9 -65 9 -95 -18 -95 -19 42 -43 42 -43 127 11 128 11 
28 15 28 15 -37 28 -37 25 3249 1611 13 MP stroke
1 sg
-30 13 -146 -7 -147 -7 63 -48 64 -47 62 -5 62 -5 51 47 
51 47 3208 2274 10 MP
PP
0 sg
-30 12 -30 13 -146 -7 -147 -7 63 -48 64 -47 62 -5 62 -5 
51 47 51 47 3208 2274 11 MP stroke
1 sg
-61 20 -131 -13 -130 -13 72 -45 72 -44 93 -2 93 -3 26 40 
26 39 3163 1933 10 MP
PP
0 sg
-60 21 -61 20 -131 -13 -130 -13 72 -45 72 -44 93 -2 93 -3 
26 40 26 39 3163 1933 11 MP stroke
1 sg
46 -35 73 -3 73 -4 78 51 78 51 -35 14 -36 15 -93 3 
-93 2 -69 -29 -68 -30 3538 2066 12 MP
PP
0 sg
46 -35 46 -35 73 -3 73 -4 78 51 78 51 -35 14 -36 15 
-93 3 -93 2 -69 -29 -68 -30 3538 2066 13 MP stroke
1 sg
24 -34 115 -10 114 -10 29 6 30 6 -30 55 -30 54 -128 -11 
-127 -11 -10 -6 -11 -6 3507 1728 12 MP
PP
0 sg
24 -33 24 -34 115 -10 114 -10 29 6 30 6 -30 55 -30 54 
-128 -11 -127 -11 -10 -6 -11 -6 3507 1728 13 MP stroke
1 sg
50 -40 125 8 125 -91 10 7 9 17 -37 139 -37 79 -85 17 
-85 -3 -62 -48 -63 -68 3491 2731 12 MP
PP
0 sg
50 -17 50 -40 125 8 125 -91 10 7 9 17 -37 139 -37 79 
-85 17 -85 -3 -62 -48 -63 -68 3491 2731 13 MP stroke
1 sg
-33 45 -125 91 -125 -8 -48 -107 -48 -247 53 -136 52 -227 136 318 
137 -21 17 82 17 68 3075 3058 12 MP
PP
0 sg
-33 142 -33 45 -125 91 -125 -8 -48 -107 -48 -247 53 -136 52 -227 
136 318 137 -21 17 82 17 68 3075 3058 13 MP stroke
1 sg
-106 14 -22 -4 -23 -4 -30 -26 -31 -28 42 -32 41 -38 85 3 
85 -17 51 29 52 25 -19 33 -19 27 3131 2515 14 MP
PP
0 sg
-106 18 -106 14 -22 -4 -23 -4 -30 -26 -31 -28 42 -32 41 -38 
85 3 85 -17 51 29 52 25 -19 33 -19 27 3131 2515 15 MP stroke
1 sg
-72 -56 -118 309 -119 68 0 -7 -1 -14 87 -26 86 -23 101 6 
100 -120 4 -44 4 -61 2886 1760 12 MP
PP
0 sg
-72 -32 -72 -56 -118 309 -119 68 0 -7 -1 -14 87 -26 86 -23 
101 6 100 -120 4 -44 4 -61 2886 1760 13 MP stroke
1 sg
-87 26 -90 -8 -90 -18 34 -36 34 -39 65 -9 66 -9 80 30 
81 22 -3 10 -4 8 3095 1541 12 MP
PP
0 sg
-86 23 -87 26 -90 -8 -90 -18 34 -36 34 -39 65 -9 66 -9 
80 30 81 22 -3 10 -4 8 3095 1541 13 MP stroke
1 sg
94 -26 43 20 43 20 -125 610 -125 -104 -13 -237 -12 -257 3416 4564 
8 MP
PP
0 sg
95 -26 94 -26 43 20 43 20 -125 610 -125 -104 -13 -237 -12 -257 
3416 4564 9 MP stroke
1 sg
60 28 -44 789 -44 524 -137 21 -136 -318 -5 -252 -4 -313 125 104 
125 -610 3141 4576 10 MP
PP
0 sg
60 27 60 28 -44 789 -44 524 -137 21 -136 -318 -5 -252 -4 -313 
125 104 125 -610 3141 4576 11 MP stroke
1 sg
0 157 72 56 72 32 117 -413 117 -898 -166 45 -166 45 -23 430 
-23 336 3030 2215 10 MP
PP
0 sg
0 210 0 157 72 56 72 32 117 -413 117 -898 -166 45 -166 45 
-23 430 -23 336 3030 2215 11 MP stroke
1 sg
61 22 -34 41 -34 36 -101 6 -100 4 -32 -50 -32 -51 106 -14 
106 -18 3131 2515 10 MP
PP
0 sg
60 24 61 22 -34 41 -34 36 -101 6 -100 4 -32 -50 -32 -51 
106 -14 106 -18 3131 2515 11 MP stroke
1 sg
-5 32 -122 6 -123 4 -51 -47 -51 -47 16 -7 15 -7 100 -4 
101 -6 62 22 63 19 2953 2351 12 MP
PP
0 sg
-5 35 -5 32 -122 6 -123 4 -51 -47 -51 -47 16 -7 15 -7 
100 -4 101 -6 62 22 63 19 2953 2351 13 MP stroke
1 sg
28 -11 131 -3 132 -4 54 21 55 20 -38 40 -37 40 -98 5 
-98 5 -78 -51 -78 -51 3300 2143 12 MP
PP
0 sg
27 -11 28 -11 131 -3 132 -4 54 21 55 20 -38 40 -37 40 
-98 5 -98 5 -78 -51 -78 -51 3300 2143 13 MP stroke
1 sg
-27 -39 61 -20 60 -21 111 12 111 11 -42 51 -42 49 -73 4 
-73 3 -30 -6 -29 -6 3230 1815 12 MP
PP
0 sg
-27 -38 -27 -39 61 -20 60 -21 111 12 111 11 -42 51 -42 49 
-73 4 -73 3 -30 -6 -29 -6 3230 1815 13 MP stroke
1 sg
-18 51 -132 4 -131 3 -12 -42 -11 -42 30 -13 30 -12 123 -4 
122 -6 9 4 9 4 2945 2276 12 MP
PP
0 sg
-19 53 -18 51 -132 4 -131 3 -12 -42 -11 -42 30 -13 30 -12 
123 -4 122 -6 9 4 9 4 2945 2276 13 MP stroke
1 sg
-47 13 -117 898 -117 413 -4 61 -4 44 71 1 70 -25 93 -45 
93 -127 5 -422 4 -823 2558 3096 12 MP
PP
0 sg
-47 12 -47 13 -117 898 -117 413 -4 61 -4 44 71 1 70 -25 
93 -45 93 -127 5 -422 4 -823 2558 3096 13 MP stroke
1 sg
-71 -1 -100 120 -101 -6 4 -8 3 -10 117 -15 117 -20 50 -2 
51 -83 2753 1679 10 MP
PP
0 sg
-70 25 -71 -1 -100 120 -101 -6 4 -8 3 -10 117 -15 117 -20 
50 -2 51 -83 2753 1679 11 MP stroke
1 sg
37 -28 129 -7 130 -13 49 19 48 9 -18 36 -17 26 -117 20 
-117 15 -81 -22 -80 -30 3249 1611 12 MP
PP
0 sg
37 -25 37 -28 129 -7 130 -13 49 19 48 9 -18 36 -17 26 
-117 20 -117 15 -81 -22 -80 -30 3249 1611 13 MP stroke
1 sg
30 -55 73 -3 73 -4 91 21 91 18 -36 46 -37 41 -130 13 
-129 7 -28 -15 -28 -15 3231 1694 12 MP
PP
0 sg
30 -54 30 -55 73 -3 73 -4 91 21 91 18 -36 46 -37 41 
-130 13 -129 7 -28 -15 -28 -15 3231 1694 13 MP stroke
1 sg
-23 4 -111 -11 -111 -12 -26 -39 -26 -40 36 -15 35 -14 98 -5 
98 -5 22 9 22 9 4 57 5 57 2895 1919 14 MP
PP
0 sg
-23 5 -23 4 -111 -11 -111 -12 -26 -39 -26 -40 36 -15 35 -14 
98 -5 98 -5 22 9 22 9 4 57 5 57 2895 1919 15 MP stroke
1 sg
37 -139 146 18 145 -103 11 26 12 22 -22 104 -22 69 -121 99 
-120 37 -52 -25 -51 -29 3196 2629 12 MP
PP
0 sg
37 -79 37 -139 146 18 145 -103 11 26 12 22 -22 104 -22 69 
-121 99 -120 37 -52 -25 -51 -29 3196 2629 13 MP stroke
1 sg
-43 502 -145 103 -146 -18 -9 -17 -10 -7 33 -45 33 -142 120 -468 
120 -909 45 20 45 21 2745 4394 12 MP
PP
0 sg
-43 960 -43 502 -145 103 -146 -18 -9 -17 -10 -7 33 -45 33 -142 
120 -468 120 -909 45 20 45 21 2745 4394 13 MP stroke
1 sg
19 -33 120 -37 121 -99 50 47 51 27 -41 86 -42 48 -88 24 
-88 10 -61 -22 -60 -24 3131 2515 12 MP
PP
0 sg
19 -27 19 -33 120 -37 121 -99 50 47 51 27 -41 86 -42 48 
-88 24 -88 10 -61 -22 -60 -24 3131 2515 13 MP stroke
1 sg
44 -789 93 43 93 43 -120 909 -120 468 -17 -68 -17 -82 3109 3208 
8 MP
PP
0 sg
44 -524 44 -789 93 43 93 43 -120 909 -120 468 -17 -68 -17 -82 
3109 3208 9 MP stroke
1 sg
34 -41 88 -10 88 -24 50 53 50 21 -110 48 -109 30 -63 -19 
-62 -22 3078 2392 10 MP
PP
0 sg
34 -36 34 -41 88 -10 88 -24 50 53 50 21 -110 48 -109 30 
-63 -19 -62 -22 3078 2392 11 MP stroke
1 sg
42 -51 23 -4 23 -5 119 9 120 10 -11 59 -11 55 -82 9 
-83 6 -91 -18 -91 -21 3025 1810 12 MP
PP
0 sg
42 -49 42 -51 23 -4 23 -5 119 9 120 10 -11 59 -11 55 
-82 9 -83 6 -91 -18 -91 -21 3025 1810 13 MP stroke
1 sg
19 -53 98 5 97 2 45 32 45 28 -56 35 -56 34 -51 5 
-50 4 -55 -20 -54 -21 2982 2172 12 MP
PP
0 sg
18 -51 19 -53 98 5 97 2 45 32 45 28 -56 35 -56 34 
-51 5 -50 4 -55 -20 -54 -21 2982 2172 13 MP stroke
1 sg
5 -35 109 -30 110 -48 75 0 76 -10 -4 41 -4 34 -80 56 
-79 39 -97 -2 -98 -5 -9 -4 -9 -4 2963 2284 14 MP
PP
0 sg
5 -32 5 -35 109 -30 110 -48 75 0 76 -10 -4 41 -4 34 
-80 56 -79 39 -97 -2 -98 -5 -9 -4 -9 -4 2963 2284 15 MP stroke
1 sg
33 -2 126 -511 127 -817 -155 42 -156 43 -4 823 -5 422 2567 1851 
8 MP
PP
0 sg
34 0 33 -2 126 -511 127 -817 -155 42 -156 43 -4 823 -5 422 
2567 1851 9 MP stroke
1 sg
-16 5 -151 -7 -150 -8 -22 -9 -22 -9 37 -40 38 -40 50 -4 
51 -5 105 22 105 20 -4 36 -4 35 2570 2027 14 MP
PP
0 sg
-17 4 -16 5 -151 -7 -150 -8 -22 -9 -22 -9 37 -40 38 -40 
50 -4 51 -5 105 22 105 20 -4 36 -4 35 2570 2027 15 MP stroke
1 sg
-34 0 -93 127 -93 45 -51 83 -50 2 17 -26 18 -36 144 -8 
144 -48 15 55 16 -196 2500 1853 12 MP
PP
0 sg
-33 2 -34 0 -93 127 -93 45 -51 83 -50 2 17 -26 18 -36 
144 -8 144 -48 15 55 16 -196 2500 1853 13 MP stroke
1 sg
-21 5 -127 817 -126 511 -16 196 -15 -55 23 -19 24 -4 43 31 
44 20 103 -69 102 -414 -6 -420 -7 -605 2205 3192 14 MP
PP
0 sg
-21 6 -21 5 -127 817 -126 511 -16 196 -15 -55 23 -19 24 -4 
43 31 44 20 103 -69 102 -414 -6 -420 -7 -605 2205 3192 15 MP stroke
1 sg
-23 19 -144 48 -144 8 -48 -9 -49 -19 37 -41 36 -46 83 -6 
82 -9 65 10 65 4 32 33 32 4 2484 1735 14 MP
PP
0 sg
-24 4 -23 19 -144 48 -144 8 -48 -9 -49 -19 37 -41 36 -46 
83 -6 82 -9 65 10 65 4 32 33 32 4 2484 1735 15 MP stroke
1 sg
-2 1 -120 -10 -119 -9 -5 -57 -4 -57 150 8 151 7 -24 59 
-24 58 2651 1901 10 MP
PP
0 sg
-3 0 -2 1 -120 -10 -119 -9 -5 -57 -4 -57 150 8 151 7 
-24 59 -24 58 2651 1901 11 MP stroke
1 sg
-35 519 -107 141 -107 16 -51 -27 -50 -47 22 -69 22 -104 138 -458 
139 -954 32 15 32 14 2467 4267 12 MP
PP
0 sg
-35 954 -35 519 -107 141 -107 16 -51 -27 -50 -47 22 -69 22 -104 
138 -458 139 -954 32 15 32 14 2467 4267 13 MP stroke
1 sg
-15 6 -76 10 -75 0 -50 -21 -50 -53 42 -48 41 -86 107 -16 
107 -141 22 4 22 1 -30 279 -30 30 2553 2480 14 MP
PP
0 sg
-15 35 -15 6 -76 10 -75 0 -50 -21 -50 -53 42 -48 41 -86 
107 -16 107 -141 22 4 22 1 -30 279 -30 30 2553 2480 15 MP stroke
1 sg
43 -960 107 49 107 49 -139 954 -138 458 -12 -22 -11 -26 2831 2932 
8 MP
PP
0 sg
43 -502 43 -960 107 49 107 49 -139 954 -138 458 -12 -22 -11 -26 
2831 2932 9 MP stroke
1 sg
-77 21 -105 -20 -105 -22 56 -34 56 -35 86 0 87 -4 39 38 
39 32 2409 2143 10 MP
PP
0 sg
-76 24 -77 21 -105 -20 -105 -22 56 -34 56 -35 86 0 87 -4 
39 38 39 32 2409 2143 11 MP stroke
1 sg
-47 33 -87 4 -86 0 -45 -28 -45 -32 79 -39 80 -56 99 57 
100 19 2392 2288 10 MP
PP
0 sg
-48 42 -47 33 -87 4 -86 0 -45 -28 -45 -32 79 -39 80 -56 
99 57 100 19 2392 2288 11 MP stroke
1 sg
11 -59 2 -1 3 0 149 0 149 0 34 49 34 42 -132 27 
-131 11 -65 -4 -65 -10 2678 1786 12 MP
PP
0 sg
11 -55 11 -59 2 -1 3 0 149 0 149 0 34 49 34 42 
-132 27 -131 11 -65 -4 -65 -10 2678 1786 13 MP stroke
1 sg
-7 4 -149 0 -149 0 24 -58 24 -59 16 -5 17 -4 110 10 
111 10 5 50 5 49 2339 1908 12 MP
PP
0 sg
-7 3 -7 4 -149 0 -149 0 24 -58 24 -59 16 -5 17 -4 
110 10 111 10 5 50 5 49 2339 1908 13 MP stroke
1 sg
72 -28 64 -414 63 -651 -142 38 -143 39 7 605 6 420 2192 2167 
8 MP
PP
0 sg
73 -9 72 -28 64 -414 63 -651 -142 38 -143 39 7 605 6 420 
2192 2167 9 MP stroke
1 sg
4 -41 15 -6 15 -35 153 25 152 -185 26 8 25 12 -47 231 
-47 61 -51 28 -50 12 -100 -19 -99 -57 2591 2364 14 MP
PP
0 sg
4 -34 4 -41 15 -6 15 -35 153 25 152 -185 26 8 25 12 
-47 231 -47 61 -51 28 -50 12 -100 -19 -99 -57 2591 2364 15 MP stroke
1 sg
-46 12 -111 -10 -110 -10 4 -35 4 -36 77 -21 76 -24 80 4 
80 2 -4 56 -4 49 2257 2032 12 MP
PP
0 sg
-46 13 -46 12 -111 -10 -110 -10 4 -35 4 -36 77 -21 76 -24 
80 4 80 2 -4 56 -4 49 2257 2032 13 MP stroke
1 sg
11 5 -25 952 -26 550 -152 185 -153 -25 30 -30 30 -279 137 -515 
137 -849 2219 4153 10 MP
PP
0 sg
11 6 11 5 -25 952 -26 550 -152 185 -153 -25 30 -30 30 -279 
137 -515 137 -849 2219 4153 11 MP stroke
1 sg
118 -50 54 -26 54 -66 3 -91 3 -246 -72 28 -73 9 -102 414 
-103 69 2397 1684 10 MP
PP
0 sg
118 -41 118 -50 54 -26 54 -66 3 -91 3 -246 -72 28 -73 9 
-102 414 -103 69 2397 1684 11 MP stroke
1 sg
-118 41 -44 -20 -43 -31 -32 -4 -32 -33 131 -11 132 -27 47 -2 
47 -5 15 35 15 7 2161 1775 12 MP
PP
0 sg
-118 50 -118 41 -44 -20 -43 -31 -32 -4 -32 -33 131 -11 132 -27 
47 -2 47 -5 15 35 15 7 2161 1775 13 MP stroke
1 sg
35 -954 124 57 124 57 -137 849 -137 515 -22 -1 -22 -4 2537 2794 
8 MP
PP
0 sg
35 -519 35 -954 124 57 124 57 -137 849 -137 515 -22 -1 -22 -4 
2537 2794 9 MP stroke
1 sg
-52 16 -80 -2 -80 -4 -39 -32 -39 -38 47 -33 48 -42 50 -12 
51 -28 86 37 87 37 -13 50 -14 27 2145 2177 14 MP
PP
0 sg
-52 24 -52 16 -80 -2 -80 -4 -39 -32 -39 -38 47 -33 48 -42 
50 -12 51 -28 86 37 87 37 -13 50 -14 27 2145 2177 15 MP stroke
1 sg
-73 20 -63 651 -64 414 -3 246 -3 91 100 -59 101 -83 21 -70 
22 -81 18 -416 17 -733 1774 3309 12 MP
PP
0 sg
-73 20 -73 20 -63 651 -64 414 -3 246 -3 91 100 -59 101 -83 
21 -70 22 -81 18 -416 17 -733 1774 3309 13 MP stroke
1 sg
-15 -35 118 -17 118 -25 32 7 31 -9 20 -8 20 -140 -101 83 
-100 59 -54 66 -54 26 2161 1775 12 MP
PP
0 sg
-15 -7 -15 -35 118 -17 118 -25 32 7 31 -9 20 -8 20 -140 
-101 83 -100 59 -54 66 -54 26 2161 1775 13 MP stroke
1 sg
-34 -49 7 -4 7 -3 129 -9 130 -11 64 42 64 25 -1 1 
-2 1 -118 25 -118 17 -47 5 -47 2 2285 1810 14 MP
PP
0 sg
-34 -42 -34 -49 7 -4 7 -3 129 -9 130 -11 64 42 64 25 
-1 1 -2 1 -118 25 -118 17 -47 5 -47 2 2285 1810 15 MP stroke
1 sg
-21 13 -130 11 -129 9 -5 -49 -5 -50 46 -12 46 -13 80 10 
79 8 30 31 30 28 2038 1955 12 MP
PP
0 sg
-21 14 -21 13 -130 11 -129 9 -5 -49 -5 -50 46 -12 46 -13 
80 10 79 8 30 31 30 28 2038 1955 13 MP stroke
1 sg
47 -231 129 -368 130 -663 2 647 2 403 -92 254 -92 93 -87 -37 
-86 -37 2291 2328 10 MP
PP
0 sg
47 -61 47 -231 129 -368 130 -663 2 647 2 403 -92 254 -92 93 
-87 -37 -86 -37 2291 2328 11 MP stroke
1 sg
-101 43 -79 -8 -80 -10 4 -49 4 -56 52 -16 52 -24 110 26 
109 9 15 13 15 13 1896 2116 12 MP
PP
0 sg
-101 59 -101 43 -79 -8 -80 -10 4 -49 4 -56 52 -16 52 -24 
110 26 109 9 15 13 15 13 1896 2116 13 MP stroke
1 sg
-10 184 -130 663 -129 368 -25 -12 -26 -8 26 -550 25 -952 140 64 
140 64 1917 4014 10 MP
PP
0 sg
-11 179 -10 184 -130 663 -129 368 -25 -12 -26 -8 26 -550 25 -952 
140 64 140 64 1917 4014 11 MP stroke
1 sg
153 -328 18 -291 18 -361 -153 42 -154 41 -17 733 -18 416 1809 2160 
8 MP
PP
0 sg
153 -252 153 -328 18 -291 18 -361 -153 42 -154 41 -17 733 -18 416 
1809 2160 9 MP stroke
1 sg
-85 129 -109 -9 -110 -26 14 -27 13 -50 92 -93 92 -254 65 -58 
64 -84 25 87 24 75 1756 2581 12 MP
PP
0 sg
-85 310 -85 129 -109 -9 -110 -26 14 -27 13 -50 92 -93 92 -254 
65 -58 64 -84 25 87 24 75 1756 2581 13 MP stroke
1 sg
-20 8 139 -21 138 -120 55 -225 54 -357 2 -70 1 -86 -153 328 
-153 252 -22 81 -21 70 1852 2009 12 MP
PP
0 sg
-20 140 -20 8 139 -21 138 -120 55 -225 54 -357 2 -70 1 -86 
-153 328 -153 252 -22 81 -21 70 1852 2009 13 MP stroke
1 sg
26 9 27 68 27 47 -123 21 -124 10 -30 -28 -30 -31 101 -43 
101 -59 1896 2116 10 MP
PP
0 sg
25 6 26 9 27 68 27 47 -123 21 -124 10 -30 -28 -30 -31 
101 -43 101 -59 1896 2116 11 MP stroke
1 sg
14 -27 133 -30 133 -159 25 -124 25 -150 -118 -14 -118 -137 -54 357 
-55 225 1615 2002 10 MP
PP
0 sg
15 59 14 -27 133 -30 133 -159 25 -124 25 -150 -118 -14 -118 -137 
-54 357 -55 225 1615 2002 11 MP stroke
1 sg
1 -1 134 -34 135 -72 48 14 49 -17 -14 27 -15 -59 -138 120 
-139 21 -31 9 -32 -7 1955 1859 12 MP
PP
0 sg
2 -1 1 -1 134 -34 135 -72 48 14 49 -17 -14 27 -15 -59 
-138 120 -139 21 -31 9 -32 -7 1955 1859 13 MP stroke
1 sg
1 1 -135 72 -134 34 -64 -25 -64 -42 21 -13 21 -14 124 -10 
123 -21 53 11 53 6 1685 1969 12 MP
PP
0 sg
1 1 1 1 -135 72 -134 34 -64 -25 -64 -42 21 -13 21 -14 
124 -10 123 -21 53 11 53 6 1685 1969 13 MP stroke
1 sg
-2 -647 10 -184 11 -179 109 51 109 50 -53 722 -53 448 -64 84 
-65 58 1934 2601 10 MP
PP
0 sg
-2 -403 -2 -647 10 -184 11 -179 109 51 109 50 -53 722 -53 448 
-64 84 -65 58 1934 2601 11 MP stroke
1 sg
-15 -13 85 -129 85 -310 60 -108 59 -142 37 147 36 133 -20 138 
-21 107 -120 152 -120 53 -26 -9 -25 -6 1896 2116 14 MP
PP
0 sg
-15 -13 -15 -13 85 -129 85 -310 60 -108 59 -142 37 147 36 133 
-20 138 -21 107 -120 152 -120 53 -26 -9 -25 -6 1896 2116 15 MP stroke
1 sg
-27 -68 120 -53 120 -152 42 89 42 45 -82 153 -82 50 -53 -6 
-53 -11 1791 1986 10 MP
PP
0 sg
-27 -47 -27 -68 120 -53 120 -152 42 89 42 45 -82 153 -82 50 
-53 -6 -53 -11 1791 1986 11 MP stroke
1 sg
-42 416 -59 142 -60 108 -24 -75 -25 -87 53 -448 53 -722 73 33 
73 34 1553 3846 10 MP
PP
0 sg
-42 599 -42 416 -59 142 -60 108 -24 -75 -25 -87 53 -448 53 -722 
73 33 73 34 1553 3846 11 MP stroke
1 sg
48 -592 51 24 51 23 -94 26 -95 26 -5 108 -5 139 1098 3247 
8 MP
PP
0 sg
49 246 48 -592 51 24 51 23 -94 26 -95 26 -5 108 -5 139 
1098 3247 9 MP stroke
1 sg
-2 70 118 137 118 14 86 -295 86 -519 5 -139 5 -108 -190 51 
-189 51 -18 361 -18 291 1503 2740 12 MP
PP
0 sg
-1 86 -2 70 118 137 118 14 86 -295 86 -519 5 -139 5 -108 
-190 51 -189 51 -18 361 -18 291 1503 2740 13 MP stroke
1 sg
-49 -246 -86 519 -86 295 -25 150 -25 124 13 22 14 -269 103 -457 
103 -769 43 20 43 19 1001 3593 12 MP
PP
0 sg
-48 592 -49 -246 -86 519 -86 295 -25 150 -25 124 13 22 14 -269 
103 -457 103 -769 43 20 43 19 1001 3593 13 MP stroke
1 sg
-1 -1 82 -50 82 -153 76 -58 75 -130 38 -14 39 -32 -14 269 
-13 -22 -133 159 -133 30 -49 17 -48 -14 1683 1967 14 MP
PP
0 sg
-1 -1 -1 -1 82 -50 82 -153 76 -58 75 -130 38 -14 39 -32 
-14 269 -13 -22 -133 159 -133 30 -49 17 -48 -14 1683 1967 15 MP stroke
1 sg
42 -599 84 38 84 39 -89 769 -90 449 -36 -133 -37 -147 1637 2831 
8 MP
PP
0 sg
42 -416 42 -599 84 38 84 39 -89 769 -90 449 -36 -133 -37 -147 
1637 2831 9 MP stroke
1 sg
-43 467 -75 130 -76 58 -42 -45 -42 -89 21 -107 20 -138 90 -449 
89 -769 50 23 50 23 1285 3723 12 MP
PP
0 sg
-42 896 -43 467 -75 130 -76 58 -42 -45 -42 -89 21 -107 20 -138 
90 -449 89 -769 50 23 50 23 1285 3723 13 MP stroke
1 sg
42 -896 99 45 99 46 -103 769 -103 457 -39 32 -38 14 1370 2360 
8 MP
PP
0 sg
43 -467 42 -896 99 45 99 46 -103 769 -103 457 -39 32 -38 14 
1370 2360 9 MP stroke
gr


end %%Color Dict

eplot
%%EndObject

epage
end

showpage

%%Trailer
%%EOF
