%!PS-Adobe-2.0 EPSF-1.2
%%Creator: MATLAB, The MathWorks, Inc. Version 8.0.0.783 (R2012b). Operating System: Microsoft Windows 7.
%%Title: ..\meshes\poligoni-triangle\triangle0.005-solution.eps
%%CreationDate: 02/26/2013  01:37:43
%%DocumentNeededFonts: Helvetica
%%DocumentProcessColors: Cyan Magenta Yellow Black
%%Pages: 1
%%BoundingBox:    70   211   557   583
%%EndComments

%%BeginProlog
% MathWorks dictionary
/MathWorks 160 dict begin
% definition operators
/bdef {bind def} bind def
/ldef {load def} bind def
/xdef {exch def} bdef
/xstore {exch store} bdef
% operator abbreviations
/c  /clip ldef
/cc /concat ldef
/cp /closepath ldef
/gr /grestore ldef
/gs /gsave ldef
/mt /moveto ldef
/np /newpath ldef
/cm /currentmatrix ldef
/sm /setmatrix ldef
/rm /rmoveto ldef
/rl /rlineto ldef
/s {show newpath} bdef
/sc {setcmykcolor} bdef
/sr /setrgbcolor ldef
/sg /setgray ldef
/w /setlinewidth ldef
/j /setlinejoin ldef
/cap /setlinecap ldef
/rc {rectclip} bdef
/rf {rectfill} bdef
% page state control
/pgsv () def
/bpage {/pgsv save def} bdef
/epage {pgsv restore} bdef
/bplot /gsave ldef
/eplot {stroke grestore} bdef
% orientation switch
/portraitMode 0 def /landscapeMode 1 def /rotateMode 2 def
% coordinate system mappings
/dpi2point 0 def
% font control
/FontSize 0 def
/FMS {/FontSize xstore findfont [FontSize 0 0 FontSize neg 0 0]
  makefont setfont} bdef
/ISOLatin1Encoding where {pop /WindowsLatin1Encoding 256 array bdef
ISOLatin1Encoding WindowsLatin1Encoding copy pop
/.notdef/.notdef/quotesinglbase/florin/quotedblbase/ellipsis/dagger
/daggerdbl/circumflex/perthousand/Scaron/guilsinglleft/OE/.notdef/.notdef
/.notdef/.notdef/quoteleft/quoteright/quotedblleft/quotedblright/bullet
/endash/emdash/tilde/trademark/scaron/guilsinglright/oe/.notdef/.notdef
/Ydieresis WindowsLatin1Encoding 128 32 getinterval astore pop}
{/WindowsLatin1Encoding StandardEncoding bdef} ifelse
/reencode {exch dup where {pop load} {pop StandardEncoding} ifelse
  exch dup 3 1 roll findfont dup length dict begin
  { 1 index /FID ne {def}{pop pop} ifelse } forall
  /Encoding exch def currentdict end definefont pop} bdef
/isroman {findfont /CharStrings get /Agrave known} bdef
/FMSR {3 1 roll 1 index dup isroman {reencode} {pop pop} ifelse
  exch FMS} bdef
/csm {1 dpi2point div -1 dpi2point div scale neg translate
 dup landscapeMode eq {pop -90 rotate}
  {rotateMode eq {90 rotate} if} ifelse} bdef
% line types: solid, dotted, dashed, dotdash
/SO { [] 0 setdash } bdef
/DO { [.5 dpi2point mul 4 dpi2point mul] 0 setdash } bdef
/DA { [6 dpi2point mul] 0 setdash } bdef
/DD { [.5 dpi2point mul 4 dpi2point mul 6 dpi2point mul 4
  dpi2point mul] 0 setdash } bdef
% macros for lines and objects
/L {lineto stroke} bdef
/MP {3 1 roll moveto 1 sub {rlineto} repeat} bdef
/AP {{rlineto} repeat} bdef
/PDlw -1 def
/W {/PDlw currentlinewidth def setlinewidth} def
/PP {closepath eofill} bdef
/DP {closepath stroke} bdef
/MR {4 -2 roll moveto dup  0 exch rlineto exch 0 rlineto
  neg 0 exch rlineto closepath} bdef
/FR {MR stroke} bdef
/PR {MR fill} bdef
/L1i {{currentfile picstr readhexstring pop} image} bdef
/tMatrix matrix def
/MakeOval {newpath tMatrix currentmatrix pop translate scale
0 0 1 0 360 arc tMatrix setmatrix} bdef
/FO {MakeOval stroke} bdef
/PO {MakeOval fill} bdef
/PD {currentlinewidth 2 div 0 360 arc fill
   PDlw -1 eq not {PDlw w /PDlw -1 def} if} def
/FA {newpath tMatrix currentmatrix pop translate scale
  0 0 1 5 -2 roll arc tMatrix setmatrix stroke} bdef
/PA {newpath tMatrix currentmatrix pop	translate 0 0 moveto scale
  0 0 1 5 -2 roll arc closepath tMatrix setmatrix fill} bdef
/FAn {newpath tMatrix currentmatrix pop translate scale
  0 0 1 5 -2 roll arcn tMatrix setmatrix stroke} bdef
/PAn {newpath tMatrix currentmatrix pop translate 0 0 moveto scale
  0 0 1 5 -2 roll arcn closepath tMatrix setmatrix fill} bdef
/vradius 0 def /hradius 0 def /lry 0 def
/lrx 0 def /uly 0 def /ulx 0 def /rad 0 def
/MRR {/vradius xdef /hradius xdef /lry xdef /lrx xdef /uly xdef
  /ulx xdef newpath tMatrix currentmatrix pop ulx hradius add uly
  vradius add translate hradius vradius scale 0 0 1 180 270 arc 
  tMatrix setmatrix lrx hradius sub uly vradius add translate
  hradius vradius scale 0 0 1 270 360 arc tMatrix setmatrix
  lrx hradius sub lry vradius sub translate hradius vradius scale
  0 0 1 0 90 arc tMatrix setmatrix ulx hradius add lry vradius sub
  translate hradius vradius scale 0 0 1 90 180 arc tMatrix setmatrix
  closepath} bdef
/FRR {MRR stroke } bdef
/PRR {MRR fill } bdef
/MlrRR {/lry xdef /lrx xdef /uly xdef /ulx xdef /rad lry uly sub 2 div def
  newpath tMatrix currentmatrix pop ulx rad add uly rad add translate
  rad rad scale 0 0 1 90 270 arc tMatrix setmatrix lrx rad sub lry rad
  sub translate rad rad scale 0 0 1 270 90 arc tMatrix setmatrix
  closepath} bdef
/FlrRR {MlrRR stroke } bdef
/PlrRR {MlrRR fill } bdef
/MtbRR {/lry xdef /lrx xdef /uly xdef /ulx xdef /rad lrx ulx sub 2 div def
  newpath tMatrix currentmatrix pop ulx rad add uly rad add translate
  rad rad scale 0 0 1 180 360 arc tMatrix setmatrix lrx rad sub lry rad
  sub translate rad rad scale 0 0 1 0 180 arc tMatrix setmatrix
  closepath} bdef
/FtbRR {MtbRR stroke } bdef
/PtbRR {MtbRR fill } bdef
/stri 6 array def /dtri 6 array def
/smat 6 array def /dmat 6 array def
/tmat1 6 array def /tmat2 6 array def /dif 3 array def
/asub {/ind2 exch def /ind1 exch def dup dup
  ind1 get exch ind2 get sub exch } bdef
/tri_to_matrix {
  2 0 asub 3 1 asub 4 0 asub 5 1 asub
  dup 0 get exch 1 get 7 -1 roll astore } bdef
/compute_transform {
  dmat dtri tri_to_matrix tmat1 invertmatrix 
  smat stri tri_to_matrix tmat2 concatmatrix } bdef
/ds {stri astore pop} bdef
/dt {dtri astore pop} bdef
/db {2 copy /cols xdef /rows xdef mul dup string
  currentfile exch readhexstring pop
  /bmap xdef pop pop} bdef
/it {gs np dtri aload pop moveto lineto lineto cp c
  cols rows 8 compute_transform 
  {bmap} image gr}bdef
/il {newpath moveto lineto stroke}bdef
currentdict end def
%%EndProlog

%%BeginSetup
MathWorks begin

0 cap

end
%%EndSetup

%%Page: 1 1
%%BeginPageSetup
%%PageBoundingBox:    70   211   557   583
MathWorks begin
bpage
%%EndPageSetup

%%BeginObject: obj1
bplot

/dpi2point 12 def
portraitMode 0216 7344 csm

  630   340  5848  4462 MR c np
85 dict begin %Colortable dictionary
/c0 { 0.000000 0.000000 0.000000 sr} bdef
/c1 { 1.000000 1.000000 1.000000 sr} bdef
/c2 { 0.900000 0.000000 0.000000 sr} bdef
/c3 { 0.000000 0.820000 0.000000 sr} bdef
/c4 { 0.000000 0.000000 0.800000 sr} bdef
/c5 { 0.910000 0.820000 0.320000 sr} bdef
/c6 { 1.000000 0.260000 0.820000 sr} bdef
/c7 { 0.000000 0.820000 0.820000 sr} bdef
c0
1 j
1 sg
   0    0 6919 5187 PR
6 w
0 2336 -2329 -1070 0 -2336 6261 3794 4 MP
PP
2329 1070 0 2336 -2329 -1070 0 -2336 6261 3794 5 MP stroke
2329 1070 3033 -822 -2328 -1070 3227 4616 4 MP
PP
-3034 822 2329 1070 3033 -822 -2328 -1070 3227 4616 5 MP stroke
0 2336 3033 -822 0 -2336 899 3546 4 MP
PP
-3033 822 0 2336 3033 -822 0 -2336 899 3546 5 MP stroke
4 w
DO
SO
6 w
0 sg
3227 4616 mt 6261 3794 L
3227 4616 mt  899 3546 L
 899 3546 mt  899 1210 L
3227 4616 mt 3298 4648 L
%%IncludeResource: font Helvetica
/Helvetica /WindowsLatin1Encoding 120 FMSR

3329 4774 mt 
(0) s
3833 4451 mt 3905 4484 L
3936 4610 mt 
(0.2) s
4440 4287 mt 4512 4320 L
4543 4445 mt 
(0.4) s
5047 4123 mt 5118 4156 L
5150 4281 mt 
(0.6) s
5654 3959 mt 5725 3991 L
5757 4117 mt 
(0.8) s
6261 3794 mt 6332 3827 L
6363 3953 mt 
(1) s
3227 4616 mt 3151 4636 L
3051 4756 mt 
(0) s
2761 4402 mt 2685 4422 L
2486 4542 mt 
(0.2) s
2295 4188 mt 2219 4208 L
2020 4328 mt 
(0.4) s
1830 3974 mt 1754 3994 L
1555 4114 mt 
(0.6) s
1364 3760 mt 1288 3780 L
1089 3900 mt 
(0.8) s
 899 3546 mt  823 3566 L
 723 3686 mt 
(1) s
 899 3546 mt  827 3513 L
 730 3542 mt 
(0) s
 899 3078 mt  827 3046 L
 630 3075 mt 
(0.2) s
 899 2611 mt  827 2578 L
 630 2608 mt 
(0.4) s
 899 2144 mt  827 2111 L
 630 2141 mt 
(0.6) s
 899 1677 mt  827 1644 L
 630 1673 mt 
(0.8) s
 899 1210 mt  827 1177 L
 730 1206 mt 
(1) s
gs 899 388 5363 4228 MR c np
1 sg
-10 -51 -73 -33 -73 -33 61 -17 61 -16 22 241 23 -48 6094 3634 
8 MP
PP
0 sg
-11 -43 -10 -51 -73 -33 -73 -33 61 -17 61 -16 22 241 23 -48 
6094 3634 9 MP stroke
1 sg
47 291 86 217 86 173 3 7 4 9 13 -91 12 -197 -97 -353 
-97 -443 -52 -24 -52 -24 5876 3618 12 MP
PP
0 sg
47 435 47 291 86 217 86 173 3 7 4 9 13 -91 12 -197 
-97 -353 -97 -443 -52 -24 -52 -24 5876 3618 13 MP stroke
1 sg
-81 -231 -40 -62 -40 -63 -12 197 -13 91 142 237 143 198 36 39 
37 28 -45 -103 -45 -141 5335 2228 12 MP
PP
0 sg
-82 -190 -81 -231 -40 -62 -40 -63 -12 197 -13 91 142 237 143 198 
36 39 37 28 -45 -103 -45 -141 5335 2228 13 MP stroke
1 sg
0 19 49 37 50 31 108 78 109 69 -91 -63 -91 -107 -14 -16 
-15 -17 -52 -39 -52 -43 4998 1800 12 MP
PP
0 sg
-1 51 0 19 49 37 50 31 108 78 109 69 -91 -63 -91 -107 
-14 -16 -15 -17 -52 -39 -52 -43 4998 1800 13 MP stroke
1 sg
45 103 123 141 123 113 0 -19 1 -51 -106 -156 -106 -199 -62 -33 
-63 -40 5335 2228 10 MP
PP
0 sg
45 141 45 103 123 141 123 113 0 -19 1 -51 -106 -156 -106 -199 
-62 -33 -63 -40 5335 2228 11 MP stroke
1 sg
54 18 98 86 98 73 61 90 60 67 -4 0 -3 -1 -50 -31 
-49 -37 -123 -113 -123 -141 -37 -28 -36 -39 5318 2051 14 MP
PP
0 sg
54 56 54 18 98 86 98 73 61 90 60 67 -4 0 -3 -1 
-50 -31 -49 -37 -123 -113 -123 -141 -37 -28 -36 -39 5318 2051 15 MP stroke
1 sg
31 348 81 231 82 190 63 40 62 33 -30 -179 -31 -230 -118 -391 
-118 -493 -26 -12 -26 -12 5559 3472 12 MP
PP
0 sg
30 475 31 348 81 231 82 190 63 40 62 33 -30 -179 -31 -230 
-118 -391 -118 -493 -26 -12 -26 -12 5559 3472 13 MP stroke
1 sg
22 -29 124 147 124 114 54 134 54 108 -54 -18 -54 -56 -143 -198 
-142 -237 -4 -9 -3 -7 5610 2502 12 MP
PP
0 sg
22 51 22 -29 124 147 124 114 54 134 54 108 -54 -18 -54 -56 
-143 -198 -142 -237 -4 -9 -3 -7 5610 2502 13 MP stroke
1 sg
88 172 -47 -291 -47 -435 -119 -55 -120 -55 10 51 11 43 68 203 
68 189 5958 3242 10 MP
PP
0 sg
88 178 88 172 -47 -291 -47 -435 -119 -55 -120 -55 10 51 11 43 
68 203 68 189 5958 3242 11 MP stroke
1 sg
-86 -217 -88 -172 -88 -178 78 171 77 -38 41 58 41 58 78 291 
77 222 -22 29 -22 -51 5610 2502 12 MP
PP
0 sg
-86 -173 -86 -217 -88 -172 -88 -178 78 171 77 -38 41 58 41 58 
78 291 77 222 -22 29 -22 -51 5610 2502 13 MP stroke
1 sg
68 -18 100 413 100 342 -77 38 -78 -171 -68 -189 -68 -203 -23 48 
-22 -241 6139 3827 10 MP
PP
0 sg
68 -19 68 -18 100 413 100 342 -77 38 -78 -171 -68 -189 -68 -203 
-23 48 -22 -241 6139 3827 11 MP stroke
1 sg
-30 -475 -106 -49 -107 -49 97 443 97 353 40 63 40 62 5498 2649 
8 MP
PP
0 sg
-31 -348 -30 -475 -106 -49 -107 -49 97 443 97 353 40 63 40 62 
5498 2649 9 MP stroke
1 sg
-41 -58 -100 -342 -100 -413 115 -31 114 -31 33 513 32 371 -6 25 
-6 24 5721 2993 10 MP
PP
0 sg
-41 -58 -41 -58 -100 -342 -100 -413 115 -31 114 -31 33 513 32 371 
-6 25 -6 24 5721 2993 11 MP stroke
1 sg
-102 -50 -32 -371 -33 -513 82 -22 83 -23 50 316 51 272 1 228 
1 195 5506 2960 10 MP
PP
0 sg
-101 -32 -102 -50 -32 -371 -33 -513 82 -22 83 -23 50 316 51 272 
1 228 1 195 5506 2960 11 MP stroke
1 sg
29 343 105 281 106 228 42 6 42 1 -33 -179 -33 -221 -114 -388 
-115 -490 -29 -13 -29 -14 5271 3340 12 MP
PP
0 sg
29 446 29 343 105 281 106 228 42 6 42 1 -33 -179 -33 -221 
-114 -388 -115 -490 -29 -13 -29 -14 5271 3340 13 MP stroke
1 sg
30 179 106 199 106 156 52 43 52 39 -54 -131 -54 -193 -106 -228 
-105 -281 -29 -8 -29 -5 5271 2564 12 MP
PP
0 sg
31 230 30 179 106 199 106 156 52 43 52 39 -54 -131 -54 -193 
-106 -228 -105 -281 -29 -8 -29 -5 5271 2564 13 MP stroke
1 sg
20 -63 133 136 132 110 32 145 33 110 -33 9 -33 3 -98 -73 
-98 -86 -54 -108 -54 -134 5318 2219 12 MP
PP
0 sg
20 -49 20 -63 133 136 132 110 32 145 33 110 -33 9 -33 3 
-98 -73 -98 -86 -54 -108 -54 -134 5318 2219 13 MP stroke
1 sg
-124 -147 -77 -222 -78 -291 6 -24 6 -25 102 50 101 32 114 358 
114 271 0 3 0 -3 -20 63 -20 49 5318 2219 14 MP
PP
0 sg
-124 -114 -124 -147 -77 -222 -78 -291 6 -24 6 -25 102 50 101 32 
114 358 114 271 0 3 0 -3 -20 63 -20 49 5318 2219 15 MP stroke
1 sg
-29 -446 -118 -54 -118 -54 118 493 118 391 29 5 29 8 5213 2551 
8 MP
PP
0 sg
-29 -343 -29 -446 -118 -54 -118 -54 118 493 118 391 29 5 29 8 
5213 2551 9 MP stroke
1 sg
-144 -66 -51 -272 -50 -316 148 -40 149 -40 46 433 46 361 5220 3257 
8 MP
PP
0 sg
-144 -60 -144 -66 -51 -272 -50 -316 148 -40 149 -40 46 433 46 361 
5220 3257 9 MP stroke
1 sg
0 7 -29 553 -30 364 -114 -271 -114 -358 -1 -195 -1 -228 144 66 
144 60 5220 3257 10 MP
PP
0 sg
1 2 0 7 -29 553 -30 364 -114 -271 -114 -358 -1 -195 -1 -228 
144 66 144 60 5220 3257 11 MP stroke
1 sg
-15 -113 -145 -67 -146 -67 14 100 13 93 154 432 153 355 -6 -282 
-6 -348 4629 2843 10 MP
PP
0 sg
-16 -103 -15 -113 -145 -67 -146 -67 14 100 13 93 154 432 153 355 
-6 -282 -6 -348 4629 2843 11 MP stroke
1 sg
-14 -100 -131 -60 -131 -60 115 490 114 388 50 -19 49 -19 -20 -240 
-19 -287 4924 3000 10 MP
PP
0 sg
-13 -93 -14 -100 -131 -60 -131 -60 115 490 114 388 50 -19 49 -19 
-20 -240 -19 -287 4924 3000 11 MP stroke
1 sg
-98 -225 0 -7 -1 -2 -46 -361 -46 -433 189 -51 190 -52 4 48 
5 48 -15 708 -16 518 -12 14 -12 16 -22 -14 -22 -16 5023 2832 
16 MP
PP
0 sg
-98 -191 -98 -225 0 -7 -1 -2 -46 -361 -46 -433 189 -51 190 -52 
4 48 5 48 -15 708 -16 518 -12 14 -12 16 -22 -14 -22 -16 
5023 2832 17 MP stroke
1 sg
29 -553 98 225 98 191 11 449 10 294 -5 -1 -6 5 -132 -110 
-133 -136 0 3 0 -3 5278 2331 12 MP
PP
0 sg
30 -364 29 -553 98 225 98 191 11 449 10 294 -5 -1 -6 5 
-132 -110 -133 -136 0 3 0 -3 5278 2331 13 MP stroke
1 sg
-41 -166 -153 -355 -154 -432 19 287 20 240 120 408 121 290 64 32 
65 29 -10 -87 -10 -102 4535 1903 12 MP
PP
0 sg
-41 -144 -41 -166 -153 -355 -154 -432 19 287 20 240 120 408 121 290 
64 32 65 29 -10 -87 -10 -102 4535 1903 13 MP stroke
1 sg
33 179 112 218 112 166 42 15 43 13 -18 -70 -17 -82 -121 -290 
-120 -408 -49 19 -50 19 4984 2435 12 MP
PP
0 sg
33 221 33 179 112 218 112 166 42 15 43 13 -18 -70 -17 -82 
-121 -290 -120 -408 -49 19 -50 19 4984 2435 13 MP stroke
1 sg
125 304 -24 49 -25 44 -112 -61 -113 -73 -10 -294 -11 -449 22 16 
22 14 4979 2802 10 MP
PP
0 sg
126 450 125 304 -24 49 -25 44 -112 -61 -113 -73 -10 -294 -11 -449 
22 16 22 14 4979 2802 11 MP stroke
1 sg
24 50 67 59 67 48 97 48 97 44 -35 -26 -36 -37 -109 -97 
-110 -129 -43 -13 -42 -15 4694 1651 12 MP
PP
0 sg
23 68 24 50 67 59 67 48 97 48 97 44 -35 -26 -36 -37 
-109 -97 -110 -129 -43 -13 -42 -15 4694 1651 13 MP stroke
1 sg
15 9 173 58 174 23 4 0 5 0 0 -6 0 -17 -99 -23 
-98 -41 -94 3 -95 -16 4106 1273 12 MP
PP
0 sg
15 10 15 9 173 58 174 23 4 0 5 0 0 -6 0 -17 
-99 -23 -98 -41 -94 3 -95 -16 4106 1273 13 MP stroke
1 sg
126 19 32 11 33 4 -174 -23 -173 -58 15 19 16 -1 4045 1236 
8 MP
PP
0 sg
125 29 126 19 32 11 33 4 -174 -23 -173 -58 15 19 16 -1 
4045 1236 9 MP stroke
1 sg
-29 -19 -51 -25 -50 -30 -63 -16 -63 -18 36 37 35 26 76 34 
75 25 56 19 55 16 6 2 6 2 -16 1 -15 -19 -15 -9 
-15 -10 4106 1273 18 MP
PP
0 sg
-28 -16 -29 -19 -51 -25 -50 -30 -63 -16 -63 -18 36 37 35 26 
76 34 75 25 56 19 55 16 6 2 6 2 -16 1 -15 -19 
-15 -9 -15 -10 4106 1273 19 MP stroke
1 sg
23 8 133 47 134 32 9 4 9 3 7 26 7 16 -75 -25 
-76 -34 -97 -44 -97 -48 4513 1426 12 MP
PP
0 sg
23 15 23 8 133 47 134 32 9 4 9 3 7 26 7 16 
-75 -25 -76 -34 -97 -44 -97 -48 4513 1426 13 MP stroke
1 sg
-67 -59 -109 -73 -109 -79 91 107 91 63 63 31 63 28 45 28 
45 25 -23 -8 -23 -15 4513 1426 12 MP
PP
0 sg
-67 -48 -67 -59 -109 -73 -109 -79 91 107 91 63 63 31 63 28 
45 28 45 25 -23 -8 -23 -15 4513 1426 13 MP stroke
1 sg
54 131 15 17 14 16 109 79 109 73 -24 -50 -23 -68 -112 -166 
-112 -218 -42 -1 -42 -6 5002 2042 12 MP
PP
0 sg
54 193 54 131 15 17 14 16 109 79 109 73 -24 -50 -23 -68 
-112 -166 -112 -218 -42 -1 -42 -6 5002 2042 13 MP stroke
1 sg
33 -9 156 75 155 53 2 1 2 2 -6 69 -6 53 -124 -32 
-124 -52 -60 -67 -61 -90 5014 1818 12 MP
PP
0 sg
33 -3 33 -9 156 75 155 53 2 1 2 2 -6 69 -6 53 
-124 -32 -124 -52 -60 -67 -61 -90 5014 1818 13 MP stroke
1 sg
5 1 113 73 112 61 70 144 70 109 -155 -53 -156 -75 -33 -110 
-32 -145 5013 2085 10 MP
PP
0 sg
6 -5 5 1 113 73 112 61 70 144 70 109 -155 -53 -156 -75 
-33 -110 -32 -145 5013 2085 11 MP stroke
1 sg
-76 -296 -128 -324 -127 -411 6 348 6 282 41 166 41 144 133 192 
133 150 25 -8 25 -11 -1 -10 -1 -11 4221 1601 14 MP
PP
0 sg
-77 -211 -76 -296 -128 -324 -127 -411 6 348 6 282 41 166 41 144 
133 192 133 150 25 -8 25 -11 -1 -10 -1 -11 4221 1601 15 MP stroke
1 sg
-111 -36 -125 -304 -126 -450 12 -16 12 -14 162 210 162 168 63 273 
62 198 4506 1983 10 MP
PP
0 sg
-111 -29 -111 -36 -125 -304 -126 -450 12 -16 12 -14 162 210 162 168 
63 273 62 198 4506 1983 11 MP stroke
1 sg
128 324 17 -56 17 -59 -44 -323 -44 -406 -116 -53 -116 -54 15 113 
16 103 4629 2843 10 MP
PP
0 sg
127 411 128 324 17 -56 17 -59 -44 -323 -44 -406 -116 -53 -116 -54 
15 113 16 103 4629 2843 11 MP stroke
1 sg
24 279 -29 51 -29 47 -162 -168 -162 -210 16 -518 15 -708 152 490 
152 387 4620 3181 10 MP
PP
0 sg
23 350 24 279 -29 51 -29 47 -162 -168 -162 -210 16 -518 15 -708 
152 490 152 387 4620 3181 11 MP stroke
1 sg
161 -44 11 563 10 444 -15 28 -15 25 -152 -387 -152 -490 -5 -48 
-4 -48 4933 4154 10 MP
PP
0 sg
161 -43 161 -44 11 563 10 444 -15 28 -15 25 -152 -387 -152 -490 
-5 -48 -4 -48 4933 4154 11 MP stroke
1 sg
18 70 110 129 109 97 63 18 63 16 -126 -139 -125 -212 -65 -29 
-64 -32 4644 1775 10 MP
PP
0 sg
17 82 18 70 110 129 109 97 63 18 63 16 -126 -139 -125 -212 
-65 -29 -64 -32 4644 1775 11 MP stroke
1 sg
4 0 124 52 124 32 110 61 110 53 -66 12 -66 -5 -63 -28 
-63 -31 -109 -69 -108 -78 4900 1662 12 MP
PP
0 sg
3 1 4 0 124 52 124 32 110 61 110 53 -66 12 -66 -5 
-63 -28 -63 -31 -109 -69 -108 -78 4900 1662 13 MP stroke
1 sg
51 25 -53 -93 -53 -160 -133 -150 -133 -192 10 102 10 87 125 212 
126 139 4264 1363 10 MP
PP
0 sg
50 30 51 25 -53 -93 -53 -160 -133 -150 -133 -192 10 102 10 87 
125 212 126 139 4264 1363 11 MP stroke
1 sg
-36 -5 -2 -2 -2 -1 -70 -109 -70 -144 25 -44 24 -49 111 36 
111 29 54 53 54 45 -81 109 -81 87 4560 1689 14 MP
PP
0 sg
-37 -5 -36 -5 -2 -2 -2 -1 -70 -109 -70 -144 25 -44 24 -49 
111 36 111 29 54 53 54 45 -81 109 -81 87 4560 1689 15 MP stroke
1 sg
-66 -11 -110 -53 -110 -61 6 -53 6 -69 36 5 37 5 105 55 
105 46 29 79 29 65 4292 1444 12 MP
PP
0 sg
-67 -8 -66 -11 -110 -53 -110 -61 6 -53 6 -69 36 5 37 5 
105 55 105 46 29 79 29 65 4292 1444 13 MP stroke
1 sg
-74 -216 -103 -129 -104 -170 -17 59 -17 56 76 296 77 211 117 50 
117 17 1 -9 1 -10 3985 1553 12 MP
PP
0 sg
-74 -155 -74 -216 -103 -129 -104 -170 -17 59 -17 56 76 296 77 211 
117 50 117 17 1 -9 1 -10 3985 1553 13 MP stroke
1 sg
44 323 104 170 103 129 9 -113 9 -122 -98 -310 -97 -429 -59 -27 
-59 -27 4428 2952 10 MP
PP
0 sg
44 406 44 323 104 170 103 129 9 -113 9 -122 -98 -310 -97 -429 
-59 -27 -59 -27 4428 2952 11 MP stroke
1 sg
-18 -5 -54 -45 -54 -53 -62 -198 -63 -273 29 -47 29 -51 118 146 
119 118 19 51 20 47 -32 176 -32 140 4361 1874 14 MP
PP
0 sg
-19 -6 -18 -5 -54 -45 -54 -53 -62 -198 -63 -273 29 -47 29 -51 
118 146 119 118 19 51 20 47 -32 176 -32 140 4361 1874 15 MP stroke
1 sg
-40 -371 -96 -44 -95 -44 97 429 98 310 38 15 38 5 4039 2139 
8 MP
PP
0 sg
-40 -300 -40 -371 -96 -44 -95 -44 97 429 98 310 38 15 38 5 
4039 2139 9 MP stroke
1 sg
161 211 -35 251 -34 206 -119 -118 -118 -146 -24 -279 -23 -350 15 -25 
15 -28 4590 3234 10 MP
PP
0 sg
162 278 161 211 -35 251 -34 206 -119 -118 -118 -146 -24 -279 -23 -350 
15 -25 15 -28 4590 3234 11 MP stroke
1 sg
-15 9 -161 -211 -162 -278 -10 -444 -11 -563 57 -15 57 -16 148 698 
147 498 3 57 3 55 -21 107 -20 98 4237 2759 14 MP
PP
0 sg
-15 5 -15 9 -161 -211 -162 -278 -10 -444 -11 -563 57 -15 57 -16 
148 698 147 498 3 57 3 55 -21 107 -20 98 4237 2759 15 MP stroke
1 sg
-67 7 -105 -46 -105 -55 81 -87 81 -109 18 5 19 6 77 51 
77 45 -4 94 -4 80 4215 1604 12 MP
PP
0 sg
-68 9 -67 7 -105 -46 -105 -55 81 -87 81 -109 18 5 19 6 
77 51 77 45 -4 94 -4 80 4215 1604 13 MP stroke
1 sg
53 93 29 19 28 16 95 16 94 -3 -5 -8 -4 -8 -146 -111 
-147 -193 -25 11 -25 8 4269 1561 12 MP
PP
0 sg
53 160 53 93 29 19 28 16 95 16 94 -3 -5 -8 -4 -8 
-146 -111 -147 -193 -25 11 -25 8 4269 1561 13 MP stroke
1 sg
66 -12 66 11 67 8 20 6 20 5 18 9 19 10 7 51 
8 39 -134 -32 -133 -47 -45 -25 -45 -28 4557 1456 14 MP
PP
0 sg
66 5 66 -12 66 11 67 8 20 6 20 5 18 9 19 10 
7 51 8 39 -134 -32 -133 -47 -45 -25 -45 -28 4557 1456 15 MP stroke
1 sg
41 326 0 7 0 11 -54 294 -55 258 -147 -498 -148 -698 161 -43 
161 -44 4175 4359 10 MP
PP
0 sg
41 387 41 326 0 7 0 11 -54 294 -55 258 -147 -498 -148 -698 
161 -43 161 -44 4175 4359 11 MP stroke
1 sg
-9 113 74 216 74 155 110 -15 111 -77 -90 -147 -91 -214 -47 -59 
-47 -74 -38 -5 -38 -15 4115 2159 12 MP
PP
0 sg
-9 122 -9 113 74 216 74 155 110 -15 111 -77 -90 -147 -91 -214 
-47 -59 -47 -74 -38 -5 -38 -15 4115 2159 13 MP stroke
1 sg
-92 -9 -77 -45 -77 -51 32 -140 32 -176 124 80 124 61 12 159 
13 126 4024 1764 10 MP
PP
0 sg
-91 -5 -92 -9 -77 -45 -77 -51 32 -140 32 -176 124 80 124 61 
12 159 13 126 4024 1764 11 MP stroke
1 sg
-75 -123 -117 -17 -117 -50 1 11 1 10 147 193 146 111 45 -19 
44 -30 3837 1325 10 MP
PP
0 sg
-75 -86 -75 -123 -117 -17 -117 -50 1 11 1 10 147 193 146 111 
45 -19 44 -30 3837 1325 11 MP stroke
1 sg
-105 26 -20 -5 -20 -6 -29 -65 -29 -79 67 -7 68 -9 78 34 
78 31 9 23 9 22 4041 1494 12 MP
PP
0 sg
-106 35 -105 26 -20 -5 -20 -6 -29 -65 -29 -79 67 -7 68 -9 
78 34 78 31 9 23 9 22 4041 1494 13 MP stroke
1 sg
40 300 47 74 47 59 96 -120 96 -265 1 -159 1 -174 -143 146 
-143 -194 -41 -19 -41 -19 4119 2810 12 MP
PP
0 sg
40 371 40 300 47 74 47 59 96 -120 96 -265 1 -159 1 -174 
-143 146 -143 -194 -41 -19 -41 -19 4119 2810 13 MP stroke
1 sg
35 -251 15 -9 15 -5 128 393 128 253 0 5 0 3 -34 28 
-34 28 -124 -61 -124 -80 -20 -47 -19 -51 4336 2288 14 MP
PP
0 sg
34 -206 35 -251 15 -9 15 -5 128 393 128 253 0 5 0 3 
-34 28 -34 28 -124 -61 -124 -80 -20 -47 -19 -51 4336 2288 15 MP stroke
1 sg
-1 9 75 123 75 86 86 0 85 -19 -15 -125 -16 -174 -5 -6 
-4 -2 -29 5 -29 1 -111 77 -110 15 3985 1553 14 MP
PP
0 sg
-1 10 -1 9 75 123 75 86 86 0 85 -19 -15 -125 -16 -174 
-5 -6 -4 -2 -29 5 -29 1 -111 77 -110 15 3985 1553 15 MP stroke
1 sg
106 -35 131 33 131 28 -10 31 -11 29 -53 8 -52 7 -155 -25 
-155 -31 -19 -10 -18 -9 4252 1433 12 MP
PP
0 sg
105 -26 106 -35 131 33 131 28 -10 31 -11 29 -53 8 -52 7 
-155 -25 -155 -31 -19 -10 -18 -9 4252 1433 13 MP stroke
1 sg
-88 117 -128 -253 -128 -393 20 -98 21 -107 195 372 196 225 3805 2367 
8 MP
PP
0 sg
-88 137 -88 117 -128 -253 -128 -393 20 -98 21 -107 195 372 196 225 
3805 2367 9 MP stroke
1 sg
-7 -51 155 31 155 25 -13 40 -13 35 -125 -13 -126 -21 -9 -3 
-9 -4 4200 1324 10 MP
PP
0 sg
-8 -39 -7 -51 155 31 155 25 -13 40 -13 35 -125 -13 -126 -21 
-9 -3 -9 -4 4200 1324 11 MP stroke
1 sg
-94 28 -78 -31 -78 -34 4 -80 4 -94 92 9 91 5 1 1 
2 0 75 90 75 74 3871 1599 12 MP
PP
0 sg
-94 32 -94 28 -78 -31 -78 -34 4 -80 4 -94 92 9 91 5 
1 1 2 0 75 90 75 74 3871 1599 13 MP stroke
1 sg
-1 159 86 92 86 72 105 -281 105 -369 -186 51 -186 50 -4 23 
-4 29 3751 2724 10 MP
PP
0 sg
-1 174 -1 159 86 92 86 72 105 -281 105 -369 -186 51 -186 50 
-4 23 -4 29 3751 2724 11 MP stroke
1 sg
143 -146 4 -29 4 -23 -95 26 -94 26 -53 -24 -52 -24 4037 2772 
8 MP
PP
0 sg
143 194 143 -146 4 -29 4 -23 -95 26 -94 26 -53 -24 -52 -24 
4037 2772 9 MP stroke
1 sg
-5 4 -196 -225 -195 -372 -3 -55 -3 -57 55 -258 54 -294 175 581 
176 371 9 92 9 83 -35 70 -35 62 3794 2369 14 MP
PP
0 sg
-6 -2 -5 4 -196 -225 -195 -372 -3 -55 -3 -57 55 -258 54 -294 
175 581 176 371 9 92 9 83 -35 70 -35 62 3794 2369 15 MP stroke
1 sg
-17 -3 -85 19 -86 0 -44 30 -45 19 4 8 5 8 98 41 
99 23 77 -16 77 -31 -33 -40 -33 -55 3632 1338 14 MP
PP
0 sg
-17 -3 -17 -3 -85 19 -86 0 -44 30 -45 19 4 8 5 8 
98 41 99 23 77 -16 77 -31 -33 -40 -33 -55 3632 1338 15 MP stroke
1 sg
-116 -5 -55 -16 -56 -19 -7 -16 -7 -26 126 21 125 13 53 17 
53 16 3825 1250 10 MP
PP
0 sg
-116 15 -116 -5 -55 -16 -56 -19 -7 -16 -7 -26 126 21 125 13 
53 17 53 16 3825 1250 11 MP stroke
1 sg
-151 31 -41 -326 -41 -387 190 -51 190 -52 13 132 14 121 -11 256 
-11 234 3790 3719 10 MP
PP
0 sg
-152 42 -151 31 -41 -326 -41 -387 190 -51 190 -52 13 132 14 121 
-11 256 -11 234 3790 3719 11 MP stroke
1 sg
79 340 -55 116 -54 112 -176 -371 -175 -581 0 -11 0 -7 151 -31 
152 -42 3790 3719 10 MP
PP
0 sg
78 475 79 340 -55 116 -54 112 -176 -371 -175 -581 0 -11 0 -7 
151 -31 152 -42 3790 3719 11 MP stroke
1 sg
-16 6 -131 -28 -131 -33 -9 -22 -9 -23 94 -28 94 -32 33 8 
33 9 29 72 29 65 3747 1445 12 MP
PP
0 sg
-16 6 -16 6 -131 -28 -131 -33 -9 -22 -9 -23 94 -28 94 -32 
33 8 33 9 29 72 29 65 3747 1445 13 MP stroke
1 sg
0 6 75 2 75 -2 95 -14 95 -29 -34 -16 -34 -27 -59 10 
-59 6 -77 31 -77 16 3720 1196 12 MP
PP
0 sg
0 17 0 6 75 2 75 -2 95 -14 95 -29 -34 -16 -34 -27 
-59 10 -59 6 -77 31 -77 16 3720 1196 13 MP stroke
1 sg
116 -15 14 2 15 2 47 28 48 22 -47 6 -46 2 -126 -19 
-125 -29 -6 -2 -6 -2 4057 1240 12 MP
PP
0 sg
116 5 116 -15 14 2 15 2 47 28 48 22 -47 6 -46 2 
-126 -19 -125 -29 -6 -2 -6 -2 4057 1240 13 MP stroke
1 sg
-86 -92 -96 265 -96 120 91 214 90 147 29 -1 29 -5 63 -222 
62 -354 3581 2227 10 MP
PP
0 sg
-86 -72 -86 -92 -96 265 -96 120 91 214 90 147 29 -1 29 -5 
63 -222 62 -354 3581 2227 11 MP stroke
1 sg
-133 9 -2 0 -1 -1 -13 -126 -12 -159 34 -28 34 -28 120 90 
119 68 -6 85 -7 76 3755 1786 12 MP
PP
0 sg
-133 14 -133 9 -2 0 -1 -1 -13 -126 -12 -159 34 -28 34 -28 
120 90 119 68 -6 85 -7 76 3755 1786 13 MP stroke
1 sg
112 -131 0 -123 0 -154 -144 125 -145 57 16 174 15 125 17 3 
17 3 3632 1338 10 MP
PP
0 sg
112 -79 112 -131 0 -123 0 -154 -144 125 -145 57 16 174 15 125 
17 3 17 3 3632 1338 11 MP stroke
1 sg
-7 1 -105 369 -105 281 -62 354 -63 222 4 2 5 6 145 -57 
144 -125 40 -140 40 -163 -14 -337 -15 -415 3357 2880 14 MP
PP
0 sg
-7 2 -7 1 -105 369 -105 281 -62 354 -63 222 4 2 5 6 
145 -57 144 -125 40 -140 40 -163 -14 -337 -15 -415 3357 2880 15 MP stroke
1 sg
-103 12 -33 -9 -33 -8 -75 -74 -75 -90 133 -9 133 -14 93 38 
93 31 -15 56 -15 52 3599 1609 12 MP
PP
0 sg
-103 15 -103 12 -33 -9 -33 -8 -75 -74 -75 -90 133 -9 133 -14 
93 38 93 31 -15 56 -15 52 3599 1609 13 MP stroke
1 sg
-56 18 -119 -68 -120 -90 0 -3 0 -5 88 -117 88 -137 5 -4 
6 2 91 168 92 125 -9 46 -10 44 3630 1986 14 MP
PP
0 sg
-56 21 -56 18 -119 -68 -120 -90 0 -3 0 -5 88 -117 88 -137 
5 -4 6 2 91 168 92 125 -9 46 -10 44 3630 1986 15 MP stroke
1 sg
-71 -2 -112 131 -112 79 33 55 33 40 59 -6 59 -10 90 -78 
90 -117 1 -44 0 -51 3267 1549 12 MP
PP
0 sg
-70 3 -71 -2 -112 131 -112 79 33 55 33 40 59 -6 59 -10 
90 -78 90 -117 1 -44 0 -51 3267 1549 13 MP stroke
1 sg
-92 7 -15 -2 -14 -2 -53 -16 -53 -17 13 -35 13 -40 52 -7 
53 -8 126 31 126 26 -31 28 -32 26 3611 1262 14 MP
PP
0 sg
-93 9 -92 7 -15 -2 -14 -2 -53 -16 -53 -17 13 -35 13 -40 
52 -7 53 -8 126 31 126 26 -31 28 -32 26 3611 1262 15 MP stroke
1 sg
76 30 -46 44 -46 40 -104 9 -105 7 -29 -65 -29 -72 103 -12 
103 -15 3599 1609 10 MP
PP
0 sg
77 34 76 30 -46 44 -46 40 -104 9 -105 7 -29 -65 -29 -72 
103 -12 103 -15 3599 1609 11 MP stroke
1 sg
-1 0 -126 -26 -126 -31 11 -29 10 -31 16 -6 16 -6 105 -7 
104 -9 68 31 69 28 -72 45 -72 41 3545 1316 14 MP
PP
0 sg
-2 0 -1 0 -126 -26 -126 -31 11 -29 10 -31 16 -6 16 -6 
105 -7 104 -9 68 31 69 28 -72 45 -72 41 3545 1316 15 MP stroke
1 sg
93 -9 76 19 76 15 -24 19 -24 15 -97 1 -97 -3 -48 -22 
-47 -28 3796 1246 10 MP
PP
0 sg
92 -7 93 -9 76 19 76 15 -24 19 -24 15 -97 1 -97 -3 
-48 -22 -47 -28 3796 1246 11 MP stroke
1 sg
190 -51 12 86 13 74 4 177 5 168 -52 206 -53 201 -141 -218 
-140 -339 -14 -121 -13 -132 3795 4462 12 MP
PP
0 sg
189 -51 190 -51 12 86 13 74 4 177 5 168 -52 206 -53 201 
-141 -218 -140 -339 -14 -121 -13 -132 3795 4462 13 MP stroke
1 sg
-65 13 -95 29 -95 14 42 -5 42 -13 127 -10 128 -22 28 -8 
28 -11 -37 1 -37 -4 3249 1245 12 MP
PP
0 sg
-66 16 -65 13 -95 29 -95 14 42 -5 42 -13 127 -10 128 -22 
28 -8 28 -11 -37 1 -37 -4 3249 1245 13 MP stroke
1 sg
-32 -11 46 -2 47 -6 97 3 97 -1 11 2 10 1 -42 13 
-42 5 -75 2 -75 -2 -5 0 -4 0 3729 1173 14 MP
PP
0 sg
-33 -4 -32 -11 46 -2 47 -6 97 3 97 -1 11 2 10 1 
-42 13 -42 5 -75 2 -75 -2 -5 0 -4 0 3729 1173 15 MP stroke
1 sg
35 -70 138 93 137 51 31 90 30 80 -112 63 -111 48 -92 -125 
-91 -168 3794 2369 10 MP
PP
0 sg
35 -62 35 -70 138 93 137 51 31 90 30 80 -112 63 -111 48 
-92 -125 -91 -168 3794 2369 11 MP stroke
1 sg
11 -256 140 339 141 218 48 293 48 230 -50 139 -50 122 -71 -12 
-71 -24 -79 -340 -78 -475 3790 3719 12 MP
PP
0 sg
11 -234 11 -256 140 339 141 218 48 293 48 230 -50 139 -50 122 
-71 -12 -71 -24 -79 -340 -78 -475 3790 3719 13 MP stroke
1 sg
-4 1 -93 -31 -93 -38 7 -76 6 -85 56 -18 56 -21 98 57 
98 44 -64 88 -63 78 3561 1719 12 MP
PP
0 sg
-4 1 -4 1 -93 -31 -93 -38 7 -76 6 -85 56 -18 56 -21 
98 57 98 44 -64 88 -63 78 3561 1719 13 MP stroke
1 sg
55 -116 71 24 71 12 63 182 62 142 -41 98 -42 89 -137 -51 
-138 -93 -9 -83 -9 -92 3742 2676 12 MP
PP
0 sg
54 -112 55 -116 71 24 71 12 63 182 62 142 -41 98 -42 89 
-137 -51 -138 -93 -9 -83 -9 -92 3742 2676 13 MP stroke
1 sg
0 123 71 2 70 -3 119 -290 118 -444 0 -147 0 -165 -149 253 
-149 214 -40 163 -40 140 3408 1825 12 MP
PP
0 sg
0 154 0 123 71 2 70 -3 119 -290 118 -444 0 -147 0 -165 
-149 253 -149 214 -40 163 -40 140 3408 1825 13 MP stroke
1 sg
9 -46 111 -48 112 -63 23 8 22 8 32 118 32 103 -15 17 
-16 16 -62 18 -62 14 -98 -44 -98 -57 3630 1986 14 MP
PP
0 sg
10 -44 9 -46 111 -48 112 -63 23 8 22 8 32 118 32 103 
-15 17 -16 16 -62 18 -62 14 -98 -44 -98 -57 3630 1986 15 MP stroke
1 sg
37 -1 129 -42 130 -55 49 -48 48 -65 -18 -28 -17 -35 -117 48 
-117 43 -81 111 -80 68 3249 1245 12 MP
PP
0 sg
37 4 37 -1 129 -42 130 -55 49 -48 48 -65 -18 -28 -17 -35 
-117 48 -117 43 -81 111 -80 68 3249 1245 13 MP stroke
1 sg
-87 8 -90 117 -90 78 34 27 34 16 65 -13 66 -16 80 -68 
81 -111 -3 -24 -4 -26 3095 1474 12 MP
PP
0 sg
-86 12 -87 8 -90 117 -90 78 34 27 34 16 65 -13 66 -16 
80 -68 81 -111 -3 -24 -4 -26 3095 1474 13 MP stroke
1 sg
31 -28 1 0 2 0 130 8 131 4 27 26 27 20 -114 17 
-115 13 -76 -15 -76 -19 3611 1262 12 MP
PP
0 sg
32 -26 31 -28 1 0 2 0 130 8 131 4 27 26 27 20 
-114 17 -115 13 -76 -15 -76 -19 3611 1262 13 MP stroke
1 sg
-72 -67 -118 444 -119 290 0 51 -1 44 87 -8 86 -12 101 -202 
100 -303 4 -86 4 -91 2886 2156 12 MP
PP
0 sg
-72 -60 -72 -67 -118 444 -119 290 0 51 -1 44 87 -8 86 -12 
101 -202 100 -303 4 -86 4 -91 2886 2156 13 MP stroke
1 sg
15 -56 4 -1 4 -1 147 7 146 -3 11 62 12 57 -28 18 
-27 16 -73 10 -73 7 -76 -30 -77 -34 3599 1609 14 MP
PP
0 sg
15 -52 15 -56 4 -1 4 -1 147 7 146 -3 11 62 12 57 
-28 18 -27 16 -73 10 -73 7 -76 -30 -77 -34 3599 1609 15 MP stroke
1 sg
-30 23 -146 3 -147 -7 63 -78 64 -88 62 -14 62 -18 51 81 
51 73 3208 1763 10 MP
PP
0 sg
-30 25 -30 23 -146 3 -147 -7 63 -78 64 -88 62 -14 62 -18 
51 81 51 73 3208 1763 11 MP stroke
1 sg
-61 21 -131 -4 -130 -8 72 -41 72 -45 93 -7 93 -9 26 37 
26 33 3163 1348 10 MP
PP
0 sg
-60 23 -61 21 -131 -4 -130 -8 72 -41 72 -45 93 -7 93 -9 
26 37 26 33 3163 1348 11 MP stroke
1 sg
46 -44 73 -7 73 -10 78 56 78 50 -35 20 -36 18 -93 9 
-93 7 -69 -28 -68 -31 3538 1461 12 MP
PP
0 sg
46 -40 46 -44 73 -7 73 -10 78 56 78 50 -35 20 -36 18 
-93 9 -93 7 -69 -28 -68 -31 3538 1461 13 MP stroke
1 sg
24 -19 115 -13 114 -17 29 0 30 -1 -30 24 -30 12 -128 22 
-127 10 -10 -1 -11 -2 3507 1194 12 MP
PP
0 sg
24 -15 24 -19 115 -13 114 -17 29 0 30 -1 -30 24 -30 12 
-128 22 -127 10 -10 -1 -11 -2 3507 1194 13 MP stroke
1 sg
149 -253 23 -181 23 -205 -186 50 -187 51 15 415 14 337 3328 2128 
8 MP
PP
0 sg
149 -214 149 -253 23 -181 23 -205 -186 50 -187 51 15 415 14 337 
3328 2128 9 MP stroke
1 sg
50 -139 125 -2 125 -88 10 33 9 33 -37 287 -37 238 -85 53 
-85 31 -62 -142 -63 -182 3491 2868 12 MP
PP
0 sg
50 -122 50 -139 125 -2 125 -88 10 33 9 33 -37 287 -37 238 
-85 53 -85 31 -62 -142 -63 -182 3491 2868 13 MP stroke
1 sg
-33 184 -125 88 -125 2 -48 -230 -48 -293 53 -201 52 -206 136 213 
137 4 17 112 17 111 3075 3619 12 MP
PP
0 sg
-33 216 -33 184 -125 88 -125 2 -48 -230 -48 -293 53 -201 52 -206 
136 213 137 4 17 112 17 111 3075 3619 13 MP stroke
1 sg
-106 61 -22 -8 -23 -8 -30 -80 -31 -90 42 -89 41 -98 85 -31 
85 -53 51 43 52 36 -19 123 -19 109 3131 2317 14 MP
PP
0 sg
-106 85 -106 61 -22 -8 -23 -8 -30 -80 -31 -90 42 -89 41 -98 
85 -31 85 -53 51 43 52 36 -19 123 -19 109 3131 2317 15 MP stroke
1 sg
94 -26 43 20 43 20 -125 208 -125 -36 -13 -74 -12 -86 3416 4564 
8 MP
PP
0 sg
95 -26 94 -26 43 20 43 20 -125 208 -125 -36 -13 -74 -12 -86 
3416 4564 9 MP stroke
1 sg
60 28 -44 370 -44 309 -137 -4 -136 -213 -5 -168 -4 -177 125 36 
125 -208 3141 4576 10 MP
PP
0 sg
60 27 60 28 -44 370 -44 309 -137 -4 -136 -213 -5 -168 -4 -177 
125 36 125 -208 3141 4576 11 MP stroke
1 sg
61 26 -34 123 -34 106 -101 46 -100 34 -32 -103 -32 -118 106 -61 
106 -85 3131 2317 10 MP
PP
0 sg
60 32 61 26 -34 123 -34 106 -101 46 -100 34 -32 -103 -32 -118 
106 -61 106 -85 3131 2317 11 MP stroke
1 sg
-5 68 -122 45 -123 32 -51 -73 -51 -81 16 -16 15 -17 100 -34 
101 -46 62 24 63 21 2953 1985 12 MP
PP
0 sg
-5 77 -5 68 -122 45 -123 32 -51 -73 -51 -81 16 -16 15 -17 
100 -34 101 -46 62 24 63 21 2953 1985 13 MP stroke
1 sg
-71 -57 -100 303 -101 202 4 26 3 24 117 -43 117 -48 50 -151 
51 -210 2753 1876 10 MP
PP
0 sg
-70 -46 -71 -57 -100 303 -101 202 4 26 3 24 117 -43 117 -48 
50 -151 51 -210 2753 1876 11 MP stroke
1 sg
28 -18 131 -21 132 -30 54 18 55 17 -38 64 -37 56 -98 20 
-98 16 -78 -50 -78 -56 3300 1562 12 MP
PP
0 sg
27 -16 28 -18 131 -21 132 -30 54 18 55 17 -38 64 -37 56 
-98 20 -98 16 -78 -50 -78 -56 3300 1562 13 MP stroke
1 sg
30 -24 73 -12 73 -15 91 -15 91 -28 -36 3 -37 -13 -130 55 
-129 42 -28 11 -28 8 3231 1223 12 MP
PP
0 sg
30 -12 30 -24 73 -12 73 -15 91 -15 91 -28 -36 3 -37 -13 
-130 55 -129 42 -28 11 -28 8 3231 1223 13 MP stroke
1 sg
-27 -26 61 -21 60 -23 111 -2 111 -8 -42 41 -42 31 -73 15 
-73 12 -30 1 -29 0 3230 1258 12 MP
PP
0 sg
-27 -20 -27 -26 61 -21 60 -23 111 -2 111 -8 -42 41 -42 31 
-73 15 -73 12 -30 1 -29 0 3230 1258 13 MP stroke
1 sg
-18 86 -132 30 -131 21 -12 -57 -11 -62 30 -23 30 -25 123 -32 
122 -45 9 4 9 4 2945 1832 12 MP
PP
0 sg
-19 99 -18 86 -132 30 -131 21 -12 -57 -11 -62 30 -23 30 -25 
123 -32 122 -45 9 4 9 4 2945 1832 13 MP stroke
1 sg
-23 7 -111 8 -111 2 -26 -33 -26 -37 36 -18 35 -20 98 -16 
98 -20 22 6 22 6 4 60 5 47 2895 1373 14 MP
PP
0 sg
-23 8 -23 7 -111 8 -111 2 -26 -33 -26 -37 36 -18 35 -20 
98 -16 98 -20 22 6 22 6 4 60 5 47 2895 1373 15 MP stroke
1 sg
0 147 72 67 72 60 117 -396 117 -519 -166 45 -166 45 -23 205 
-23 181 3030 2595 10 MP
PP
0 sg
0 165 0 147 72 67 72 60 117 -396 117 -519 -166 45 -166 45 
-23 205 -23 181 3030 2595 11 MP stroke
1 sg
37 -287 146 -79 145 -160 11 43 12 41 -22 180 -22 166 -121 242 
-120 171 -52 -36 -51 -43 3196 2628 12 MP
PP
0 sg
37 -238 37 -287 146 -79 145 -160 11 43 12 41 -22 180 -22 166 
-121 242 -120 171 -52 -36 -51 -43 3196 2628 13 MP stroke
1 sg
-43 441 -145 160 -146 79 -9 -33 -10 -33 33 -184 33 -216 120 -331 
120 -485 45 20 45 21 2745 4394 12 MP
PP
0 sg
-43 561 -43 441 -145 160 -146 79 -9 -33 -10 -33 33 -184 33 -216 
120 -331 120 -485 45 20 45 21 2745 4394 13 MP stroke
1 sg
19 -123 120 -171 121 -242 50 104 51 94 -41 169 -42 144 -88 107 
-88 85 -61 -26 -60 -32 3131 2317 12 MP
PP
0 sg
19 -109 19 -123 120 -171 121 -242 50 104 51 94 -41 169 -42 144 
-88 107 -88 85 -61 -26 -60 -32 3131 2317 13 MP stroke
1 sg
44 -370 93 43 93 43 -120 485 -120 331 -17 -111 -17 -112 3109 3842 
8 MP
PP
0 sg
44 -309 44 -370 93 43 93 43 -120 485 -120 331 -17 -111 -17 -112 
3109 3842 9 MP stroke
1 sg
-47 13 -117 519 -117 396 -4 91 -4 86 71 57 70 46 93 -185 
93 -219 5 -355 4 -461 2558 3096 12 MP
PP
0 sg
-47 12 -47 13 -117 519 -117 396 -4 91 -4 86 71 57 70 46 
93 -185 93 -219 5 -355 4 -461 2558 3096 13 MP stroke
1 sg
34 -123 88 -85 88 -107 50 95 50 86 -110 163 -109 122 -63 -21 
-62 -24 3078 2030 10 MP
PP
0 sg
34 -106 34 -123 88 -85 88 -107 50 95 50 86 -110 163 -109 122 
-63 -21 -62 -24 3078 2030 11 MP stroke
1 sg
-23 3 -144 140 -144 111 -48 65 -49 48 37 13 36 -3 83 -26 
82 -30 65 -33 65 -41 32 -90 32 -160 2484 1709 14 MP
PP
0 sg
-24 3 -23 3 -144 140 -144 111 -48 65 -49 48 37 13 36 -3 
83 -26 82 -30 65 -33 65 -41 32 -90 32 -160 2484 1709 15 MP stroke
1 sg
11 -28 2 -2 3 0 149 -48 149 -66 34 -11 34 -48 -132 70 
-131 62 -65 41 -65 33 2678 1385 12 MP
PP
0 sg
11 -3 11 -28 2 -2 3 0 149 -48 149 -66 34 -11 34 -48 
-132 70 -131 62 -65 41 -65 33 2678 1385 13 MP stroke
1 sg
42 -41 23 -7 23 -8 119 -17 120 -26 -11 28 -11 3 -82 30 
-83 26 -91 28 -91 15 3025 1286 12 MP
PP
0 sg
42 -31 42 -41 23 -7 23 -8 119 -17 120 -26 -11 28 -11 3 
-82 30 -83 26 -91 28 -91 15 3025 1286 13 MP stroke
1 sg
-34 -2 -93 219 -93 185 -51 210 -50 151 17 35 18 28 144 -111 
144 -140 15 -226 16 -346 2500 2275 12 MP
PP
0 sg
-33 -3 -34 -2 -93 219 -93 185 -51 210 -50 151 17 35 18 28 
144 -111 144 -140 15 -226 16 -346 2500 2275 13 MP stroke
1 sg
19 -99 98 -30 97 -40 45 37 45 36 -56 95 -56 79 -51 22 
-50 21 -55 -17 -54 -18 2982 1647 12 MP
PP
0 sg
18 -86 19 -99 98 -30 97 -40 45 37 45 36 -56 95 -56 79 
-51 22 -50 21 -55 -17 -54 -18 2982 1647 13 MP stroke
1 sg
5 -77 109 -122 110 -163 75 -51 76 -58 -4 99 -4 92 -80 159 
-79 127 -97 40 -98 30 -9 -4 -9 -4 2963 1840 14 MP
PP
0 sg
5 -68 5 -77 109 -122 110 -163 75 -51 76 -58 -4 99 -4 92 
-80 159 -79 127 -97 40 -98 30 -9 -4 -9 -4 2963 1840 15 MP stroke
1 sg
-16 11 -151 34 -150 23 -22 -6 -22 -6 37 -56 38 -64 50 -21 
51 -22 105 -3 105 -8 -4 57 -4 50 2570 1559 14 MP
PP
0 sg
-17 11 -16 11 -151 34 -150 23 -22 -6 -22 -6 37 -56 38 -64 
50 -21 51 -22 105 -3 105 -8 -4 57 -4 50 2570 1559 15 MP stroke
1 sg
-2 2 -120 26 -119 17 -5 -47 -4 -60 150 -23 151 -34 -24 69 
-24 50 2651 1418 10 MP
PP
0 sg
-3 0 -2 2 -120 26 -119 17 -5 -47 -4 -60 150 -23 151 -34 
-24 69 -24 50 2651 1418 11 MP stroke
1 sg
-35 464 -107 251 -107 198 -51 -94 -50 -104 22 -166 22 -180 138 -417 
139 -571 32 15 32 14 2467 4267 12 MP
PP
0 sg
-35 590 -35 464 -107 251 -107 198 -51 -94 -50 -104 22 -166 22 -180 
138 -417 139 -571 32 15 32 14 2467 4267 13 MP stroke
1 sg
33 3 126 -399 127 -507 -155 42 -156 43 -4 461 -5 355 2567 2280 
8 MP
PP
0 sg
34 2 33 3 126 -399 127 -507 -155 42 -156 43 -4 461 -5 355 
2567 2280 9 MP stroke
1 sg
-15 35 -76 58 -75 51 -50 -86 -50 -95 42 -144 41 -169 107 -198 
107 -251 22 0 22 1 -30 433 -30 326 2553 2453 14 MP
PP
0 sg
-15 39 -15 35 -76 58 -75 51 -50 -86 -50 -95 42 -144 41 -169 
107 -198 107 -251 22 0 22 1 -30 433 -30 326 2553 2453 15 MP stroke
1 sg
43 -561 107 49 107 49 -139 571 -138 417 -12 -41 -11 -43 2831 3392 
8 MP
PP
0 sg
43 -441 43 -561 107 49 107 49 -139 571 -138 417 -12 -41 -11 -43 
2831 3392 9 MP stroke
1 sg
-21 5 -127 507 -126 399 -16 346 -15 226 23 -3 24 -3 43 -47 
44 -54 103 -297 102 -436 -6 -293 -7 -356 2205 3192 14 MP
PP
0 sg
-21 6 -21 5 -127 507 -126 399 -16 346 -15 226 23 -3 24 -3 
43 -47 44 -54 103 -297 102 -436 -6 -293 -7 -356 2205 3192 15 MP stroke
1 sg
-77 71 -105 8 -105 3 56 -79 56 -95 86 -50 87 -60 39 60 
39 55 2409 1824 10 MP
PP
0 sg
-76 87 -77 71 -105 8 -105 3 56 -79 56 -95 86 -50 87 -60 
39 60 39 55 2409 1824 11 MP stroke
1 sg
-47 108 -87 60 -86 50 -45 -36 -45 -37 79 -127 80 -159 99 10 
100 2 2392 2176 10 MP
PP
0 sg
-48 129 -47 108 -87 60 -86 50 -45 -36 -45 -37 79 -127 80 -159 
99 10 100 2 2392 2176 11 MP stroke
1 sg
-118 41 -44 54 -43 47 -32 160 -32 90 131 -62 132 -70 47 -44 
47 -51 15 -84 15 -124 2161 1894 12 MP
PP
0 sg
-118 43 -118 41 -44 54 -43 47 -32 160 -32 90 131 -62 132 -70 
47 -44 47 -51 15 -84 15 -124 2161 1894 13 MP stroke
1 sg
-7 5 -149 66 -149 48 24 -50 24 -69 16 -11 17 -11 110 -30 
111 -39 5 54 5 32 2339 1542 12 MP
PP
0 sg
-7 5 -7 5 -149 66 -149 48 24 -50 24 -69 16 -11 17 -11 
110 -30 111 -39 5 54 5 32 2339 1542 13 MP stroke
1 sg
72 -47 64 -290 63 -345 -142 38 -143 39 7 356 6 293 2192 2543 
8 MP
PP
0 sg
73 -44 72 -47 64 -290 63 -345 -142 38 -143 39 7 356 6 293 
2192 2543 9 MP stroke
1 sg
4 -99 15 -35 15 -39 153 -241 152 -335 26 9 25 10 -47 378 
-47 290 -51 87 -50 79 -100 -2 -99 -10 2591 2188 14 MP
PP
0 sg
4 -92 4 -99 15 -35 15 -39 153 -241 152 -335 26 9 25 10 
-47 378 -47 290 -51 87 -50 79 -100 -2 -99 -10 2591 2188 15 MP stroke
1 sg
118 -43 54 -132 54 -158 3 -198 3 -252 -72 47 -73 44 -102 436 
-103 297 2397 1810 10 MP
PP
0 sg
118 -41 118 -43 54 -132 54 -158 3 -198 3 -252 -72 47 -73 44 
-102 436 -103 297 2397 1810 11 MP stroke
1 sg
-46 42 -111 39 -110 30 4 -50 4 -57 77 -71 76 -87 80 -43 
80 -49 -4 111 -4 88 2257 1717 12 MP
PP
0 sg
-46 47 -46 42 -111 39 -110 30 4 -50 4 -57 77 -71 76 -87 
80 -43 80 -49 -4 111 -4 88 2257 1717 13 MP stroke
1 sg
11 5 -25 623 -26 490 -152 335 -153 241 30 -326 30 -433 137 -411 
137 -530 2219 4153 10 MP
PP
0 sg
11 6 11 5 -25 623 -26 490 -152 335 -153 241 30 -326 30 -433 
137 -411 137 -530 2219 4153 11 MP stroke
1 sg
35 -590 124 57 124 57 -137 530 -137 411 -22 -1 -22 0 2537 3213 
8 MP
PP
0 sg
35 -464 35 -590 124 57 124 57 -137 530 -137 411 -22 -1 -22 0 
2537 3213 9 MP stroke
1 sg
-52 85 -80 49 -80 43 -39 -55 -39 -60 47 -108 48 -129 50 -79 
51 -87 86 -9 87 -13 -13 143 -14 123 2145 2098 14 MP
PP
0 sg
-52 97 -52 85 -80 49 -80 43 -39 -55 -39 -60 47 -108 48 -129 
50 -79 51 -87 86 -9 87 -13 -13 143 -14 123 2145 2098 15 MP stroke
1 sg
-34 11 7 -5 7 -5 129 -75 130 -93 64 -44 64 -103 -1 -1 
-2 -2 -118 93 -118 81 -47 51 -47 44 2285 1591 14 MP
PP
0 sg
-34 48 -34 11 7 -5 7 -5 129 -75 130 -93 64 -44 64 -103 
-1 -1 -2 -2 -118 93 -118 81 -47 51 -47 44 2285 1591 15 MP stroke
1 sg
-15 84 118 -81 118 -93 32 -56 31 -61 20 -186 20 -292 -101 142 
-100 129 -54 158 -54 132 2161 1894 12 MP
PP
0 sg
-15 124 -15 84 118 -81 118 -93 32 -56 31 -61 20 -186 20 -292 
-101 142 -100 129 -54 158 -54 132 2161 1894 13 MP stroke
1 sg
-21 26 -130 93 -129 75 -5 -32 -5 -54 46 -42 46 -47 80 -37 
79 -43 30 21 30 10 2038 1766 12 MP
PP
0 sg
-21 30 -21 26 -130 93 -129 75 -5 -32 -5 -54 46 -42 46 -47 
80 -37 79 -43 30 21 30 10 2038 1766 13 MP stroke
1 sg
-73 20 -63 345 -64 290 -3 252 -3 198 100 -129 101 -142 21 -80 
22 -83 18 -307 17 -384 1774 3309 12 MP
PP
0 sg
-73 20 -73 20 -63 345 -64 290 -3 252 -3 198 100 -129 101 -142 
21 -80 22 -83 18 -307 17 -384 1774 3309 13 MP stroke
1 sg
47 -378 129 -369 130 -469 2 472 2 390 -92 351 -92 271 -87 13 
-86 9 2291 2342 10 MP
PP
0 sg
47 -290 47 -378 129 -369 130 -469 2 472 2 390 -92 351 -92 271 
-87 13 -86 9 2291 2342 11 MP stroke
1 sg
-101 161 -79 43 -80 37 4 -88 4 -111 52 -85 52 -97 110 -66 
109 -79 15 35 15 32 1896 2176 12 MP
PP
0 sg
-101 218 -101 161 -79 43 -80 37 4 -88 4 -111 52 -85 52 -97 
110 -66 109 -79 15 35 15 32 1896 2176 13 MP stroke
1 sg
-10 81 -130 469 -129 369 -25 -10 -26 -9 26 -490 25 -623 140 64 
140 64 1917 4014 10 MP
PP
0 sg
-11 85 -10 81 -130 469 -129 369 -25 -10 -26 -9 26 -490 25 -623 
140 64 140 64 1917 4014 11 MP stroke
1 sg
153 -250 18 -138 18 -152 -153 42 -154 41 -17 384 -18 307 1809 2618 
8 MP
PP
0 sg
153 -234 153 -250 18 -138 18 -152 -153 42 -154 41 -17 384 -18 307 
1809 2618 9 MP stroke
1 sg
-85 321 -109 79 -110 66 14 -123 13 -143 92 -271 92 -351 65 -104 
64 -112 25 101 24 96 1756 3005 12 MP
PP
0 sg
-85 441 -85 321 -109 79 -110 66 14 -123 13 -143 92 -271 92 -351 
65 -104 64 -112 25 101 24 96 1756 3005 13 MP stroke
1 sg
-20 186 139 -208 138 -257 55 -245 54 -320 2 -43 1 -52 -153 250 
-153 234 -22 83 -21 80 1852 2455 12 MP
PP
0 sg
-20 292 -20 186 139 -208 138 -257 55 -245 54 -320 2 -43 1 -52 
-153 250 -153 234 -22 83 -21 80 1852 2455 13 MP stroke
1 sg
1 1 134 -98 135 -173 48 -63 49 -80 -14 -45 -15 -126 -138 257 
-139 208 -31 61 -32 56 1955 1860 12 MP
PP
0 sg
2 2 1 1 134 -98 135 -173 48 -63 49 -80 -14 -45 -15 -126 
-138 257 -139 208 -31 61 -32 56 1955 1860 13 MP stroke
1 sg
1 2 -135 173 -134 98 -64 103 -64 44 21 -26 21 -30 124 -117 
123 -145 53 -49 53 -56 1685 2133 12 MP
PP
0 sg
1 3 1 2 -135 173 -134 98 -64 103 -64 44 21 -26 21 -30 
124 -117 123 -145 53 -49 53 -56 1685 2133 13 MP stroke
1 sg
26 -16 27 113 27 68 -123 145 -124 117 -30 -10 -30 -21 101 -161 
101 -218 1896 2176 10 MP
PP
0 sg
25 -17 26 -16 27 113 27 68 -123 145 -124 117 -30 -10 -30 -21 
101 -161 101 -218 1896 2176 11 MP stroke
1 sg
-2 -472 10 -81 11 -85 109 51 109 50 -53 385 -53 326 -64 112 
-65 104 1934 2986 10 MP
PP
0 sg
-2 -390 -2 -472 10 -81 11 -85 109 51 109 50 -53 385 -53 326 
-64 112 -65 104 1934 2986 11 MP stroke
1 sg
-15 -35 85 -321 85 -441 60 -129 59 -142 37 137 36 127 -20 145 
-21 131 -120 297 -120 230 -26 16 -25 17 1896 2176 14 MP
PP
0 sg
-15 -32 -15 -35 85 -321 85 -441 60 -129 59 -142 37 137 36 127 
-20 145 -21 131 -120 297 -120 230 -26 16 -25 17 1896 2176 15 MP stroke
1 sg
14 45 133 -230 133 -268 25 -81 25 -96 -118 14 -118 -75 -54 320 
-55 245 1615 2442 10 MP
PP
0 sg
15 126 14 45 133 -230 133 -268 25 -81 25 -96 -118 14 -118 -75 
-54 320 -55 245 1615 2442 11 MP stroke
1 sg
-27 -113 120 -230 120 -297 42 116 42 78 -82 237 -82 172 -53 56 
-53 49 1791 2028 10 MP
PP
0 sg
-27 -68 -27 -113 120 -230 120 -297 42 116 42 78 -82 237 -82 172 
-53 56 -53 49 1791 2028 11 MP stroke
1 sg
-42 266 -59 142 -60 129 -24 -96 -25 -101 53 -326 53 -385 73 33 
73 34 1553 3846 10 MP
PP
0 sg
-42 304 -42 266 -59 142 -60 129 -24 -96 -25 -101 53 -326 53 -385 
73 33 73 34 1553 3846 11 MP stroke
1 sg
48 -243 51 24 51 23 -94 26 -95 26 -5 25 -5 31 1098 3438 
8 MP
PP
0 sg
49 88 48 -243 51 24 51 23 -94 26 -95 26 -5 25 -5 31 
1098 3438 9 MP stroke
1 sg
-2 43 118 75 118 -14 86 -233 86 -259 5 -31 5 -25 -190 51 
-189 51 -18 152 -18 138 1503 3102 12 MP
PP
0 sg
-1 52 -2 43 118 75 118 -14 86 -233 86 -259 5 -31 5 -25 
-190 51 -189 51 -18 152 -18 138 1503 3102 13 MP stroke
1 sg
-49 -88 -86 259 -86 233 -25 96 -25 81 13 -28 14 -170 103 -305 
103 -360 43 20 43 19 1001 3593 12 MP
PP
0 sg
-48 243 -49 -88 -86 259 -86 233 -25 96 -25 81 13 -28 14 -170 
103 -305 103 -360 43 20 43 19 1001 3593 13 MP stroke
1 sg
-1 -3 82 -172 82 -237 76 -164 75 -186 38 -35 39 -40 -14 170 
-13 28 -133 268 -133 230 -49 80 -48 63 1683 2128 14 MP
PP
0 sg
-1 -2 -1 -3 82 -172 82 -237 76 -164 75 -186 38 -35 39 -40 
-14 170 -13 28 -133 268 -133 230 -49 80 -48 63 1683 2128 15 MP stroke
1 sg
42 -304 84 38 84 39 -89 416 -90 341 -36 -127 -37 -137 1637 3276 
8 MP
PP
0 sg
42 -266 42 -304 84 38 84 39 -89 416 -90 341 -36 -127 -37 -137 
1637 3276 9 MP stroke
1 sg
-43 351 -75 186 -76 164 -42 -78 -42 -116 21 -131 20 -145 90 -341 
89 -416 50 23 50 23 1285 3723 12 MP
PP
0 sg
-42 480 -43 351 -75 186 -76 164 -42 -78 -42 -116 21 -131 20 -145 
90 -341 89 -416 50 23 50 23 1285 3723 13 MP stroke
1 sg
42 -480 99 45 99 46 -103 360 -103 305 -39 40 -38 35 1370 2892 
8 MP
PP
0 sg
43 -351 42 -480 99 45 99 46 -103 360 -103 305 -39 40 -38 35 
1370 2892 9 MP stroke
gr


end %%Color Dict

eplot
%%EndObject

epage
end

showpage

%%Trailer
%%EOF
