%!PS-Adobe-2.0 EPSF-1.2
%%Creator: MATLAB, The MathWorks, Inc. Version 8.0.0.783 (R2012b). Operating System: Microsoft Windows 7.
%%Title: ..\meshes\poligoni-triangle\triangle0.005-solution.eps
%%CreationDate: 03/12/2013  01:22:06
%%DocumentNeededFonts: Helvetica
%%DocumentProcessColors: Cyan Magenta Yellow Black
%%Pages: 1
%%BoundingBox:    64   211   557   583
%%EndComments

%%BeginProlog
% MathWorks dictionary
/MathWorks 160 dict begin
% definition operators
/bdef {bind def} bind def
/ldef {load def} bind def
/xdef {exch def} bdef
/xstore {exch store} bdef
% operator abbreviations
/c  /clip ldef
/cc /concat ldef
/cp /closepath ldef
/gr /grestore ldef
/gs /gsave ldef
/mt /moveto ldef
/np /newpath ldef
/cm /currentmatrix ldef
/sm /setmatrix ldef
/rm /rmoveto ldef
/rl /rlineto ldef
/s {show newpath} bdef
/sc {setcmykcolor} bdef
/sr /setrgbcolor ldef
/sg /setgray ldef
/w /setlinewidth ldef
/j /setlinejoin ldef
/cap /setlinecap ldef
/rc {rectclip} bdef
/rf {rectfill} bdef
% page state control
/pgsv () def
/bpage {/pgsv save def} bdef
/epage {pgsv restore} bdef
/bplot /gsave ldef
/eplot {stroke grestore} bdef
% orientation switch
/portraitMode 0 def /landscapeMode 1 def /rotateMode 2 def
% coordinate system mappings
/dpi2point 0 def
% font control
/FontSize 0 def
/FMS {/FontSize xstore findfont [FontSize 0 0 FontSize neg 0 0]
  makefont setfont} bdef
/ISOLatin1Encoding where {pop /WindowsLatin1Encoding 256 array bdef
ISOLatin1Encoding WindowsLatin1Encoding copy pop
/.notdef/.notdef/quotesinglbase/florin/quotedblbase/ellipsis/dagger
/daggerdbl/circumflex/perthousand/Scaron/guilsinglleft/OE/.notdef/.notdef
/.notdef/.notdef/quoteleft/quoteright/quotedblleft/quotedblright/bullet
/endash/emdash/tilde/trademark/scaron/guilsinglright/oe/.notdef/.notdef
/Ydieresis WindowsLatin1Encoding 128 32 getinterval astore pop}
{/WindowsLatin1Encoding StandardEncoding bdef} ifelse
/reencode {exch dup where {pop load} {pop StandardEncoding} ifelse
  exch dup 3 1 roll findfont dup length dict begin
  { 1 index /FID ne {def}{pop pop} ifelse } forall
  /Encoding exch def currentdict end definefont pop} bdef
/isroman {findfont /CharStrings get /Agrave known} bdef
/FMSR {3 1 roll 1 index dup isroman {reencode} {pop pop} ifelse
  exch FMS} bdef
/csm {1 dpi2point div -1 dpi2point div scale neg translate
 dup landscapeMode eq {pop -90 rotate}
  {rotateMode eq {90 rotate} if} ifelse} bdef
% line types: solid, dotted, dashed, dotdash
/SO { [] 0 setdash } bdef
/DO { [.5 dpi2point mul 4 dpi2point mul] 0 setdash } bdef
/DA { [6 dpi2point mul] 0 setdash } bdef
/DD { [.5 dpi2point mul 4 dpi2point mul 6 dpi2point mul 4
  dpi2point mul] 0 setdash } bdef
% macros for lines and objects
/L {lineto stroke} bdef
/MP {3 1 roll moveto 1 sub {rlineto} repeat} bdef
/AP {{rlineto} repeat} bdef
/PDlw -1 def
/W {/PDlw currentlinewidth def setlinewidth} def
/PP {closepath eofill} bdef
/DP {closepath stroke} bdef
/MR {4 -2 roll moveto dup  0 exch rlineto exch 0 rlineto
  neg 0 exch rlineto closepath} bdef
/FR {MR stroke} bdef
/PR {MR fill} bdef
/L1i {{currentfile picstr readhexstring pop} image} bdef
/tMatrix matrix def
/MakeOval {newpath tMatrix currentmatrix pop translate scale
0 0 1 0 360 arc tMatrix setmatrix} bdef
/FO {MakeOval stroke} bdef
/PO {MakeOval fill} bdef
/PD {currentlinewidth 2 div 0 360 arc fill
   PDlw -1 eq not {PDlw w /PDlw -1 def} if} def
/FA {newpath tMatrix currentmatrix pop translate scale
  0 0 1 5 -2 roll arc tMatrix setmatrix stroke} bdef
/PA {newpath tMatrix currentmatrix pop	translate 0 0 moveto scale
  0 0 1 5 -2 roll arc closepath tMatrix setmatrix fill} bdef
/FAn {newpath tMatrix currentmatrix pop translate scale
  0 0 1 5 -2 roll arcn tMatrix setmatrix stroke} bdef
/PAn {newpath tMatrix currentmatrix pop translate 0 0 moveto scale
  0 0 1 5 -2 roll arcn closepath tMatrix setmatrix fill} bdef
/vradius 0 def /hradius 0 def /lry 0 def
/lrx 0 def /uly 0 def /ulx 0 def /rad 0 def
/MRR {/vradius xdef /hradius xdef /lry xdef /lrx xdef /uly xdef
  /ulx xdef newpath tMatrix currentmatrix pop ulx hradius add uly
  vradius add translate hradius vradius scale 0 0 1 180 270 arc 
  tMatrix setmatrix lrx hradius sub uly vradius add translate
  hradius vradius scale 0 0 1 270 360 arc tMatrix setmatrix
  lrx hradius sub lry vradius sub translate hradius vradius scale
  0 0 1 0 90 arc tMatrix setmatrix ulx hradius add lry vradius sub
  translate hradius vradius scale 0 0 1 90 180 arc tMatrix setmatrix
  closepath} bdef
/FRR {MRR stroke } bdef
/PRR {MRR fill } bdef
/MlrRR {/lry xdef /lrx xdef /uly xdef /ulx xdef /rad lry uly sub 2 div def
  newpath tMatrix currentmatrix pop ulx rad add uly rad add translate
  rad rad scale 0 0 1 90 270 arc tMatrix setmatrix lrx rad sub lry rad
  sub translate rad rad scale 0 0 1 270 90 arc tMatrix setmatrix
  closepath} bdef
/FlrRR {MlrRR stroke } bdef
/PlrRR {MlrRR fill } bdef
/MtbRR {/lry xdef /lrx xdef /uly xdef /ulx xdef /rad lrx ulx sub 2 div def
  newpath tMatrix currentmatrix pop ulx rad add uly rad add translate
  rad rad scale 0 0 1 180 360 arc tMatrix setmatrix lrx rad sub lry rad
  sub translate rad rad scale 0 0 1 0 180 arc tMatrix setmatrix
  closepath} bdef
/FtbRR {MtbRR stroke } bdef
/PtbRR {MtbRR fill } bdef
/stri 6 array def /dtri 6 array def
/smat 6 array def /dmat 6 array def
/tmat1 6 array def /tmat2 6 array def /dif 3 array def
/asub {/ind2 exch def /ind1 exch def dup dup
  ind1 get exch ind2 get sub exch } bdef
/tri_to_matrix {
  2 0 asub 3 1 asub 4 0 asub 5 1 asub
  dup 0 get exch 1 get 7 -1 roll astore } bdef
/compute_transform {
  dmat dtri tri_to_matrix tmat1 invertmatrix 
  smat stri tri_to_matrix tmat2 concatmatrix } bdef
/ds {stri astore pop} bdef
/dt {dtri astore pop} bdef
/db {2 copy /cols xdef /rows xdef mul dup string
  currentfile exch readhexstring pop
  /bmap xdef pop pop} bdef
/it {gs np dtri aload pop moveto lineto lineto cp c
  cols rows 8 compute_transform 
  {bmap} image gr}bdef
/il {newpath moveto lineto stroke}bdef
currentdict end def
%%EndProlog

%%BeginSetup
MathWorks begin

0 cap

end
%%EndSetup

%%Page: 1 1
%%BeginPageSetup
%%PageBoundingBox:    64   211   557   583
MathWorks begin
bpage
%%EndPageSetup

%%BeginObject: obj1
bplot

/dpi2point 12 def
portraitMode 0216 7344 csm

  560   340  5918  4462 MR c np
85 dict begin %Colortable dictionary
/c0 { 0.000000 0.000000 0.000000 sr} bdef
/c1 { 1.000000 1.000000 1.000000 sr} bdef
/c2 { 0.900000 0.000000 0.000000 sr} bdef
/c3 { 0.000000 0.820000 0.000000 sr} bdef
/c4 { 0.000000 0.000000 0.800000 sr} bdef
/c5 { 0.910000 0.820000 0.320000 sr} bdef
/c6 { 1.000000 0.260000 0.820000 sr} bdef
/c7 { 0.000000 0.820000 0.820000 sr} bdef
c0
1 j
1 sg
   0    0 6919 5187 PR
6 w
0 2336 -2329 -1070 0 -2336 6261 3794 4 MP
PP
2329 1070 0 2336 -2329 -1070 0 -2336 6261 3794 5 MP stroke
2329 1070 3033 -822 -2328 -1070 3227 4616 4 MP
PP
-3034 822 2329 1070 3033 -822 -2328 -1070 3227 4616 5 MP stroke
0 2336 3033 -822 0 -2336 899 3546 4 MP
PP
-3033 822 0 2336 3033 -822 0 -2336 899 3546 5 MP stroke
4 w
DO
SO
6 w
0 sg
3227 4616 mt 6261 3794 L
3227 4616 mt  899 3546 L
 899 3546 mt  899 1210 L
3227 4616 mt 3298 4648 L
%%IncludeResource: font Helvetica
/Helvetica /WindowsLatin1Encoding 120 FMSR

3329 4774 mt 
(0) s
3833 4451 mt 3905 4484 L
3936 4610 mt 
(0.2) s
4440 4287 mt 4512 4320 L
4543 4445 mt 
(0.4) s
5047 4123 mt 5118 4156 L
5150 4281 mt 
(0.6) s
5654 3959 mt 5725 3991 L
5757 4117 mt 
(0.8) s
6261 3794 mt 6332 3827 L
6363 3953 mt 
(1) s
3227 4616 mt 3151 4636 L
3051 4756 mt 
(0) s
2761 4402 mt 2685 4422 L
2486 4542 mt 
(0.2) s
2295 4188 mt 2219 4208 L
2020 4328 mt 
(0.4) s
1830 3974 mt 1754 3994 L
1555 4114 mt 
(0.6) s
1364 3760 mt 1288 3780 L
1089 3900 mt 
(0.8) s
 899 3546 mt  823 3566 L
 723 3686 mt 
(1) s
 899 3546 mt  827 3513 L
 660 3542 mt 
(-1) s
 899 3254 mt  827 3221 L
 560 3250 mt 
(-0.5) s
 899 2962 mt  827 2929 L
 730 2958 mt 
(0) s
 899 2670 mt  827 2637 L
 630 2666 mt 
(0.5) s
 899 2378 mt  827 2345 L
 730 2374 mt 
(1) s
 899 2086 mt  827 2053 L
 630 2082 mt 
(1.5) s
 899 1794 mt  827 1761 L
 730 1790 mt 
(2) s
 899 1502 mt  827 1469 L
 630 1498 mt 
(2.5) s
 899 1210 mt  827 1177 L
 730 1206 mt 
(3) s
gs 899 388 5363 4228 MR c np
1 sg
-10 4 -73 -35 -73 -34 61 -33 61 -48 22 75 23 66 6094 1989 
8 MP
PP
0 sg
-11 5 -10 4 -73 -35 -73 -34 61 -33 61 -48 22 75 23 66 
6094 1989 9 MP stroke
1 sg
68 -87 100 -33 100 -37 -77 188 -78 142 -68 23 -68 16 -23 -66 
-22 -75 6139 2130 10 MP
PP
0 sg
68 -71 68 -87 100 -33 100 -37 -77 188 -78 142 -68 23 -68 16 
-23 -66 -22 -75 6139 2130 11 MP stroke
1 sg
88 9 -47 88 -47 65 -119 -63 -120 -61 10 -4 11 -5 68 -16 
68 -23 5958 2028 10 MP
PP
0 sg
88 10 88 9 -47 88 -47 65 -119 -63 -120 -61 10 -4 11 -5 
68 -16 68 -23 5958 2028 11 MP stroke
1 sg
-41 51 -100 37 -100 33 115 -182 114 -215 33 87 32 86 -6 25 
-6 25 5721 2462 10 MP
PP
0 sg
-41 53 -41 51 -100 37 -100 33 115 -182 114 -215 33 87 32 86 
-6 25 -6 25 5721 2462 11 MP stroke
1 sg
-86 52 -88 -9 -88 -10 78 -142 77 -188 41 -51 41 -53 78 18 
77 18 -22 157 -22 144 5610 2125 12 MP
PP
0 sg
-86 64 -86 52 -88 -9 -88 -10 78 -142 77 -188 41 -51 41 -53 
78 18 77 18 -22 157 -22 144 5610 2125 13 MP stroke
1 sg
47 -88 86 -52 86 -64 3 2 4 -1 13 138 12 123 -97 41 
-97 24 -52 -30 -52 -28 5876 1856 12 MP
PP
0 sg
47 -65 47 -88 86 -52 86 -64 3 2 4 -1 13 138 12 123 
-97 41 -97 24 -52 -30 -52 -28 5876 1856 13 MP stroke
1 sg
-102 189 -32 -86 -33 -87 82 -168 83 -173 50 -19 51 -19 1 82 
1 82 5506 2900 10 MP
PP
0 sg
-101 199 -102 189 -32 -86 -33 -87 82 -168 83 -173 50 -19 51 -19 
1 82 1 82 5506 2900 11 MP stroke
1 sg
-30 76 -106 -64 -107 -61 97 -24 97 -41 40 7 40 8 5498 1848 
8 MP
PP
0 sg
-31 99 -30 76 -106 -64 -107 -61 97 -24 97 -41 40 7 40 8 
5498 1848 9 MP stroke
1 sg
20 -109 133 -159 132 -145 32 106 33 108 -33 97 -33 100 -98 102 
-98 103 -54 -49 -54 -48 5318 2783 12 MP
PP
0 sg
20 -106 20 -109 133 -159 132 -145 32 106 33 108 -33 97 -33 100 
-98 102 -98 103 -54 -49 -54 -48 5318 2783 13 MP stroke
1 sg
-124 173 -77 -18 -78 -18 6 -25 6 -25 102 -189 101 -199 114 -49 
114 -49 0 1 0 -1 -20 109 -20 106 5318 2783 14 MP
PP
0 sg
-124 184 -124 173 -77 -18 -78 -18 6 -25 6 -25 102 -189 101 -199 
114 -49 114 -49 0 1 0 -1 -20 109 -20 106 5318 2783 15 MP stroke
1 sg
22 -157 124 -173 124 -184 54 48 54 49 -54 186 -54 176 -143 107 
-142 93 -4 1 -3 -2 5610 2125 12 MP
PP
0 sg
22 -144 22 -157 124 -173 124 -184 54 48 54 49 -54 186 -54 176 
-143 107 -142 93 -4 1 -3 -2 5610 2125 13 MP stroke
1 sg
-144 263 -51 19 -50 19 148 -307 149 -270 46 21 46 21 5220 3561 
8 MP
PP
0 sg
-144 234 -144 263 -51 19 -50 19 148 -307 149 -270 46 21 46 21 
5220 3561 9 MP stroke
1 sg
-81 56 -40 -8 -40 -7 -12 -123 -13 -138 142 -93 143 -107 36 52 
37 53 -45 130 -45 118 5335 1971 12 MP
PP
0 sg
-82 67 -81 56 -40 -8 -40 -7 -12 -123 -13 -138 142 -93 143 -107 
36 52 37 53 -45 130 -45 118 5335 1971 13 MP stroke
1 sg
31 -99 81 -56 82 -67 63 42 62 43 -30 106 -31 91 -118 34 
-118 14 -26 -16 -26 -16 5559 1673 12 MP
PP
0 sg
30 -76 31 -99 81 -56 82 -67 63 42 62 43 -30 106 -31 91 
-118 34 -118 14 -26 -16 -26 -16 5559 1673 13 MP stroke
1 sg
0 0 -29 265 -30 297 -114 49 -114 49 -1 -82 -1 -82 144 -263 
144 -234 5220 3561 10 MP
PP
0 sg
1 1 0 0 -29 265 -30 297 -114 49 -114 49 -1 -82 -1 -82 
144 -263 144 -234 5220 3561 11 MP stroke
1 sg
-29 69 -118 -78 -118 -75 118 -14 118 -34 29 21 29 22 5213 1646 
8 MP
PP
0 sg
-29 89 -29 69 -118 -78 -118 -75 118 -14 118 -34 29 21 29 22 
5213 1646 9 MP stroke
1 sg
45 -130 123 -117 123 -125 0 185 1 179 -106 114 -106 97 -62 -43 
-63 -42 5335 1971 10 MP
PP
0 sg
45 -118 45 -130 123 -117 123 -125 0 185 1 179 -106 114 -106 97 
-62 -43 -63 -42 5335 1971 11 MP stroke
1 sg
54 -186 98 -103 98 -102 61 92 60 95 -4 18 -3 17 -50 103 
-49 105 -123 125 -123 117 -37 -53 -36 -52 5318 2324 14 MP
PP
0 sg
54 -176 54 -186 98 -103 98 -102 61 92 60 95 -4 18 -3 17 
-50 103 -49 105 -123 125 -123 117 -37 -53 -36 -52 5318 2324 15 MP stroke
1 sg
-98 76 0 0 -1 -1 -46 -21 -46 -21 189 -247 190 -106 4 3 
5 2 -15 72 -16 110 -12 16 -12 16 -22 18 -22 21 5023 3698 
16 MP
PP
0 sg
-98 62 -98 76 0 0 -1 -1 -46 -21 -46 -21 189 -247 190 -106 
4 3 5 2 -15 72 -16 110 -12 16 -12 16 -22 18 -22 21 
5023 3698 17 MP stroke
1 sg
29 -265 98 -76 98 -62 11 172 10 197 -5 14 -6 13 -132 145 
-133 159 0 1 0 -1 5278 2998 12 MP
PP
0 sg
30 -297 29 -265 98 -76 98 -62 11 172 10 197 -5 14 -6 13 
-132 145 -133 159 0 1 0 -1 5278 2998 13 MP stroke
1 sg
30 -106 106 -97 106 -114 52 3 52 1 -54 180 -54 160 -106 61 
-105 46 -29 -22 -29 -21 5271 1689 12 MP
PP
0 sg
31 -91 30 -106 106 -97 106 -114 52 3 52 1 -54 180 -54 160 
-106 61 -105 46 -29 -22 -29 -21 5271 1689 13 MP stroke
1 sg
29 -89 105 -46 106 -61 42 43 42 44 -33 93 -33 81 -114 31 
-115 12 -29 -20 -29 -19 5271 1488 12 MP
PP
0 sg
29 -69 29 -89 105 -46 106 -61 42 43 42 44 -33 93 -33 81 
-114 31 -115 12 -29 -20 -29 -19 5271 1488 13 MP stroke
1 sg
-14 6 -131 -95 -131 -92 115 -12 114 -31 50 51 49 52 -20 61 
-19 53 4924 1275 10 MP
PP
0 sg
-13 7 -14 6 -131 -95 -131 -92 115 -12 114 -31 50 51 49 52 
-20 61 -19 53 4924 1275 11 MP stroke
1 sg
125 43 -24 56 -25 65 -112 92 -113 112 -10 -197 -11 -172 22 -21 
22 -18 4979 3737 10 MP
PP
0 sg
126 40 125 43 -24 56 -25 65 -112 92 -113 112 -10 -197 -11 -172 
22 -21 22 -18 4979 3737 11 MP stroke
1 sg
33 -97 156 -173 155 -142 2 -2 2 2 -6 140 -6 154 -124 193 
-124 212 -60 -95 -61 -92 5014 2891 12 MP
PP
0 sg
33 -100 33 -97 156 -173 155 -142 2 -2 2 2 -6 140 -6 154 
-124 193 -124 212 -60 -95 -61 -92 5014 2891 13 MP stroke
1 sg
5 -14 113 -112 112 -92 70 63 70 67 -155 142 -156 173 -33 -108 
-32 -106 5013 3302 10 MP
PP
0 sg
6 -13 5 -14 113 -112 112 -92 70 63 70 67 -155 142 -156 173 
-33 -108 -32 -106 5013 3302 11 MP stroke
1 sg
54 -180 15 -15 14 -16 109 -3 109 -2 -24 130 -23 125 -112 112 
-112 96 -42 -44 -42 -43 5002 1753 12 MP
PP
0 sg
54 -160 54 -180 15 -15 14 -16 109 -3 109 -2 -24 130 -23 125 
-112 112 -112 96 -42 -44 -42 -43 5002 1753 13 MP stroke
1 sg
0 -185 49 -105 50 -103 108 40 109 42 -91 236 -91 227 -14 16 
-15 15 -52 -1 -52 -3 4998 2097 12 MP
PP
0 sg
-1 -179 0 -185 49 -105 50 -103 108 40 109 42 -91 236 -91 227 
-14 16 -15 15 -52 -1 -52 -3 4998 2097 13 MP stroke
1 sg
33 -93 112 -96 112 -112 42 41 43 41 -18 96 -17 90 -121 125 
-120 92 -49 -52 -50 -51 4984 1492 12 MP
PP
0 sg
33 -81 33 -93 112 -96 112 -112 42 41 43 41 -18 96 -17 90 
-121 125 -120 92 -49 -52 -50 -51 4984 1492 13 MP stroke
1 sg
-111 53 -125 -43 -126 -40 12 -16 12 -16 162 -55 162 -3 63 47 
62 51 4506 3729 10 MP
PP
0 sg
-111 22 -111 53 -125 -43 -126 -40 12 -16 12 -16 162 -55 162 -3 
63 47 62 51 4506 3729 11 MP stroke
1 sg
24 19 -29 -3 -29 4 -162 3 -162 55 16 -110 15 -72 152 29 
152 63 4620 3859 10 MP
PP
0 sg
23 12 24 19 -29 -3 -29 4 -162 3 -162 55 16 -110 15 -72 
152 29 152 63 4620 3859 11 MP stroke
1 sg
-15 7 -145 -115 -146 -110 14 -6 13 -7 154 22 153 6 -6 105 
-6 90 4629 1052 10 MP
PP
0 sg
-16 8 -15 7 -145 -115 -146 -110 14 -6 13 -7 154 22 153 6 
-6 105 -6 90 4629 1052 11 MP stroke
1 sg
-16 -4 -131 -59 -131 -47 -9 -20 -9 -19 94 14 94 49 33 22 
33 23 29 17 29 30 3747 3343 12 MP
PP
0 sg
-16 -6 -16 -4 -131 -59 -131 -47 -9 -20 -9 -19 94 14 94 49 
33 22 33 23 29 17 29 30 3747 3343 13 MP stroke
1 sg
-94 -14 -78 -29 -78 -26 4 -50 4 -28 92 44 91 61 1 -1 
2 1 75 45 75 46 3871 3435 12 MP
PP
0 sg
-94 -49 -94 -14 -78 -29 -78 -26 4 -50 4 -28 92 44 91 61 
1 -1 2 1 75 45 75 46 3871 3435 13 MP stroke
1 sg
-67 38 -105 6 -105 15 81 -151 81 -77 18 3 19 4 77 29 
77 33 -4 28 -4 50 4215 3553 12 MP
PP
0 sg
-68 22 -67 38 -105 6 -105 15 81 -151 81 -77 18 3 19 4 
77 29 77 33 -4 28 -4 50 4215 3553 13 MP stroke
1 sg
-92 -44 -77 -33 -77 -29 32 -13 32 22 124 91 124 102 12 -23 
13 -12 4024 3526 10 MP
PP
0 sg
-91 -61 -92 -44 -77 -33 -77 -29 32 -13 32 22 124 91 124 102 
12 -23 13 -12 4024 3526 11 MP stroke
1 sg
-18 -3 -54 -15 -54 -14 -62 -51 -63 -47 29 -4 29 3 118 53 
119 71 19 10 20 10 -32 -22 -32 13 4361 3693 14 MP
PP
0 sg
-19 -4 -18 -3 -54 -15 -54 -14 -62 -51 -63 -47 29 -4 29 3 
118 53 119 71 19 10 20 10 -32 -22 -32 13 4361 3693 15 MP stroke
1 sg
161 111 11 -14 10 -6 -15 -10 -15 -9 -152 -63 -152 -29 -5 -2 
-4 -3 4933 3956 10 MP
PP
0 sg
161 25 161 111 11 -14 10 -6 -15 -10 -15 -9 -152 -63 -152 -29 
-5 -2 -4 -3 4933 3956 11 MP stroke
1 sg
-41 50 -153 -6 -154 -22 19 -53 20 -61 120 -92 121 -125 64 42 
65 42 -10 87 -10 81 4535 1354 12 MP
PP
0 sg
-41 57 -41 50 -153 -6 -154 -22 19 -53 20 -61 120 -92 121 -125 
64 42 65 42 -10 87 -10 81 4535 1354 13 MP stroke
1 sg
4 -18 124 -212 124 -193 110 -13 110 -7 -66 193 -66 215 -63 66 
-63 68 -109 -42 -108 -40 4900 2669 12 MP
PP
0 sg
3 -17 4 -18 124 -212 124 -193 110 -13 110 -7 -66 193 -66 215 
-63 66 -63 68 -109 -42 -108 -40 4900 2669 13 MP stroke
1 sg
-67 114 -109 2 -109 3 91 -227 91 -236 63 -68 63 -66 45 53 
45 54 -23 128 -23 129 4513 2357 12 MP
PP
0 sg
-67 114 -67 114 -109 2 -109 3 91 -227 91 -236 63 -68 63 -66 
45 53 45 54 -23 128 -23 129 4513 2357 13 MP stroke
1 sg
-36 36 -2 -2 -2 2 -70 -67 -70 -63 25 -65 24 -56 111 -53 
111 -22 54 14 54 15 -81 77 -81 151 4560 3472 14 MP
PP
0 sg
-37 33 -36 36 -2 -2 -2 2 -70 -67 -70 -63 25 -65 24 -56 
111 -53 111 -22 54 14 54 15 -81 77 -81 151 4560 3472 15 MP stroke
1 sg
24 -130 67 -114 67 -114 97 9 97 11 -35 143 -36 142 -109 135 
-110 125 -43 -41 -42 -41 4694 1874 12 MP
PP
0 sg
23 -125 24 -130 67 -114 67 -114 97 9 97 11 -35 143 -36 142 
-109 135 -110 125 -43 -41 -42 -41 4694 1874 13 MP stroke
1 sg
128 -14 17 45 17 44 -44 73 -44 57 -116 -98 -116 -95 15 -7 
16 -8 4629 1052 10 MP
PP
0 sg
127 3 128 -14 17 45 17 44 -44 73 -44 57 -116 -98 -116 -95 
15 -7 16 -8 4629 1052 11 MP stroke
1 sg
-66 66 -110 7 -110 13 6 -154 6 -140 36 -36 37 -33 105 -15 
105 -6 29 113 29 128 4292 3252 12 MP
PP
0 sg
-67 57 -66 66 -110 7 -110 13 6 -154 6 -140 36 -36 37 -33 
105 -15 105 -6 29 113 29 128 4292 3252 13 MP stroke
1 sg
18 -96 110 -125 109 -135 63 77 63 79 -126 199 -125 175 -65 -42 
-64 -42 4644 1606 10 MP
PP
0 sg
17 -90 18 -96 110 -125 109 -135 63 77 63 79 -126 199 -125 175 
-65 -42 -64 -42 4644 1606 11 MP stroke
1 sg
-76 116 -128 14 -127 -3 6 -90 6 -105 41 -50 41 -57 133 -33 
133 -44 25 43 25 44 -1 11 -1 12 4221 1321 14 MP
PP
0 sg
-77 142 -76 116 -128 14 -127 -3 6 -90 6 -105 41 -50 41 -57 
133 -33 133 -44 25 43 25 44 -1 11 -1 12 4221 1321 15 MP stroke
1 sg
161 136 -35 -65 -34 -48 -119 -71 -118 -53 -24 -19 -23 -12 15 9 
15 10 4590 3840 10 MP
PP
0 sg
162 113 161 136 -35 -65 -34 -48 -119 -71 -118 -53 -24 -19 -23 -12 
15 9 15 10 4590 3840 11 MP stroke
1 sg
-105 130 -20 5 -20 5 -29 -128 -29 -113 67 -38 68 -22 78 26 
78 29 9 19 9 20 4041 3459 12 MP
PP
0 sg
-106 67 -105 130 -20 5 -20 5 -29 -128 -29 -113 67 -38 68 -22 
78 26 78 29 9 19 9 20 4041 3459 13 MP stroke
1 sg
-15 -17 -161 -136 -162 -113 -10 6 -11 14 57 55 57 59 148 112 
147 112 3 -2 3 -3 -21 -36 -20 -35 4237 3558 14 MP
PP
0 sg
-15 -16 -15 -17 -161 -136 -162 -113 -10 6 -11 14 57 55 57 59 
148 112 147 112 3 -2 3 -3 -21 -36 -20 -35 4237 3558 15 MP stroke
1 sg
66 -193 66 -66 67 -57 20 -5 20 -5 18 7 19 9 7 162 
8 183 -134 136 -133 151 -45 -54 -45 -53 4557 2721 14 MP
PP
0 sg
66 -215 66 -193 66 -66 67 -57 20 -5 20 -5 18 7 19 9 
7 162 8 183 -134 136 -133 151 -45 -54 -45 -53 4557 2721 15 MP stroke
1 sg
51 -28 -53 270 -53 250 -133 44 -133 33 10 -81 10 -87 125 -175 
126 -199 4264 1896 10 MP
PP
0 sg
50 -27 51 -28 -53 270 -53 250 -133 44 -133 33 10 -81 10 -87 
125 -175 126 -199 4264 1896 11 MP stroke
1 sg
23 -128 133 -151 134 -136 9 2 9 2 7 168 7 179 -75 105 
-76 108 -97 -11 -97 -9 4513 2357 12 MP
PP
0 sg
23 -129 23 -128 133 -151 134 -136 9 2 9 2 7 168 7 179 
-75 105 -76 108 -97 -11 -97 -9 4513 2357 13 MP stroke
1 sg
106 -67 131 47 131 59 -10 17 -11 27 -53 7 -52 16 -155 6 
-155 34 -19 -9 -18 -7 4252 3262 12 MP
PP
0 sg
105 -130 106 -67 131 47 131 59 -10 17 -11 27 -53 7 -52 16 
-155 6 -155 34 -19 -9 -18 -7 4252 3262 13 MP stroke
1 sg
41 20 0 0 0 0 -54 -70 -55 -82 -147 -112 -148 -112 161 178 
161 160 4175 3368 10 MP
PP
0 sg
41 18 41 20 0 0 0 0 -54 -70 -55 -82 -147 -112 -148 -112 
161 178 161 160 4175 3368 11 MP stroke
1 sg
44 -73 104 12 103 8 9 77 9 73 -98 41 -97 21 -59 -52 
-59 -50 4428 844 10 MP
PP
0 sg
44 -57 44 -73 104 12 103 8 9 77 9 73 -98 41 -97 21 
-59 -52 -59 -50 4428 844 11 MP stroke
1 sg
-29 40 -51 28 -50 27 -63 -79 -63 -77 36 -142 35 -143 76 -108 
75 -105 56 -16 55 -16 6 8 6 8 -16 224 -15 234 -15 39 
-15 39 4106 2030 18 MP
PP
0 sg
-28 39 -29 40 -51 28 -50 27 -63 -79 -63 -77 36 -142 35 -143 
76 -108 75 -105 56 -16 55 -16 6 8 6 8 -16 224 -15 234 
-15 39 -15 39 4106 2030 19 MP stroke
1 sg
-74 122 -103 -8 -104 -12 -17 -44 -17 -45 76 -116 77 -142 117 37 
117 38 1 13 1 13 3985 1220 12 MP
PP
0 sg
-74 144 -74 122 -103 -8 -104 -12 -17 -44 -17 -45 76 -116 77 -142 
117 37 117 38 1 13 1 13 3985 1220 13 MP stroke
1 sg
35 65 15 17 15 16 128 74 128 77 0 0 0 1 -34 -43 
-34 -42 -124 -102 -124 -91 -20 -10 -19 -10 4336 3704 14 MP
PP
0 sg
34 48 35 65 15 17 15 16 128 74 128 77 0 0 0 1 
-34 -43 -34 -42 -124 -102 -124 -91 -20 -10 -19 -10 4336 3704 15 MP stroke
1 sg
-40 85 -96 -87 -95 -84 97 -21 98 -41 38 19 38 19 4039 766 
8 MP
PP
0 sg
-40 110 -40 85 -96 -87 -95 -84 97 -21 98 -41 38 19 38 19 
4039 766 9 MP stroke
1 sg
53 -270 29 -40 28 -39 95 92 94 94 -5 31 -4 30 -146 232 
-147 207 -25 -44 -25 -43 4269 1431 12 MP
PP
0 sg
53 -250 53 -270 29 -40 28 -39 95 92 94 94 -5 31 -4 30 
-146 232 -147 207 -25 -44 -25 -43 4269 1431 13 MP stroke
1 sg
-92 55 -15 3 -14 3 -53 -24 -53 -24 13 -113 13 -91 52 -16 
53 -7 126 60 126 68 -31 20 -32 37 3611 3124 14 MP
PP
0 sg
-93 29 -92 55 -15 3 -14 3 -53 -24 -53 -24 13 -113 13 -91 
52 -16 53 -7 126 60 126 68 -31 20 -32 37 3611 3124 15 MP stroke
1 sg
-7 -162 155 -34 155 -6 -13 91 -13 113 -125 80 -126 105 -9 -2 
-9 -2 4200 2901 10 MP
PP
0 sg
-8 -183 -7 -162 155 -34 155 -6 -13 91 -13 113 -125 80 -126 105 
-9 -2 -9 -2 4200 2901 11 MP stroke
1 sg
-88 -119 -128 -77 -128 -74 20 35 21 36 195 155 196 145 3805 3187 
8 MP
PP
0 sg
-88 -101 -88 -119 -128 -77 -128 -74 20 35 21 36 195 155 196 145 
3805 3187 9 MP stroke
1 sg
-75 192 -117 -38 -117 -37 1 -12 1 -11 147 -207 146 -232 45 70 
44 70 3837 1643 10 MP
PP
0 sg
-75 205 -75 192 -117 -38 -117 -37 1 -12 1 -11 147 -207 146 -232 
45 70 44 70 3837 1643 11 MP stroke
1 sg
-5 -5 -196 -145 -195 -155 -3 3 -3 2 55 82 54 70 175 104 
176 92 9 7 9 5 -35 -24 -35 -32 3794 3178 14 MP
PP
0 sg
-6 -4 -5 -5 -196 -145 -195 -155 -3 3 -3 2 55 82 54 70 
175 104 176 92 9 7 9 5 -35 -24 -35 -32 3794 3178 15 MP stroke
1 sg
-116 256 -55 16 -56 16 -7 -179 -7 -168 126 -105 125 -80 53 24 
53 24 3825 3034 10 MP
PP
0 sg
-116 196 -116 256 -55 16 -56 16 -7 -179 -7 -168 126 -105 125 -80 
53 24 53 24 3825 3034 11 MP stroke
1 sg
93 -29 76 48 76 49 -24 51 -24 67 -97 15 -97 26 -48 -88 
-47 -84 3796 3040 10 MP
PP
0 sg
92 -55 93 -29 76 48 76 49 -24 51 -24 67 -97 15 -97 26 
-48 -88 -47 -84 3796 3040 11 MP stroke
1 sg
-56 -58 -119 -96 -120 -96 0 -1 0 0 88 119 88 101 5 5 
6 4 91 52 92 54 -9 -14 -10 -16 3630 3102 14 MP
PP
0 sg
-56 -54 -56 -58 -119 -96 -120 -96 0 -1 0 0 88 119 88 101 
5 5 6 4 91 52 92 54 -9 -14 -10 -16 3630 3102 15 MP stroke
1 sg
30 -20 73 47 73 55 91 74 91 77 -36 -28 -37 -6 -130 -60 
-129 -32 -28 -27 -28 -26 3231 2849 12 MP
PP
0 sg
30 -54 30 -20 73 47 73 55 91 74 91 77 -36 -28 -37 -6 
-130 -60 -129 -32 -28 -27 -28 -26 3231 2849 13 MP stroke
1 sg
-27 -28 61 45 60 56 111 98 111 102 -42 -57 -42 -42 -73 -55 
-73 -47 -30 -21 -29 -19 3230 2963 12 MP
PP
0 sg
-27 -32 -27 -28 61 45 60 56 111 98 111 102 -42 -57 -42 -42 
-73 -55 -73 -47 -30 -21 -29 -19 3230 2963 13 MP stroke
1 sg
24 -51 115 18 114 46 29 19 30 21 -30 20 -30 54 -128 -29 
-127 -9 -10 -11 -11 -11 3507 2909 12 MP
PP
0 sg
24 -67 24 -51 115 18 114 46 29 19 30 21 -30 20 -30 54 
-128 -29 -127 -9 -10 -11 -11 -11 3507 2909 13 MP stroke
1 sg
31 -20 1 1 2 0 130 72 131 85 27 28 27 32 -114 -46 
-115 -18 -76 -49 -76 -48 3611 3124 12 MP
PP
0 sg
32 -37 31 -20 1 1 2 0 130 72 131 85 27 28 27 32 
-114 -46 -115 -18 -76 -49 -76 -48 3611 3124 13 MP stroke
1 sg
-61 -45 -131 -85 -130 -72 72 19 72 52 93 81 93 87 26 8 
26 11 3163 2922 10 MP
PP
0 sg
-60 -56 -61 -45 -131 -85 -130 -72 72 19 72 52 93 81 93 87 
26 8 26 11 3163 2922 11 MP stroke
1 sg
-1 -1 -126 -68 -126 -60 11 -27 10 -17 16 4 16 6 105 59 
104 78 68 49 69 48 -72 -52 -72 -19 3545 3180 14 MP
PP
0 sg
-2 0 -1 -1 -126 -68 -126 -60 11 -27 10 -17 16 4 16 6 
105 59 104 78 68 49 69 48 -72 -52 -72 -19 3545 3180 15 MP stroke
1 sg
-133 -113 -2 -1 -1 1 -13 12 -12 23 34 42 34 43 120 96 
119 96 -6 -34 -7 -35 3755 3283 12 MP
PP
0 sg
-133 -130 -133 -113 -2 -1 -1 1 -13 12 -12 23 34 42 34 43 
120 96 119 96 -6 -34 -7 -35 3755 3283 13 MP stroke
1 sg
-4 -4 -93 -76 -93 -74 7 35 6 34 56 58 56 54 98 69 
98 66 -64 -71 -63 -86 3561 3124 12 MP
PP
0 sg
-4 -5 -4 -4 -93 -76 -93 -74 7 35 6 34 56 58 56 54 
98 69 98 66 -64 -71 -63 -86 3561 3124 13 MP stroke
1 sg
-65 47 -95 -13 -95 -9 42 -143 42 -115 127 9 128 29 28 26 
28 27 -37 45 -37 61 3249 2690 12 MP
PP
0 sg
-66 36 -65 47 -95 -13 -95 -9 42 -143 42 -115 127 9 128 29 
28 26 28 27 -37 45 -37 61 3249 2690 13 MP stroke
1 sg
-30 -29 -146 -123 -147 -130 63 86 64 71 62 46 62 38 51 33 
51 32 3208 2818 10 MP
PP
0 sg
-30 -24 -30 -29 -146 -123 -147 -130 63 86 64 71 62 46 62 38 
51 33 51 32 3208 2818 11 MP stroke
1 sg
15 39 4 4 4 5 147 130 146 123 11 -6 12 -11 -28 -32 
-27 -33 -73 -71 -73 -72 -76 -57 -77 -55 3599 3208 14 MP
PP
0 sg
15 36 15 39 4 4 4 5 147 130 146 123 11 -6 12 -11 
-28 -32 -27 -33 -73 -71 -73 -72 -76 -57 -77 -55 3599 3208 15 MP stroke
1 sg
9 14 111 74 112 42 23 10 22 9 32 38 32 32 -15 -8 
-16 -8 -62 -38 -62 -46 -98 -66 -98 -69 3630 3102 14 MP
PP
0 sg
10 16 9 14 111 74 112 42 23 10 22 9 32 38 32 32 
-15 -8 -16 -8 -62 -38 -62 -46 -98 -66 -98 -69 3630 3102 15 MP stroke
1 sg
35 24 138 66 137 47 31 27 30 26 -112 -42 -111 -74 -92 -54 
-91 -52 3794 3178 10 MP
PP
0 sg
35 32 35 24 138 66 137 47 31 27 30 26 -112 -42 -111 -74 
-92 -54 -91 -52 3794 3178 11 MP stroke
1 sg
79 41 -55 8 -54 -13 -176 -92 -175 -104 0 0 0 0 151 97 
152 23 3790 3210 10 MP
PP
0 sg
78 40 79 41 -55 8 -54 -13 -176 -92 -175 -104 0 0 0 0 
151 97 152 23 3790 3210 11 MP stroke
1 sg
-151 -97 -41 -20 -41 -18 190 109 190 -15 13 6 14 6 -11 29 
-11 23 3790 3210 10 MP
PP
0 sg
-152 -23 -151 -97 -41 -20 -41 -18 190 109 190 -15 13 6 14 6 
-11 29 -11 23 3790 3210 11 MP stroke
1 sg
-9 -77 74 -122 74 -144 110 11 111 10 -90 213 -91 178 -47 23 
-47 19 -38 -19 -38 -19 4115 804 12 MP
PP
0 sg
-9 -73 -9 -77 74 -122 74 -144 110 11 111 10 -90 213 -91 178 
-47 23 -47 19 -38 -19 -38 -19 4115 804 13 MP stroke
1 sg
40 -110 47 -19 47 -23 96 56 96 55 1 72 1 70 -143 48 
-143 13 -41 -38 -41 -39 4119 571 12 MP
PP
0 sg
40 -85 40 -110 47 -19 47 -23 96 56 96 55 1 72 1 70 
-143 48 -143 13 -41 -38 -41 -39 4119 571 13 MP stroke
1 sg
15 -39 173 -197 174 -176 4 -1 5 1 0 141 0 147 -99 172 
-98 177 -94 -94 -95 -92 4106 2030 12 MP
PP
0 sg
15 -39 15 -39 173 -197 174 -176 4 -1 5 1 0 141 0 147 
-99 172 -98 177 -94 -94 -95 -92 4106 2030 13 MP stroke
1 sg
126 -60 32 106 33 112 -174 176 -173 197 15 -234 16 -224 4045 2566 
8 MP
PP
0 sg
125 -73 126 -60 32 106 33 112 -174 176 -173 197 15 -234 16 -224 
4045 2566 9 MP stroke
1 sg
116 -196 14 -3 15 -3 47 84 48 88 -47 79 -46 90 -126 60 
-125 73 -6 -8 -6 -8 4057 2582 12 MP
PP
0 sg
116 -256 116 -196 14 -3 15 -3 47 84 48 88 -47 79 -46 90 
-126 60 -125 73 -6 -8 -6 -8 4057 2582 13 MP stroke
1 sg
143 -48 4 4 4 4 -95 94 -94 58 -53 -49 -52 -50 4037 494 
8 MP
PP
0 sg
143 -13 143 -48 4 4 4 4 -95 94 -94 58 -53 -49 -52 -50 
4037 494 9 MP stroke
1 sg
-103 -84 -33 -23 -33 -22 -75 -46 -75 -45 133 113 133 130 93 74 
93 76 -15 -39 -15 -36 3599 3208 12 MP
PP
0 sg
-103 -98 -103 -84 -33 -23 -33 -22 -75 -46 -75 -45 133 113 133 130 
93 74 93 76 -15 -39 -15 -36 3599 3208 13 MP stroke
1 sg
-1 -13 75 -192 75 -205 86 -59 85 -58 -15 239 -16 237 -5 11 
-4 12 -29 32 -29 30 -111 -10 -110 -11 3985 1220 14 MP
PP
0 sg
-1 -13 -1 -13 75 -192 75 -205 86 -59 85 -58 -15 239 -16 237 
-5 11 -4 12 -29 32 -29 30 -111 -10 -110 -11 3985 1220 15 MP stroke
1 sg
-86 158 -96 -55 -96 -56 91 -178 90 -213 29 -30 29 -32 63 111 
62 112 3581 1038 10 MP
PP
0 sg
-86 183 -86 158 -96 -55 -96 -56 91 -178 90 -213 29 -30 29 -32 
63 111 62 112 3581 1038 11 MP stroke
1 sg
-17 32 -85 58 -86 59 -44 -70 -45 -70 4 -30 5 -31 98 -177 
99 -172 77 4 77 6 -33 176 -33 183 3632 1824 14 MP
PP
0 sg
-17 32 -17 32 -85 58 -86 59 -44 -70 -45 -70 4 -30 5 -31 
98 -177 99 -172 77 4 77 6 -33 176 -33 183 3632 1824 15 MP stroke
1 sg
76 57 -46 -59 -46 -51 -104 -78 -105 -59 -29 -30 -29 -17 103 84 
103 98 3599 3208 10 MP
PP
0 sg
77 55 76 57 -46 -59 -46 -51 -104 -78 -105 -59 -29 -30 -29 -17 
103 84 103 98 3599 3208 11 MP stroke
1 sg
190 -270 12 6 13 6 4 50 5 47 -52 124 -53 107 -141 62 
-140 34 -14 -6 -13 -6 3795 3274 12 MP
PP
0 sg
189 -154 190 -270 12 6 13 6 4 50 5 47 -52 124 -53 107 
-141 62 -140 34 -14 -6 -13 -6 3795 3274 13 MP stroke
1 sg
-32 -106 46 -90 47 -79 97 -26 97 -15 11 11 10 11 -42 115 
-42 143 -75 69 -75 79 -5 -1 -4 1 3729 2481 14 MP
PP
0 sg
-33 -112 -32 -106 46 -90 47 -79 97 -26 97 -15 11 11 10 11 
-42 115 -42 143 -75 69 -75 79 -5 -1 -4 1 3729 2481 15 MP stroke
1 sg
46 59 73 72 73 71 78 48 78 48 -35 -42 -36 -42 -93 -87 
-93 -81 -69 -48 -68 -49 3538 3206 12 MP
PP
0 sg
46 51 46 59 73 72 73 71 78 48 78 48 -35 -42 -36 -42 
-93 -87 -93 -81 -69 -48 -68 -49 3538 3206 13 MP stroke
1 sg
11 -29 140 -34 141 -62 48 48 48 48 -50 70 -50 53 -71 10 
-71 0 -79 -41 -78 -40 3790 3210 12 MP
PP
0 sg
11 -23 11 -29 140 -34 141 -62 48 48 48 48 -50 70 -50 53 
-71 10 -71 0 -79 -41 -78 -40 3790 3210 13 MP stroke
1 sg
-1 -72 86 -158 86 -183 105 -70 105 -77 -186 363 -186 275 -4 -4 
-4 -4 3751 555 10 MP
PP
0 sg
-1 -70 -1 -72 86 -158 86 -183 105 -70 105 -77 -186 363 -186 275 
-4 -4 -4 -4 3751 555 11 MP stroke
1 sg
55 -8 71 0 71 -10 63 41 62 41 -41 31 -42 17 -137 -47 
-138 -66 -9 -5 -9 -7 3742 3134 12 MP
PP
0 sg
54 13 55 -8 71 0 71 -10 63 41 62 41 -41 31 -42 17 
-137 -47 -138 -66 -9 -5 -9 -7 3742 3134 13 MP stroke
1 sg
0 -141 75 -79 75 -69 95 9 95 13 -34 130 -34 148 -59 70 
-59 76 -77 -6 -77 -4 3720 2193 12 MP
PP
0 sg
0 -147 0 -141 75 -79 75 -69 95 9 95 13 -34 130 -34 148 
-59 70 -59 76 -77 -6 -77 -4 3720 2193 13 MP stroke
1 sg
-7 14 -105 77 -105 70 -62 -112 -63 -111 4 -12 5 -11 145 -178 
144 -182 40 16 40 16 -14 197 -15 201 3357 1214 14 MP
PP
0 sg
-7 15 -7 14 -105 77 -105 70 -62 -112 -63 -111 4 -12 5 -11 
145 -178 144 -182 40 16 40 16 -14 197 -15 201 3357 1214 15 MP stroke
1 sg
112 -40 0 130 0 134 -144 182 -145 178 16 -237 15 -239 17 -32 
17 -32 3632 1824 10 MP
PP
0 sg
112 -44 112 -40 0 130 0 134 -144 182 -145 178 16 -237 15 -239 
17 -32 17 -32 3632 1824 11 MP stroke
1 sg
-71 139 -112 40 -112 44 33 -183 33 -176 59 -76 59 -70 90 21 
90 24 1 54 0 55 3267 2175 12 MP
PP
0 sg
-70 128 -71 139 -112 40 -112 44 33 -183 33 -176 59 -76 59 -70 
90 21 90 24 1 54 0 55 3267 2175 13 MP stroke
1 sg
50 -70 125 -59 125 -75 10 13 9 13 -37 146 -37 121 -85 29 
-85 17 -62 -41 -63 -41 3491 3139 12 MP
PP
0 sg
50 -53 50 -70 125 -59 125 -75 10 13 9 13 -37 146 -37 121 
-85 29 -85 17 -62 -41 -63 -41 3491 3139 13 MP stroke
1 sg
-33 93 -125 75 -125 59 -48 -48 -48 -48 53 -107 52 -124 136 -44 
137 -46 17 46 17 46 3075 3587 12 MP
PP
0 sg
-33 98 -33 93 -125 75 -125 59 -48 -48 -48 -48 53 -107 52 -124 
136 -44 137 -46 17 46 17 46 3075 3587 13 MP stroke
1 sg
37 -45 129 32 130 60 49 42 48 41 -18 6 -17 14 -117 -2 
-117 42 -81 -65 -80 -64 3249 2690 12 MP
PP
0 sg
37 -61 37 -45 129 32 130 60 49 42 48 41 -18 6 -17 14 
-117 -2 -117 42 -81 -65 -80 -64 3249 2690 13 MP stroke
1 sg
-23 -25 -111 -102 -111 -98 -26 -11 -26 -8 36 42 35 42 98 97 
98 95 22 17 22 17 4 -19 5 -21 2895 2671 14 MP
PP
0 sg
-23 -26 -23 -25 -111 -102 -111 -98 -26 -11 -26 -8 36 42 35 42 
98 97 98 95 22 17 22 17 4 -19 5 -21 2895 2671 15 MP stroke
1 sg
-71 61 -100 -55 -101 -52 4 -30 3 -28 117 -42 117 2 50 57 
51 57 2753 2487 10 MP
PP
0 sg
-70 30 -71 61 -100 -55 -101 -52 4 -30 3 -28 117 -42 117 2 
50 57 51 57 2753 2487 11 MP stroke
1 sg
28 32 131 119 132 105 54 39 55 40 -38 -34 -37 -46 -98 -95 
-98 -97 -78 -48 -78 -48 3300 2953 12 MP
PP
0 sg
27 33 28 32 131 119 132 105 54 39 55 40 -38 -34 -37 -46 
-98 -95 -98 -97 -78 -48 -78 -48 3300 2953 13 MP stroke
1 sg
-106 -9 -22 -9 -23 -10 -30 -26 -31 -27 42 -17 41 -31 85 -17 
85 -29 51 19 52 21 -19 63 -19 54 3131 2946 14 MP
PP
0 sg
-106 18 -106 -9 -22 -9 -23 -10 -30 -26 -31 -27 42 -17 41 -31 
85 -17 85 -29 51 19 52 21 -19 63 -19 54 3131 2946 15 MP stroke
1 sg
-87 124 -90 -24 -90 -21 34 -148 34 -130 65 -47 66 -36 80 64 
81 65 -3 28 -4 30 3095 2503 12 MP
PP
0 sg
-86 95 -87 124 -90 -24 -90 -21 34 -148 34 -130 65 -47 66 -36 
80 64 81 65 -3 28 -4 30 3095 2503 13 MP stroke
1 sg
94 -171 43 20 43 21 -125 156 -125 149 -13 -6 -12 -6 3416 3698 
8 MP
PP
0 sg
95 -163 94 -171 43 20 43 21 -125 156 -125 149 -13 -6 -12 -6 
3416 3698 9 MP stroke
1 sg
0 -130 71 -139 70 -128 119 30 118 34 0 58 0 61 -149 177 
-149 203 -40 -16 -40 -16 3408 1644 12 MP
PP
0 sg
0 -134 0 -130 71 -139 70 -128 119 30 118 34 0 58 0 61 
-149 177 -149 203 -40 -16 -40 -16 3408 1644 13 MP stroke
1 sg
60 30 -44 127 -44 126 -137 46 -136 44 -5 -47 -4 -50 125 -149 
125 -156 3141 3991 10 MP
PP
0 sg
60 29 60 30 -44 127 -44 126 -137 46 -136 44 -5 -47 -4 -50 
125 -149 125 -156 3141 3991 11 MP stroke
1 sg
149 -177 23 21 23 22 -186 345 -187 390 15 -201 14 -197 3328 1612 
8 MP
PP
0 sg
149 -203 149 -177 23 21 23 22 -186 345 -187 390 15 -201 14 -197 
3328 1612 9 MP stroke
1 sg
-18 -7 -132 -105 -131 -119 -12 11 -11 6 30 29 30 24 123 78 
122 59 9 7 9 5 2945 2669 12 MP
PP
0 sg
-19 12 -18 -7 -132 -105 -131 -119 -12 11 -11 6 30 29 30 24 
123 78 122 59 9 7 9 5 2945 2669 13 MP stroke
1 sg
61 27 -34 55 -34 37 -101 -25 -100 -41 -32 -32 -32 -38 106 9 
106 -18 3131 2946 10 MP
PP
0 sg
60 26 61 27 -34 55 -34 37 -101 -25 -100 -41 -32 -32 -32 -38 
106 9 106 -18 3131 2946 11 MP stroke
1 sg
-5 22 -122 -59 -123 -78 -51 -32 -51 -33 16 8 15 8 100 41 
101 25 62 33 63 34 2953 2734 12 MP
PP
0 sg
-5 31 -5 22 -122 -59 -123 -78 -51 -32 -51 -33 16 8 15 8 
100 41 101 25 62 33 63 34 2953 2734 13 MP stroke
1 sg
-72 127 -118 -34 -119 -30 0 -55 -1 -54 87 -124 86 -95 101 52 
100 55 4 28 4 30 2886 2338 12 MP
PP
0 sg
-72 100 -72 127 -118 -34 -119 -30 0 -55 -1 -54 87 -124 86 -95 
101 52 100 55 4 28 4 30 2886 2338 13 MP stroke
1 sg
37 -146 146 -38 145 -43 11 21 12 21 -22 81 -22 76 -121 107 
-120 82 -52 -21 -51 -19 3196 3103 12 MP
PP
0 sg
37 -121 37 -146 146 -38 145 -43 11 21 12 21 -22 81 -22 76 
-121 107 -120 82 -52 -21 -51 -19 3196 3103 13 MP stroke
1 sg
-43 165 -145 43 -146 38 -9 -13 -10 -13 33 -93 33 -98 120 -122 
120 -126 45 25 45 25 2745 3785 12 MP
PP
0 sg
-43 169 -43 165 -145 43 -146 38 -9 -13 -10 -13 33 -93 33 -98 
120 -122 120 -126 45 25 45 25 2745 3785 13 MP stroke
1 sg
19 -63 120 -82 121 -107 50 66 51 66 -41 84 -42 74 -88 41 
-88 28 -61 -27 -60 -26 3131 2946 12 MP
PP
0 sg
19 -54 19 -63 120 -82 121 -107 50 66 51 66 -41 84 -42 74 
-88 41 -88 28 -61 -27 -60 -26 3131 2946 13 MP stroke
1 sg
44 -127 93 47 93 50 -120 126 -120 122 -17 -46 -17 -46 3109 3679 
8 MP
PP
0 sg
44 -126 44 -127 93 47 93 50 -120 126 -120 122 -17 -46 -17 -46 
3109 3679 9 MP stroke
1 sg
-34 -15 -93 -54 -93 -44 -51 -57 -50 -57 17 -14 18 -6 144 99 
144 123 15 17 16 28 2500 2354 12 MP
PP
0 sg
-33 -20 -34 -15 -93 -54 -93 -44 -51 -57 -50 -57 17 -14 18 -6 
144 99 144 123 15 17 16 28 2500 2354 13 MP stroke
1 sg
33 20 126 104 127 118 -155 -124 -156 -49 -4 -47 -5 -37 2567 2389 
8 MP
PP
0 sg
34 15 33 20 126 104 127 118 -155 -124 -156 -49 -4 -47 -5 -37 
2567 2389 9 MP stroke
1 sg
-21 -21 -127 -118 -126 -104 -16 -28 -15 -17 23 25 24 24 43 44 
44 44 103 98 102 99 -6 -12 -7 -13 2205 2090 14 MP
PP
0 sg
-21 -21 -21 -21 -127 -118 -126 -104 -16 -28 -15 -17 23 25 24 24 
43 44 44 44 103 98 102 99 -6 -12 -7 -13 2205 2090 15 MP stroke
1 sg
-23 -25 -144 -123 -144 -99 -48 -41 -49 -42 37 6 36 28 83 78 
82 85 65 60 65 62 32 16 32 19 2484 2350 14 MP
PP
0 sg
-24 -24 -23 -25 -144 -123 -144 -99 -48 -41 -49 -42 37 6 36 28 
83 78 82 85 65 60 65 62 32 16 32 19 2484 2350 15 MP stroke
1 sg
42 57 23 25 23 26 119 114 120 113 -11 -32 -11 -31 -82 -85 
-83 -78 -91 -77 -91 -74 3025 2821 12 MP
PP
0 sg
42 42 42 57 23 25 23 26 119 114 120 113 -11 -32 -11 -31 
-82 -85 -83 -78 -91 -77 -91 -74 3025 2821 13 MP stroke
1 sg
34 -55 88 -28 88 -41 50 71 50 70 -110 62 -109 25 -63 -34 
-62 -33 3078 2801 10 MP
PP
0 sg
34 -37 34 -55 88 -28 88 -41 50 71 50 70 -110 62 -109 25 
-63 -34 -62 -33 3078 2801 11 MP stroke
1 sg
0 -58 72 -127 72 -100 117 17 117 31 -166 117 -166 224 -23 -22 
-23 -21 3030 1992 10 MP
PP
0 sg
0 -61 0 -58 72 -127 72 -100 117 17 117 31 -166 117 -166 224 
-23 -22 -23 -21 3030 1992 11 MP stroke
1 sg
118 124 54 51 54 50 3 1 3 -1 -72 -78 -73 -80 -102 -99 
-103 -98 2397 2262 10 MP
PP
0 sg
118 130 118 124 54 51 54 50 3 1 3 -1 -72 -78 -73 -80 
-102 -99 -103 -98 2397 2262 11 MP stroke
1 sg
-118 -130 -44 -44 -43 -44 -32 -19 -32 -16 131 141 132 129 47 41 
47 41 15 14 15 11 2161 2008 12 MP
PP
0 sg
-118 -124 -118 -130 -44 -44 -43 -44 -32 -19 -32 -16 131 141 132 129 
47 41 47 41 15 14 15 11 2161 2008 13 MP stroke
1 sg
-47 12 -117 -31 -117 -17 -4 -30 -4 -28 71 -61 70 -30 93 44 
93 54 5 37 4 47 2558 2305 12 MP
PP
0 sg
-47 3 -47 12 -117 -31 -117 -17 -4 -30 -4 -28 71 -61 70 -30 
93 44 93 54 5 37 4 47 2558 2305 13 MP stroke
1 sg
11 32 2 4 3 4 149 136 149 120 34 34 34 31 -132 -129 
-131 -141 -65 -62 -65 -60 2678 2507 12 MP
PP
0 sg
11 31 11 32 2 4 3 4 149 136 149 120 34 34 34 31 
-132 -129 -131 -141 -65 -62 -65 -60 2678 2507 13 MP stroke
1 sg
-7 -6 -149 -120 -149 -136 24 35 24 18 16 11 17 11 110 70 
111 59 5 38 5 24 2339 2170 12 MP
PP
0 sg
-7 -4 -7 -6 -149 -120 -149 -136 24 35 24 18 16 11 17 11 
110 70 111 59 5 38 5 24 2339 2170 13 MP stroke
1 sg
-2 -4 -120 -113 -119 -114 -5 21 -4 19 150 132 151 116 -24 -18 
-24 -35 2651 2436 10 MP
PP
0 sg
-3 -4 -2 -4 -120 -113 -119 -114 -5 21 -4 19 150 132 151 116 
-24 -18 -24 -35 2651 2436 11 MP stroke
1 sg
-16 -11 -151 -116 -150 -132 -22 -17 -22 -17 37 46 38 34 50 34 
51 30 105 65 105 63 -4 20 -4 12 2570 2361 14 MP
PP
0 sg
-17 -11 -16 -11 -151 -116 -150 -132 -22 -17 -22 -17 37 46 38 34 
50 34 51 30 105 65 105 63 -4 20 -4 12 2570 2361 15 MP stroke
1 sg
19 -12 98 36 97 25 45 40 45 41 -56 15 -56 -9 -51 -30 
-50 -34 -55 -40 -54 -39 2982 2664 12 MP
PP
0 sg
18 7 19 -12 98 36 97 25 45 40 45 41 -56 15 -56 -9 
-51 -30 -50 -34 -55 -40 -54 -39 2982 2664 13 MP stroke
1 sg
5 -31 109 -25 110 -62 75 -6 76 -11 -4 63 -4 57 -80 70 
-79 40 -97 -25 -98 -36 -9 -5 -9 -7 2963 2681 14 MP
PP
0 sg
5 -22 5 -31 109 -25 110 -62 75 -6 76 -11 -4 63 -4 57 
-80 70 -79 40 -97 -25 -98 -36 -9 -5 -9 -7 2963 2681 15 MP stroke
1 sg
-35 174 -107 79 -107 70 -51 -66 -50 -66 22 -76 22 -81 138 -123 
139 -128 32 20 32 20 2467 3620 12 MP
PP
0 sg
-35 177 -35 174 -107 79 -107 70 -51 -66 -50 -66 22 -76 22 -81 
138 -123 139 -128 32 20 32 20 2467 3620 13 MP stroke
1 sg
-15 16 -76 11 -75 6 -50 -70 -50 -71 42 -74 41 -84 107 -70 
107 -79 22 10 22 9 -30 200 -30 179 2553 2871 14 MP
PP
0 sg
-15 17 -15 16 -76 11 -75 6 -50 -70 -50 -71 42 -74 41 -84 
107 -70 107 -79 22 10 22 9 -30 200 -30 179 2553 2871 15 MP stroke
1 sg
43 -169 107 61 107 64 -139 128 -138 123 -12 -21 -11 -21 2831 3451 
8 MP
PP
0 sg
43 -165 43 -169 107 61 107 64 -139 128 -138 123 -12 -21 -11 -21 
2831 3451 9 MP stroke
1 sg
-77 -9 -105 -63 -105 -65 56 9 56 -15 86 13 87 2 39 59 
39 57 2409 2396 10 MP
PP
0 sg
-76 12 -77 -9 -105 -63 -105 -65 56 9 56 -15 86 13 87 2 
39 59 39 57 2409 2396 11 MP stroke
1 sg
-47 51 -87 -2 -86 -13 -45 -41 -45 -40 79 -40 80 -70 99 44 
100 45 2392 2629 10 MP
PP
0 sg
-48 66 -47 51 -87 -2 -86 -13 -45 -41 -45 -40 79 -40 80 -70 
99 44 100 45 2392 2629 11 MP stroke
1 sg
4 -63 15 -16 15 -17 153 -82 152 -100 26 17 25 17 -47 173 
-47 153 -51 35 -50 29 -100 -45 -99 -44 2591 2718 14 MP
PP
0 sg
4 -57 4 -63 15 -16 15 -17 153 -82 152 -100 26 17 25 17 
-47 173 -47 153 -51 35 -50 29 -100 -45 -99 -44 2591 2718 15 MP stroke
1 sg
-46 -6 -111 -59 -110 -70 4 -12 4 -20 77 9 76 -12 80 13 
80 7 -4 82 -4 67 2257 2227 12 MP
PP
0 sg
-46 1 -46 -6 -111 -59 -110 -70 4 -12 4 -20 77 9 76 -12 
80 13 80 7 -4 82 -4 67 2257 2227 13 MP stroke
1 sg
11 8 -25 198 -26 193 -152 100 -153 82 30 -179 30 -200 137 -103 
137 -106 2219 3459 10 MP
PP
0 sg
11 7 11 8 -25 198 -26 193 -152 100 -153 82 30 -179 30 -200 
137 -103 137 -106 2219 3459 11 MP stroke
1 sg
35 -177 124 79 124 82 -137 106 -137 103 -22 -9 -22 -10 2537 3269 
8 MP
PP
0 sg
35 -174 35 -177 124 79 124 82 -137 106 -137 103 -22 -9 -22 -10 
2537 3269 9 MP stroke
1 sg
-52 34 -80 -7 -80 -13 -39 -57 -39 -59 47 -51 48 -66 50 -29 
51 -35 86 35 87 35 -13 89 -14 82 2145 2452 14 MP
PP
0 sg
-52 42 -52 34 -80 -7 -80 -13 -39 -57 -39 -59 47 -51 48 -66 
50 -29 51 -35 86 35 87 35 -13 89 -14 82 2145 2452 15 MP stroke
1 sg
72 78 64 63 63 62 -142 -152 -143 -156 7 13 6 12 2192 2065 
8 MP
PP
0 sg
73 80 72 78 64 63 63 62 -142 -152 -143 -156 7 13 6 12 
2192 2065 9 MP stroke
1 sg
-34 -34 7 6 7 4 129 75 130 45 64 77 64 75 -1 2 
-2 2 -118 -55 -118 -84 -47 -41 -47 -41 2285 2115 14 MP
PP
0 sg
-34 -31 -34 -34 7 6 7 4 129 75 130 45 64 77 64 75 
-1 2 -2 2 -118 -55 -118 -84 -47 -41 -47 -41 2285 2115 15 MP stroke
1 sg
-21 11 -130 -45 -129 -75 -5 -24 -5 -38 46 6 46 -1 80 28 
79 23 30 51 30 49 2038 2076 12 MP
PP
0 sg
-21 15 -21 11 -130 -45 -129 -75 -5 -24 -5 -38 46 6 46 -1 
80 28 79 23 30 51 30 49 2038 2076 13 MP stroke
1 sg
47 -173 129 -91 130 -96 2 172 2 169 -92 129 -92 113 -87 -35 
-86 -35 2291 2693 10 MP
PP
0 sg
47 -153 47 -173 129 -91 130 -96 2 172 2 169 -92 129 -92 113 
-87 -35 -86 -35 2291 2693 11 MP stroke
1 sg
-101 70 -79 -23 -80 -28 4 -67 4 -82 52 -34 52 -42 110 13 
109 9 15 37 15 36 1896 2357 12 MP
PP
0 sg
-101 111 -101 70 -79 -23 -80 -28 4 -67 4 -82 52 -34 52 -42 
110 13 109 9 15 37 15 36 1896 2357 13 MP stroke
1 sg
-10 20 -130 96 -129 91 -25 -17 -26 -17 26 -193 25 -198 140 97 
140 102 1917 3245 10 MP
PP
0 sg
-11 19 -10 20 -130 96 -129 91 -25 -17 -26 -17 26 -193 25 -198 
140 97 140 102 1917 3245 11 MP stroke
1 sg
-73 -68 -63 -62 -64 -63 -3 1 -3 -1 100 86 101 71 21 17 
22 18 18 29 17 26 1774 1660 12 MP
PP
0 sg
-73 -54 -73 -68 -63 -62 -64 -63 -3 1 -3 -1 100 86 101 71 
21 17 22 18 18 29 17 26 1774 1660 13 MP stroke
1 sg
-15 -14 118 84 118 55 32 24 31 24 20 52 20 44 -101 -71 
-100 -86 -54 -50 -54 -51 2161 2008 12 MP
PP
0 sg
-15 -11 -15 -14 118 84 118 55 32 24 31 24 20 52 20 44 
-101 -71 -100 -86 -54 -50 -54 -51 2161 2008 13 MP stroke
1 sg
-85 157 -109 -9 -110 -13 14 -82 13 -89 92 -113 92 -129 65 -11 
64 -11 25 60 24 61 1756 2766 12 MP
PP
0 sg
-85 179 -85 157 -109 -9 -110 -13 14 -82 13 -89 92 -113 92 -129 
65 -11 64 -11 25 60 24 61 1756 2766 13 MP stroke
1 sg
26 5 27 125 27 117 -123 27 -124 1 -30 -49 -30 -51 101 -70 
101 -111 1896 2357 10 MP
PP
0 sg
25 6 26 5 27 125 27 117 -123 27 -124 1 -30 -49 -30 -51 
101 -70 101 -111 1896 2357 11 MP stroke
1 sg
1 8 -135 120 -134 33 -64 -75 -64 -77 21 -11 21 -15 124 -1 
123 -27 53 19 53 18 1685 2067 12 MP
PP
0 sg
1 8 1 8 -135 120 -134 33 -64 -75 -64 -77 21 -11 21 -15 
124 -1 123 -27 53 19 53 18 1685 2067 13 MP stroke
1 sg
1 -2 134 -33 135 -120 48 41 49 42 -14 107 -15 91 -138 -25 
-139 -51 -31 -24 -32 -24 1955 1894 12 MP
PP
0 sg
2 -2 1 -2 134 -33 135 -120 48 41 49 42 -14 107 -15 91 
-138 -25 -139 -51 -31 -24 -32 -24 1955 1894 13 MP stroke
1 sg
-2 -172 10 -20 11 -19 109 82 109 85 -53 96 -53 95 -64 11 
-65 11 1934 2865 10 MP
PP
0 sg
-2 -169 -2 -172 10 -20 11 -19 109 82 109 85 -53 96 -53 95 
-64 11 -65 11 1934 2865 11 MP stroke
1 sg
-15 -37 85 -157 85 -179 60 -22 59 -22 37 84 36 84 -20 60 
-21 58 -120 97 -120 81 -26 -5 -25 -6 1896 2357 14 MP
PP
0 sg
-15 -36 -15 -37 85 -157 85 -179 60 -22 59 -22 37 84 36 84 
-20 60 -21 58 -120 97 -120 81 -26 -5 -25 -6 1896 2357 15 MP stroke
1 sg
-20 -52 139 51 138 25 55 48 54 49 2 9 1 10 -153 -2 
-153 -59 -22 -18 -21 -17 1852 1750 12 MP
PP
0 sg
-20 -44 -20 -52 139 51 138 25 55 48 54 49 2 9 1 10 
-153 -2 -153 -59 -22 -18 -21 -17 1852 1750 13 MP stroke
1 sg
-27 -125 120 -81 120 -97 42 107 42 107 -82 133 -82 110 -53 -18 
-53 -19 1791 2104 10 MP
PP
0 sg
-27 -117 -27 -125 120 -81 120 -97 42 107 42 107 -82 133 -82 110 
-53 -18 -53 -19 1791 2104 11 MP stroke
1 sg
153 2 18 17 18 16 -153 24 -154 -63 -17 -26 -18 -29 1809 1715 
8 MP
PP
0 sg
153 59 153 2 18 17 18 16 -153 24 -154 -63 -17 -26 -18 -29 
1809 1715 9 MP stroke
1 sg
-42 75 -59 22 -60 22 -24 -61 -25 -60 53 -95 53 -96 73 58 
73 59 1553 2961 10 MP
PP
0 sg
-42 76 -42 75 -59 22 -60 22 -24 -61 -25 -60 53 -95 53 -96 
73 58 73 59 1553 2961 11 MP stroke
1 sg
-1 -8 82 -110 82 -133 76 -49 75 -53 38 21 39 21 -14 161 
-13 152 -133 53 -133 36 -49 -42 -48 -41 1683 2051 14 MP
PP
0 sg
-1 -8 -1 -8 82 -110 82 -133 76 -49 75 -53 38 21 39 21 
-14 161 -13 152 -133 53 -133 36 -49 -42 -48 -41 1683 2051 15 MP stroke
1 sg
42 -76 84 70 84 71 -89 90 -90 88 -36 -84 -37 -84 1637 2810 
8 MP
PP
0 sg
42 -75 42 -76 84 70 84 71 -89 90 -90 88 -36 -84 -37 -84 
1637 2810 9 MP stroke
1 sg
14 -107 133 -36 133 -53 25 26 25 26 -118 200 -118 132 -54 -49 
-55 -48 1615 1770 10 MP
PP
0 sg
15 -91 14 -107 133 -36 133 -53 25 26 25 26 -118 200 -118 132 
-54 -49 -55 -48 1615 1770 11 MP stroke
1 sg
-43 159 -75 53 -76 49 -42 -107 -42 -107 21 -58 20 -60 90 -88 
89 -90 50 43 50 44 1285 2733 12 MP
PP
0 sg
-42 162 -43 159 -75 53 -76 49 -42 -107 -42 -107 21 -58 20 -60 
90 -88 89 -90 50 43 50 44 1285 2733 13 MP stroke
1 sg
-2 -9 118 -132 118 -200 86 -21 86 -27 5 5 5 4 -190 270 
-189 153 -18 -16 -18 -17 1503 1654 12 MP
PP
0 sg
-1 -10 -2 -9 118 -132 118 -200 86 -21 86 -27 5 5 5 4 
-190 270 -189 153 -18 -16 -18 -17 1503 1654 13 MP stroke
1 sg
42 -162 99 88 99 90 -103 94 -103 91 -39 -21 -38 -21 1370 2412 
8 MP
PP
0 sg
43 -159 42 -162 99 88 99 90 -103 94 -103 91 -39 -21 -38 -21 
1370 2412 9 MP stroke
1 sg
-49 207 -86 27 -86 21 -25 -26 -25 -26 13 -152 14 -161 103 -91 
103 -94 43 40 43 40 1001 2475 12 MP
PP
0 sg
-48 215 -49 207 -86 27 -86 21 -25 -26 -25 -26 13 -152 14 -161 
103 -91 103 -94 43 40 43 40 1001 2475 13 MP stroke
1 sg
48 -215 51 49 51 48 -94 171 -95 163 -5 -4 -5 -5 1098 2053 
8 MP
PP
0 sg
49 -207 48 -215 51 49 51 48 -94 171 -95 163 -5 -4 -5 -5 
1098 2053 9 MP stroke
gr


end %%Color Dict

eplot
%%EndObject

epage
end

showpage

%%Trailer
%%EOF
