%!PS-Adobe-2.0 EPSF-1.2
%%Creator: MATLAB, The MathWorks, Inc. Version 8.0.0.783 (R2012b). Operating System: Microsoft Windows 7.
%%Title: ..\meshes\poligoni-triangle\triangle0.01-mesh.eps
%%CreationDate: 02/26/2013  01:21:16
%%DocumentNeededFonts: Helvetica
%%DocumentProcessColors: Cyan Magenta Yellow Black
%%Pages: 1
%%BoundingBox:   156   243   480   616
%%EndComments

%%BeginProlog
% MathWorks dictionary
/MathWorks 160 dict begin
% definition operators
/bdef {bind def} bind def
/ldef {load def} bind def
/xdef {exch def} bdef
/xstore {exch store} bdef
% operator abbreviations
/c  /clip ldef
/cc /concat ldef
/cp /closepath ldef
/gr /grestore ldef
/gs /gsave ldef
/mt /moveto ldef
/np /newpath ldef
/cm /currentmatrix ldef
/sm /setmatrix ldef
/rm /rmoveto ldef
/rl /rlineto ldef
/s {show newpath} bdef
/sc {setcmykcolor} bdef
/sr /setrgbcolor ldef
/sg /setgray ldef
/w /setlinewidth ldef
/j /setlinejoin ldef
/cap /setlinecap ldef
/rc {rectclip} bdef
/rf {rectfill} bdef
% page state control
/pgsv () def
/bpage {/pgsv save def} bdef
/epage {pgsv restore} bdef
/bplot /gsave ldef
/eplot {stroke grestore} bdef
% orientation switch
/portraitMode 0 def /landscapeMode 1 def /rotateMode 2 def
% coordinate system mappings
/dpi2point 0 def
% font control
/FontSize 0 def
/FMS {/FontSize xstore findfont [FontSize 0 0 FontSize neg 0 0]
  makefont setfont} bdef
/ISOLatin1Encoding where {pop /WindowsLatin1Encoding 256 array bdef
ISOLatin1Encoding WindowsLatin1Encoding copy pop
/.notdef/.notdef/quotesinglbase/florin/quotedblbase/ellipsis/dagger
/daggerdbl/circumflex/perthousand/Scaron/guilsinglleft/OE/.notdef/.notdef
/.notdef/.notdef/quoteleft/quoteright/quotedblleft/quotedblright/bullet
/endash/emdash/tilde/trademark/scaron/guilsinglright/oe/.notdef/.notdef
/Ydieresis WindowsLatin1Encoding 128 32 getinterval astore pop}
{/WindowsLatin1Encoding StandardEncoding bdef} ifelse
/reencode {exch dup where {pop load} {pop StandardEncoding} ifelse
  exch dup 3 1 roll findfont dup length dict begin
  { 1 index /FID ne {def}{pop pop} ifelse } forall
  /Encoding exch def currentdict end definefont pop} bdef
/isroman {findfont /CharStrings get /Agrave known} bdef
/FMSR {3 1 roll 1 index dup isroman {reencode} {pop pop} ifelse
  exch FMS} bdef
/csm {1 dpi2point div -1 dpi2point div scale neg translate
 dup landscapeMode eq {pop -90 rotate}
  {rotateMode eq {90 rotate} if} ifelse} bdef
% line types: solid, dotted, dashed, dotdash
/SO { [] 0 setdash } bdef
/DO { [.5 dpi2point mul 4 dpi2point mul] 0 setdash } bdef
/DA { [6 dpi2point mul] 0 setdash } bdef
/DD { [.5 dpi2point mul 4 dpi2point mul 6 dpi2point mul 4
  dpi2point mul] 0 setdash } bdef
% macros for lines and objects
/L {lineto stroke} bdef
/MP {3 1 roll moveto 1 sub {rlineto} repeat} bdef
/AP {{rlineto} repeat} bdef
/PDlw -1 def
/W {/PDlw currentlinewidth def setlinewidth} def
/PP {closepath eofill} bdef
/DP {closepath stroke} bdef
/MR {4 -2 roll moveto dup  0 exch rlineto exch 0 rlineto
  neg 0 exch rlineto closepath} bdef
/FR {MR stroke} bdef
/PR {MR fill} bdef
/L1i {{currentfile picstr readhexstring pop} image} bdef
/tMatrix matrix def
/MakeOval {newpath tMatrix currentmatrix pop translate scale
0 0 1 0 360 arc tMatrix setmatrix} bdef
/FO {MakeOval stroke} bdef
/PO {MakeOval fill} bdef
/PD {currentlinewidth 2 div 0 360 arc fill
   PDlw -1 eq not {PDlw w /PDlw -1 def} if} def
/FA {newpath tMatrix currentmatrix pop translate scale
  0 0 1 5 -2 roll arc tMatrix setmatrix stroke} bdef
/PA {newpath tMatrix currentmatrix pop	translate 0 0 moveto scale
  0 0 1 5 -2 roll arc closepath tMatrix setmatrix fill} bdef
/FAn {newpath tMatrix currentmatrix pop translate scale
  0 0 1 5 -2 roll arcn tMatrix setmatrix stroke} bdef
/PAn {newpath tMatrix currentmatrix pop translate 0 0 moveto scale
  0 0 1 5 -2 roll arcn closepath tMatrix setmatrix fill} bdef
/vradius 0 def /hradius 0 def /lry 0 def
/lrx 0 def /uly 0 def /ulx 0 def /rad 0 def
/MRR {/vradius xdef /hradius xdef /lry xdef /lrx xdef /uly xdef
  /ulx xdef newpath tMatrix currentmatrix pop ulx hradius add uly
  vradius add translate hradius vradius scale 0 0 1 180 270 arc 
  tMatrix setmatrix lrx hradius sub uly vradius add translate
  hradius vradius scale 0 0 1 270 360 arc tMatrix setmatrix
  lrx hradius sub lry vradius sub translate hradius vradius scale
  0 0 1 0 90 arc tMatrix setmatrix ulx hradius add lry vradius sub
  translate hradius vradius scale 0 0 1 90 180 arc tMatrix setmatrix
  closepath} bdef
/FRR {MRR stroke } bdef
/PRR {MRR fill } bdef
/MlrRR {/lry xdef /lrx xdef /uly xdef /ulx xdef /rad lry uly sub 2 div def
  newpath tMatrix currentmatrix pop ulx rad add uly rad add translate
  rad rad scale 0 0 1 90 270 arc tMatrix setmatrix lrx rad sub lry rad
  sub translate rad rad scale 0 0 1 270 90 arc tMatrix setmatrix
  closepath} bdef
/FlrRR {MlrRR stroke } bdef
/PlrRR {MlrRR fill } bdef
/MtbRR {/lry xdef /lrx xdef /uly xdef /ulx xdef /rad lrx ulx sub 2 div def
  newpath tMatrix currentmatrix pop ulx rad add uly rad add translate
  rad rad scale 0 0 1 180 360 arc tMatrix setmatrix lrx rad sub lry rad
  sub translate rad rad scale 0 0 1 0 180 arc tMatrix setmatrix
  closepath} bdef
/FtbRR {MtbRR stroke } bdef
/PtbRR {MtbRR fill } bdef
/stri 6 array def /dtri 6 array def
/smat 6 array def /dmat 6 array def
/tmat1 6 array def /tmat2 6 array def /dif 3 array def
/asub {/ind2 exch def /ind1 exch def dup dup
  ind1 get exch ind2 get sub exch } bdef
/tri_to_matrix {
  2 0 asub 3 1 asub 4 0 asub 5 1 asub
  dup 0 get exch 1 get 7 -1 roll astore } bdef
/compute_transform {
  dmat dtri tri_to_matrix tmat1 invertmatrix 
  smat stri tri_to_matrix tmat2 concatmatrix } bdef
/ds {stri astore pop} bdef
/dt {dtri astore pop} bdef
/db {2 copy /cols xdef /rows xdef mul dup string
  currentfile exch readhexstring pop
  /bmap xdef pop pop} bdef
/it {gs np dtri aload pop moveto lineto lineto cp c
  cols rows 8 compute_transform 
  {bmap} image gr}bdef
/il {newpath moveto lineto stroke}bdef
currentdict end def
%%EndProlog

%%BeginSetup
MathWorks begin

0 cap

end
%%EndSetup

%%Page: 1 1
%%BeginPageSetup
%%PageBoundingBox:   156   243   480   616
MathWorks begin
bpage
%%EndPageSetup

%%BeginObject: obj1
bplot

/dpi2point 12 def
portraitMode 0216 7344 csm

 1658   -48  3892  4472 MR c np
85 dict begin %Colortable dictionary
/c0 { 0.000000 0.000000 0.000000 sr} bdef
/c1 { 1.000000 1.000000 1.000000 sr} bdef
/c2 { 0.900000 0.000000 0.000000 sr} bdef
/c3 { 0.000000 0.820000 0.000000 sr} bdef
/c4 { 0.000000 0.000000 0.800000 sr} bdef
/c5 { 0.910000 0.820000 0.320000 sr} bdef
/c6 { 1.000000 0.260000 0.820000 sr} bdef
/c7 { 0.000000 0.820000 0.820000 sr} bdef
c0
1 j
1 sg
   0    0 6919 5187 PR
6 w
gs 1466 388 4228 4229 MR c np
0 289 -240 -109 0 -180 1898 4423 4 MP
PP
0 sg
240 0 0 289 -240 -109 0 -180 1898 4423 5 MP stroke
1 sg
0 -240 274 0 -90 240 5317 4183 4 MP
PP
0 sg
-184 0 0 -240 274 0 -90 240 5317 4183 5 MP stroke
1 sg
144 240 -326 0 0 -240 5501 821 4 MP
PP
0 sg
182 0 144 240 -326 0 0 -240 5501 821 5 MP stroke
1 sg
0 332 -240 0 0 -183 1898 764 4 MP
PP
0 sg
240 -149 0 332 -240 0 0 -183 1898 764 5 MP stroke
1 sg
25 -399 299 -109 111 45 -2 342 3340 2365 5 MP
PP
0 sg
-433 121 25 -399 299 -109 111 45 -2 342 3340 2365 6 MP stroke
1 sg
0 600 -240 -120 0 -360 1898 2682 4 MP
PP
0 sg
240 -120 0 600 -240 -120 0 -360 1898 2682 5 MP stroke
1 sg
126 218 -525 0 0 -188 3820 769 4 MP
PP
0 sg
399 -30 126 218 -525 0 0 -188 3820 769 5 MP stroke
1 sg
191 80 0 382 -147 66 -332 -137 -1 -173 2859 2573 6 MP
PP
0 sg
289 -218 191 80 0 382 -147 66 -332 -137 -1 -173 2859 2573 7 MP stroke
1 sg
0 590 -211 -106 -4 -387 1873 3655 4 MP
PP
0 sg
215 -97 0 590 -211 -106 -4 -387 1873 3655 5 MP stroke
1 sg
269 134 0 360 -252 126 -229 -133 0 -382 2379 2711 6 MP
PP
0 sg
212 -105 269 134 0 360 -252 126 -229 -133 0 -382 2379 2711 7 MP stroke
1 sg
240 120 0 360 -281 141 -220 -155 9 -340 2150 2196 6 MP
PP
0 sg
252 -126 240 120 0 360 -281 141 -220 -155 9 -340 2150 2196 7 MP stroke
1 sg
0 202 -334 72 -147 -107 0 -167 3820 4423 5 MP
PP
0 sg
481 0 0 202 -334 72 -147 -107 0 -167 3820 4423 6 MP stroke
1 sg
0 633 -290 -179 9 -313 1939 1701 4 MP
PP
0 sg
281 -141 0 633 -290 -179 9 -313 1939 1701 5 MP stroke
1 sg
-209 -203 92 -357 35 -25 406 291 -54 195 3072 1118 6 MP
PP
0 sg
-270 99 -209 -203 92 -357 35 -25 406 291 -54 195 3072 1118 7 MP stroke
1 sg
273 -103 220 155 -9 313 -281 155 -58 -14 -179 -412 2466 1659 7 MP
PP
0 sg
34 -94 273 -103 220 155 -9 313 -281 155 -58 -14 -179 -412 2466 1659 8 MP stroke
1 sg
-203 -203 109 -307 147 -66 229 133 -9 340 2159 1856 6 MP
PP
0 sg
-273 103 -203 -203 109 -307 147 -66 229 133 -9 340 2159 1856 7 MP stroke
1 sg
-3 -11 149 -474 416 279 3 10 -62 200 -35 25 3459 1579 7 MP
PP
0 sg
-468 -29 -3 -11 149 -474 416 279 3 10 -62 200 -35 25 3459 1579 8 MP stroke
1 sg
-3 -10 137 -439 222 0 144 322 -86 120 2948 1811 6 MP
PP
0 sg
-414 7 -3 -10 137 -439 222 0 144 322 -86 120 2948 1811 7 MP stroke
1 sg
0 103 -563 0 110 -239 176 -48 2656 868 5 MP
PP
0 sg
277 184 0 103 -563 0 110 -239 176 -48 2656 868 6 MP stroke
1 sg
-406 -291 62 -200 414 -7 109 343 -16 44 2855 1424 6 MP
PP
0 sg
-163 111 -406 -291 62 -200 414 -7 109 343 -16 44 2855 1424 7 MP stroke
1 sg
-144 -322 148 -147 332 137 -109 307 2635 1956 5 MP
PP
0 sg
-227 25 -144 -322 148 -147 332 137 -109 307 2635 1956 6 MP stroke
1 sg
-112 -112 2 -342 174 -89 305 223 1 173 -148 147 3006 2253 7 MP
PP
0 sg
-222 0 -112 -112 2 -342 174 -89 305 223 1 173 -148 147 3006 2253 8 MP stroke
1 sg
203 203 -34 94 -373 191 -109 -343 86 -120 2862 1931 6 MP
PP
0 sg
227 -25 203 203 -34 94 -373 191 -109 -343 86 -120 2862 1931 7 MP stroke
1 sg
-79 -196 214 -328 121 -22 210 389 -66 154 2675 3027 6 MP
PP
0 sg
-400 3 -79 -196 214 -328 121 -22 210 389 -66 154 2675 3027 7 MP stroke
1 sg
-289 218 -305 -223 89 -228 400 -3 2675 3027 5 MP
PP
0 sg
105 236 -289 218 -305 -223 89 -228 400 -3 2675 3027 6 MP stroke
1 sg
-240 -298 54 -195 163 -111 341 262 -142 294 2656 868 6 MP
PP
0 sg
-176 48 -240 -298 54 -195 163 -111 341 262 -142 294 2656 868 7 MP stroke
1 sg
290 179 0 296 -240 149 -226 -86 -105 -383 2229 1233 6 MP
PP
0 sg
281 -155 290 179 0 296 -240 149 -226 -86 -105 -383 2229 1233 7 MP stroke
1 sg
-341 -262 16 -44 373 -191 179 412 2287 1247 5 MP
PP
0 sg
-227 85 -341 -262 16 -44 373 -191 179 412 2287 1247 6 MP stroke
1 sg
226 86 0 183 -481 0 0 -103 2379 684 5 MP
PP
0 sg
255 -166 226 86 0 183 -481 0 0 -103 2379 684 6 MP stroke
1 sg
-277 -184 142 -294 227 -85 58 14 105 383 2124 850 6 MP
PP
0 sg
-255 166 -277 -184 142 -294 227 -85 58 14 105 383 2124 850 7 MP stroke
1 sg
20 -23 433 -121 112 112 -137 439 -416 -279 -23 -59 3804 2152 7 MP
PP
0 sg
11 -69 20 -23 433 -121 112 112 -137 439 -416 -279 -23 -59 3804 2152 8 MP stroke
1 sg
164 30 171 430 -289 158 -282 -170 0 -305 5501 2174 6 MP
PP
0 sg
236 -143 164 30 171 430 -289 158 -282 -170 0 -305 5501 2174 7 MP stroke
1 sg
-126 -218 79 -220 270 -99 240 298 -110 239 2942 581 6 MP
PP
0 sg
-353 0 -126 -218 79 -220 270 -99 240 298 -110 239 2942 581 7 MP stroke
1 sg
-208 -239 101 -220 468 29 -92 357 3551 1222 5 MP
PP
0 sg
-269 73 -208 -239 101 -220 468 29 -92 357 3551 1222 6 MP stroke
1 sg
0 244 -566 0 170 -285 354 2 4342 864 5 MP
PP
0 sg
42 39 0 244 -566 0 170 -285 354 2 4342 864 6 MP stroke
1 sg
-269 -134 32 -348 266 -104 211 106 0 360 1658 2802 6 MP
PP
0 sg
-240 120 -269 -134 32 -348 266 -104 211 106 0 360 1658 2802 7 MP stroke
1 sg
329 -91 145 108 -32 348 -212 105 -191 -80 -105 -236 2675 3027 7 MP
PP
0 sg
66 -154 329 -91 145 108 -32 348 -212 105 -191 -80 -105 -236 2675 3027 8 MP stroke
1 sg
0 196 -372 111 -108 -72 0 -235 2859 4423 5 MP
PP
0 sg
480 0 0 196 -372 111 -108 -72 0 -235 2859 4423 6 MP stroke
1 sg
-329 91 -210 -389 115 -120 388 27 2316 3663 5 MP
PP
0 sg
36 391 -329 91 -210 -389 115 -120 388 27 2316 3663 6 MP stroke
1 sg
298 127 4 387 -266 104 -145 -108 -36 -391 2316 3663 6 MP
PP
0 sg
145 -119 298 127 4 387 -266 104 -145 -108 -36 -391 2316 3663 7 MP stroke
1 sg
240 109 0 382 -215 97 -298 -127 -6 -308 2177 4090 6 MP
PP
0 sg
279 -153 240 109 0 382 -215 97 -298 -127 -6 -308 2177 4090 7 MP stroke
1 sg
108 72 47 426 -115 120 -121 22 -306 -223 44 -344 3202 4115 7 MP
PP
0 sg
343 -73 108 72 47 426 -115 120 -121 22 -306 -223 44 -344 3202 4115 8 MP stroke
1 sg
0 180 -279 153 -202 -137 0 -196 2379 4423 5 MP
PP
0 sg
481 0 0 180 -279 153 -202 -137 0 -196 2379 4423 6 MP stroke
1 sg
-47 -426 372 -111 202 137 6 308 -145 119 2316 3663 6 MP
PP
0 sg
-388 -27 -47 -426 372 -111 202 137 6 308 -145 119 2316 3663 7 MP stroke
1 sg
0 235 -343 73 -137 -106 0 -202 3339 4423 5 MP
PP
0 sg
480 0 0 235 -343 73 -137 -106 0 -202 3339 4423 6 MP stroke
1 sg
-207 -408 102 -134 228 -56 165 87 62 337 -148 155 3633 3138 7 MP
PP
0 sg
-202 19 -207 -408 102 -134 228 -56 165 87 62 337 -148 155 3633 3138 8 MP stroke
1 sg
-184 -386 148 -155 331 73 79 196 -89 228 -174 89 3338 2707 7 MP
PP
0 sg
-111 -45 -184 -386 148 -155 331 73 79 196 -89 228 -174 89 3338 2707 8 MP stroke
1 sg
-62 -337 301 -141 306 223 -214 328 3154 3220 5 MP
PP
0 sg
-331 -73 -62 -337 301 -141 306 223 -214 328 3154 3220 6 MP stroke
1 sg
137 106 -44 344 -301 141 -165 -87 39 -432 3673 4149 6 MP
PP
0 sg
334 -72 137 106 -44 344 -301 141 -165 -87 39 -432 3673 4149 7 MP stroke
1 sg
0 167 -233 80 -247 -222 0 -25 4300 4423 5 MP
PP
0 sg
480 0 0 167 -233 80 -247 -222 0 -25 4300 4423 6 MP stroke
1 sg
-88 -233 514 0 0 25 -264 238 4564 4160 5 MP
PP
0 sg
-162 -30 -88 -233 514 0 0 25 -264 238 4564 4160 6 MP stroke
1 sg
0 -568 159 0 77 425 5265 2317 4 MP
PP
0 sg
-236 143 0 -568 159 0 77 425 5265 2317 5 MP stroke
1 sg
-256 39 -165 -219 264 -238 247 222 4053 4176 5 MP
PP
0 sg
-90 196 -256 39 -165 -219 264 -238 247 222 4053 4176 6 MP stroke
1 sg
147 107 -39 432 -228 56 -203 -319 90 -196 4053 4176 6 MP
PP
0 sg
233 -80 147 107 -39 432 -228 56 -203 -319 90 -196 4053 4176 7 MP stroke
1 sg
60 67 0 188 -480 0 0 -244 4300 825 5 MP
PP
0 sg
420 -11 60 67 0 188 -480 0 0 -244 4300 825 6 MP stroke
1 sg
-125 -180 137 -319 438 289 -11 69 3804 2152 5 MP
PP
0 sg
-439 141 -125 -180 137 -319 438 289 -11 69 3804 2152 6 MP stroke
1 sg
-60 -67 60 -313 269 -73 209 203 -79 220 3421 799 6 MP
PP
0 sg
-399 30 -60 -67 60 -313 269 -73 209 203 -79 220 3421 799 7 MP stroke
1 sg
0 -480 150 0 113 112 8 199 -154 169 5384 3223 6 MP
PP
0 sg
-117 0 0 -480 150 0 113 112 8 199 -154 169 5384 3223 7 MP stroke
1 sg
336 251 3 11 -101 220 -247 70 -59 -38 -120 -376 4454 1732 7 MP
PP
0 sg
188 -138 336 251 3 11 -101 220 -247 70 -59 -38 -120 -376 4454 1732 8 MP stroke
1 sg
-41 -71 42 -380 361 -39 59 38 -67 454 4342 864 6 MP
PP
0 sg
-354 -2 -41 -71 42 -380 361 -39 59 38 -67 454 4342 864 7 MP stroke
1 sg
-42 -39 67 -454 247 -70 208 239 -60 313 3880 836 6 MP
PP
0 sg
-420 11 -42 -39 67 -454 247 -70 208 239 -60 313 3880 836 7 MP stroke
1 sg
-46 -47 187 -345 238 -11 125 180 -23 141 -188 138 4454 1732 7 MP
PP
0 sg
-293 -56 -46 -47 187 -345 238 -11 125 180 -23 141 -188 138 4454 1732 8 MP stroke
1 sg
-170 -397 83 -81 488 2 37 221 -381 265 4785 2449 6 MP
PP
0 sg
-57 -10 -170 -397 83 -81 488 2 37 221 -381 265 4785 2449 7 MP stroke
1 sg
-171 -430 259 -172 57 10 179 269 -187 345 4793 1835 6 MP
PP
0 sg
-137 -22 -171 -430 259 -172 57 10 179 269 -187 345 4793 1835 7 MP stroke
1 sg
-179 -269 381 -265 160 148 13 56 -137 319 4368 2191 6 MP
PP
0 sg
-238 11 -179 -269 381 -265 160 148 13 56 -137 319 4368 2191 7 MP stroke
1 sg
492 -18 14 299 -349 174 -160 -148 -37 -221 4441 2935 6 MP
PP
0 sg
40 -86 492 -18 14 299 -349 174 -160 -148 -37 -221 4441 2935 7 MP stroke
1 sg
23 59 -149 474 -336 -251 23 -141 4243 2011 5 MP
PP
0 sg
439 -141 23 59 -149 474 -336 -251 23 -141 4243 2011 6 MP stroke
1 sg
137 22 46 47 -20 403 -258 44 -196 -243 2 -115 5219 1699 7 MP
PP
0 sg
289 -158 137 22 46 47 -20 403 -258 44 -196 -243 2 -115 5219 1699 8 MP stroke
1 sg
202 -19 184 386 -299 109 -147 -97 -14 -299 3909 3039 6 MP
PP
0 sg
74 -80 202 -19 184 386 -299 109 -147 -97 -14 -299 3909 3039 7 MP stroke
1 sg
0 -568 282 170 -2 115 -250 283 5471 1301 5 MP
PP
0 sg
-30 0 0 -568 282 170 -2 115 -250 283 5471 1301 6 MP stroke
1 sg
-144 -240 86 -211 126 -61 370 156 41 71 -170 285 4866 581 7 MP
PP
0 sg
-309 0 -144 -240 86 -211 126 -61 370 156 41 71 -170 285 4866 581 8 MP stroke
1 sg
-77 -425 108 -103 222 -11 170 397 -259 172 5101 2287 6 MP
PP
0 sg
-164 -30 -77 -425 108 -103 222 -11 170 397 -259 172 5101 2287 7 MP stroke
1 sg
0 -481 117 0 150 378 -108 103 5342 2742 5 MP
PP
0 sg
-159 0 0 -481 117 0 150 378 -108 103 5342 2742 6 MP stroke
1 sg
147 97 -25 399 -20 23 -438 -289 -13 -56 4244 2566 6 MP
PP
0 sg
349 -174 147 97 -25 399 -20 23 -438 -289 -13 -56 4244 2566 7 MP stroke
1 sg
327 183 -243 412 -296 -327 24 -191 4681 3602 5 MP
PP
0 sg
188 -77 327 183 -243 412 -296 -327 24 -191 4681 3602 6 MP stroke
1 sg
203 319 -102 134 -124 31 -327 -183 94 -262 4399 3941 6 MP
PP
0 sg
256 -39 203 319 -102 134 -124 31 -327 -183 94 -262 4399 3941 7 MP stroke
1 sg
162 30 165 219 -94 262 -188 77 -178 -140 -27 -264 4886 4006 7 MP
PP
0 sg
160 -184 162 30 165 219 -94 262 -188 77 -178 -140 -27 -264 4886 4006 8 MP stroke
1 sg
0 -480 30 0 238 269 -86 211 5319 821 5 MP
PP
0 sg
-182 0 0 -480 30 0 238 269 -86 211 5319 821 6 MP stroke
1 sg
72 68 -42 380 -370 -156 82 -248 5025 1341 5 MP
PP
0 sg
258 -44 72 68 -42 380 -370 -156 82 -248 5025 1341 6 MP stroke
1 sg
120 376 -361 39 -72 -68 20 -403 4747 1788 5 MP
PP
0 sg
293 56 120 376 -361 39 -72 -68 20 -403 4747 1788 6 MP stroke
1 sg
-126 61 -238 -269 250 -283 196 243 5025 1341 5 MP
PP
0 sg
-82 248 -126 61 -238 -269 250 -283 196 243 5025 1341 6 MP stroke
1 sg
-55 -87 90 -240 413 0 88 233 -160 184 4886 4006 6 MP
PP
0 sg
-376 -90 -55 -87 90 -240 413 0 88 233 -160 184 4886 4006 7 MP stroke
1 sg
-8 -199 379 -151 178 140 -24 191 -236 155 4941 3256 6 MP
PP
0 sg
-289 -136 -8 -199 379 -151 178 140 -24 191 -236 155 4941 3256 7 MP stroke
1 sg
0 -480 184 0 55 87 -89 393 5351 3703 5 MP
PP
0 sg
-150 0 0 -480 184 0 55 87 -89 393 5351 3703 6 MP stroke
1 sg
-12 -319 236 -155 296 327 8 63 -40 86 4441 2935 6 MP
PP
0 sg
-488 -2 -12 -319 236 -155 296 327 8 63 -40 86 4441 2935 7 MP stroke
1 sg
-150 -378 154 -169 289 136 12 319 -83 81 5012 2856 6 MP
PP
0 sg
-222 11 -150 -378 154 -169 289 136 12 319 -83 81 5012 2856 7 MP stroke
1 sg
27 264 -379 151 -113 -112 89 -393 5262 4096 5 MP
PP
0 sg
376 90 27 264 -379 151 -113 -112 89 -393 5262 4096 6 MP stroke
1 sg
-8 -63 243 -412 124 -31 207 408 -74 80 3909 3039 6 MP
PP
0 sg
-492 18 -8 -63 243 -412 124 -31 207 408 -74 80 3909 3039 7 MP stroke
gr

0 sg
%%IncludeResource: font Helvetica
/Helvetica /WindowsLatin1Encoding 120 FMSR

3258  123 mt 
(88 polygons) s
3010  239 mt 
(h) s
%%IncludeResource: font Helvetica
/Helvetica /WindowsLatin1Encoding 96 FMSR

3076  299 mt 
(mean) s
%%IncludeResource: font Helvetica
/Helvetica /WindowsLatin1Encoding 120 FMSR

3316  239 mt 
(=1.492912e-01) s

end %%Color Dict

eplot
%%EndObject

epage
end

showpage

%%Trailer
%%EOF
