%!PS-Adobe-2.0 EPSF-1.2
%%Creator: MATLAB, The MathWorks, Inc. Version 8.0.0.783 (R2012b). Operating System: Microsoft Windows 7.
%%Title: ..\meshes\poligoni-triangle\triangle0.01-solution.eps
%%CreationDate: 02/26/2013  01:21:17
%%DocumentNeededFonts: Helvetica
%%DocumentProcessColors: Cyan Magenta Yellow Black
%%Pages: 1
%%BoundingBox:    70   211   557   583
%%EndComments

%%BeginProlog
% MathWorks dictionary
/MathWorks 160 dict begin
% definition operators
/bdef {bind def} bind def
/ldef {load def} bind def
/xdef {exch def} bdef
/xstore {exch store} bdef
% operator abbreviations
/c  /clip ldef
/cc /concat ldef
/cp /closepath ldef
/gr /grestore ldef
/gs /gsave ldef
/mt /moveto ldef
/np /newpath ldef
/cm /currentmatrix ldef
/sm /setmatrix ldef
/rm /rmoveto ldef
/rl /rlineto ldef
/s {show newpath} bdef
/sc {setcmykcolor} bdef
/sr /setrgbcolor ldef
/sg /setgray ldef
/w /setlinewidth ldef
/j /setlinejoin ldef
/cap /setlinecap ldef
/rc {rectclip} bdef
/rf {rectfill} bdef
% page state control
/pgsv () def
/bpage {/pgsv save def} bdef
/epage {pgsv restore} bdef
/bplot /gsave ldef
/eplot {stroke grestore} bdef
% orientation switch
/portraitMode 0 def /landscapeMode 1 def /rotateMode 2 def
% coordinate system mappings
/dpi2point 0 def
% font control
/FontSize 0 def
/FMS {/FontSize xstore findfont [FontSize 0 0 FontSize neg 0 0]
  makefont setfont} bdef
/ISOLatin1Encoding where {pop /WindowsLatin1Encoding 256 array bdef
ISOLatin1Encoding WindowsLatin1Encoding copy pop
/.notdef/.notdef/quotesinglbase/florin/quotedblbase/ellipsis/dagger
/daggerdbl/circumflex/perthousand/Scaron/guilsinglleft/OE/.notdef/.notdef
/.notdef/.notdef/quoteleft/quoteright/quotedblleft/quotedblright/bullet
/endash/emdash/tilde/trademark/scaron/guilsinglright/oe/.notdef/.notdef
/Ydieresis WindowsLatin1Encoding 128 32 getinterval astore pop}
{/WindowsLatin1Encoding StandardEncoding bdef} ifelse
/reencode {exch dup where {pop load} {pop StandardEncoding} ifelse
  exch dup 3 1 roll findfont dup length dict begin
  { 1 index /FID ne {def}{pop pop} ifelse } forall
  /Encoding exch def currentdict end definefont pop} bdef
/isroman {findfont /CharStrings get /Agrave known} bdef
/FMSR {3 1 roll 1 index dup isroman {reencode} {pop pop} ifelse
  exch FMS} bdef
/csm {1 dpi2point div -1 dpi2point div scale neg translate
 dup landscapeMode eq {pop -90 rotate}
  {rotateMode eq {90 rotate} if} ifelse} bdef
% line types: solid, dotted, dashed, dotdash
/SO { [] 0 setdash } bdef
/DO { [.5 dpi2point mul 4 dpi2point mul] 0 setdash } bdef
/DA { [6 dpi2point mul] 0 setdash } bdef
/DD { [.5 dpi2point mul 4 dpi2point mul 6 dpi2point mul 4
  dpi2point mul] 0 setdash } bdef
% macros for lines and objects
/L {lineto stroke} bdef
/MP {3 1 roll moveto 1 sub {rlineto} repeat} bdef
/AP {{rlineto} repeat} bdef
/PDlw -1 def
/W {/PDlw currentlinewidth def setlinewidth} def
/PP {closepath eofill} bdef
/DP {closepath stroke} bdef
/MR {4 -2 roll moveto dup  0 exch rlineto exch 0 rlineto
  neg 0 exch rlineto closepath} bdef
/FR {MR stroke} bdef
/PR {MR fill} bdef
/L1i {{currentfile picstr readhexstring pop} image} bdef
/tMatrix matrix def
/MakeOval {newpath tMatrix currentmatrix pop translate scale
0 0 1 0 360 arc tMatrix setmatrix} bdef
/FO {MakeOval stroke} bdef
/PO {MakeOval fill} bdef
/PD {currentlinewidth 2 div 0 360 arc fill
   PDlw -1 eq not {PDlw w /PDlw -1 def} if} def
/FA {newpath tMatrix currentmatrix pop translate scale
  0 0 1 5 -2 roll arc tMatrix setmatrix stroke} bdef
/PA {newpath tMatrix currentmatrix pop	translate 0 0 moveto scale
  0 0 1 5 -2 roll arc closepath tMatrix setmatrix fill} bdef
/FAn {newpath tMatrix currentmatrix pop translate scale
  0 0 1 5 -2 roll arcn tMatrix setmatrix stroke} bdef
/PAn {newpath tMatrix currentmatrix pop translate 0 0 moveto scale
  0 0 1 5 -2 roll arcn closepath tMatrix setmatrix fill} bdef
/vradius 0 def /hradius 0 def /lry 0 def
/lrx 0 def /uly 0 def /ulx 0 def /rad 0 def
/MRR {/vradius xdef /hradius xdef /lry xdef /lrx xdef /uly xdef
  /ulx xdef newpath tMatrix currentmatrix pop ulx hradius add uly
  vradius add translate hradius vradius scale 0 0 1 180 270 arc 
  tMatrix setmatrix lrx hradius sub uly vradius add translate
  hradius vradius scale 0 0 1 270 360 arc tMatrix setmatrix
  lrx hradius sub lry vradius sub translate hradius vradius scale
  0 0 1 0 90 arc tMatrix setmatrix ulx hradius add lry vradius sub
  translate hradius vradius scale 0 0 1 90 180 arc tMatrix setmatrix
  closepath} bdef
/FRR {MRR stroke } bdef
/PRR {MRR fill } bdef
/MlrRR {/lry xdef /lrx xdef /uly xdef /ulx xdef /rad lry uly sub 2 div def
  newpath tMatrix currentmatrix pop ulx rad add uly rad add translate
  rad rad scale 0 0 1 90 270 arc tMatrix setmatrix lrx rad sub lry rad
  sub translate rad rad scale 0 0 1 270 90 arc tMatrix setmatrix
  closepath} bdef
/FlrRR {MlrRR stroke } bdef
/PlrRR {MlrRR fill } bdef
/MtbRR {/lry xdef /lrx xdef /uly xdef /ulx xdef /rad lrx ulx sub 2 div def
  newpath tMatrix currentmatrix pop ulx rad add uly rad add translate
  rad rad scale 0 0 1 180 360 arc tMatrix setmatrix lrx rad sub lry rad
  sub translate rad rad scale 0 0 1 0 180 arc tMatrix setmatrix
  closepath} bdef
/FtbRR {MtbRR stroke } bdef
/PtbRR {MtbRR fill } bdef
/stri 6 array def /dtri 6 array def
/smat 6 array def /dmat 6 array def
/tmat1 6 array def /tmat2 6 array def /dif 3 array def
/asub {/ind2 exch def /ind1 exch def dup dup
  ind1 get exch ind2 get sub exch } bdef
/tri_to_matrix {
  2 0 asub 3 1 asub 4 0 asub 5 1 asub
  dup 0 get exch 1 get 7 -1 roll astore } bdef
/compute_transform {
  dmat dtri tri_to_matrix tmat1 invertmatrix 
  smat stri tri_to_matrix tmat2 concatmatrix } bdef
/ds {stri astore pop} bdef
/dt {dtri astore pop} bdef
/db {2 copy /cols xdef /rows xdef mul dup string
  currentfile exch readhexstring pop
  /bmap xdef pop pop} bdef
/it {gs np dtri aload pop moveto lineto lineto cp c
  cols rows 8 compute_transform 
  {bmap} image gr}bdef
/il {newpath moveto lineto stroke}bdef
currentdict end def
%%EndProlog

%%BeginSetup
MathWorks begin

0 cap

end
%%EndSetup

%%Page: 1 1
%%BeginPageSetup
%%PageBoundingBox:    70   211   557   583
MathWorks begin
bpage
%%EndPageSetup

%%BeginObject: obj1
bplot

/dpi2point 12 def
portraitMode 0216 7344 csm

  630   341  5848  4461 MR c np
85 dict begin %Colortable dictionary
/c0 { 0.000000 0.000000 0.000000 sr} bdef
/c1 { 1.000000 1.000000 1.000000 sr} bdef
/c2 { 0.900000 0.000000 0.000000 sr} bdef
/c3 { 0.000000 0.820000 0.000000 sr} bdef
/c4 { 0.000000 0.000000 0.800000 sr} bdef
/c5 { 0.910000 0.820000 0.320000 sr} bdef
/c6 { 1.000000 0.260000 0.820000 sr} bdef
/c7 { 0.000000 0.820000 0.820000 sr} bdef
c0
1 j
1 sg
   0    0 6919 5187 PR
6 w
0 2335 -2328 -1069 0 -2336 6260 3794 4 MP
PP
2328 1070 0 2335 -2328 -1069 0 -2336 6260 3794 5 MP stroke
2328 1070 3034 -822 -2329 -1070 3227 4616 4 MP
PP
-3033 822 2328 1070 3034 -822 -2329 -1070 3227 4616 5 MP stroke
0 2335 3034 -821 0 -2336 898 3546 4 MP
PP
-3034 822 0 2335 3034 -821 0 -2336 898 3546 5 MP stroke
4 w
DO
SO
6 w
0 sg
3227 4616 mt 6260 3794 L
3227 4616 mt  898 3546 L
 898 3546 mt  898 1210 L
3227 4616 mt 3298 4648 L
%%IncludeResource: font Helvetica
/Helvetica /WindowsLatin1Encoding 120 FMSR

3329 4774 mt 
(0) s
3833 4451 mt 3905 4484 L
3936 4610 mt 
(0.2) s
4440 4287 mt 4511 4320 L
4543 4445 mt 
(0.4) s
5047 4123 mt 5118 4156 L
5150 4281 mt 
(0.6) s
5654 3959 mt 5725 3991 L
5756 4117 mt 
(0.8) s
6260 3794 mt 6332 3827 L
6363 3953 mt 
(1) s
3227 4616 mt 3151 4636 L
3051 4756 mt 
(0) s
2761 4402 mt 2685 4422 L
2486 4542 mt 
(0.2) s
2295 4188 mt 2219 4208 L
2020 4328 mt 
(0.4) s
1830 3974 mt 1754 3994 L
1554 4114 mt 
(0.6) s
1364 3760 mt 1288 3780 L
1089 3900 mt 
(0.8) s
 898 3546 mt  823 3566 L
 723 3686 mt 
(1) s
 898 3546 mt  827 3513 L
 630 3542 mt 
(0.1) s
 898 3286 mt  827 3253 L
 630 3283 mt 
(0.2) s
 898 3026 mt  827 2994 L
 630 3023 mt 
(0.3) s
 898 2767 mt  827 2734 L
 630 2764 mt 
(0.4) s
 898 2507 mt  827 2475 L
 630 2504 mt 
(0.5) s
 898 2248 mt  827 2215 L
 630 2245 mt 
(0.6) s
 898 1988 mt  827 1955 L
 630 1985 mt 
(0.7) s
 898 1729 mt  827 1696 L
 630 1725 mt 
(0.8) s
 898 1469 mt  827 1436 L
 630 1466 mt 
(0.9) s
 898 1210 mt  827 1177 L
 730 1206 mt 
(1) s
gs 898 389 5363 4228 MR c np
1 sg
-73 -68 -73 -95 -72 -98 108 109 108 100 37 59 37 57 5970 2245 
8 MP
PP
0 sg
-72 -64 -73 -68 -73 -95 -72 -98 108 109 108 100 37 59 37 57 
5970 2245 9 MP stroke
1 sg
-59 -47 -145 -164 -146 -178 73 68 72 64 48 50 48 48 84 104 
84 99 5706 1944 10 MP
PP
0 sg
-59 -44 -59 -47 -145 -164 -146 -178 73 68 72 64 48 50 48 48 
84 104 84 99 5706 1944 11 MP stroke
1 sg
-176 -140 -48 -48 -48 -50 -37 -57 -37 -59 163 134 163 111 105 96 
106 89 -8 22 -7 20 5522 1889 12 MP
PP
0 sg
-176 -118 -176 -140 -48 -48 -48 -50 -37 -57 -37 -59 163 134 163 111 
105 96 106 89 -8 22 -7 20 5522 1889 13 MP stroke
1 sg
176 118 90 79 91 75 -104 -35 -104 -47 -78 -62 -79 -65 -84 -99 
-84 -104 5874 2147 10 MP
PP
0 sg
176 140 176 118 90 79 91 75 -104 -35 -104 -47 -78 -62 -79 -65 
-84 -99 -84 -104 5874 2147 11 MP stroke
1 sg
-46 -29 -145 -140 -146 -152 59 47 59 44 79 65 78 62 64 58 
64 55 -10 10 -10 8 5441 1686 12 MP
PP
0 sg
-46 -28 -46 -29 -145 -140 -146 -152 59 47 59 44 79 65 78 62 
64 58 64 55 -10 10 -10 8 5441 1686 13 MP stroke
1 sg
-73 -37 -106 -89 -105 -96 203 106 203 65 7 7 8 7 -32 39 
-33 31 5362 1861 10 MP
PP
0 sg
-72 -33 -73 -37 -106 -89 -105 -96 203 106 203 65 7 7 8 7 
-32 39 -33 31 5362 1861 11 MP stroke
1 sg
-155 -93 -64 -55 -64 -58 104 47 104 35 113 64 112 55 49 39 
48 37 -46 6 -46 1 5111 1533 12 MP
PP
0 sg
-155 -78 -155 -93 -64 -55 -64 -58 104 47 104 35 113 64 112 55 
49 39 48 37 -46 6 -46 1 5111 1533 13 MP stroke
1 sg
-63 -29 -145 -120 -146 -129 46 29 46 28 174 127 173 112 -11 4 
-11 5 5116 1438 10 MP
PP
0 sg
-63 -27 -63 -29 -145 -120 -146 -129 46 29 46 28 174 127 173 112 
-11 4 -11 5 5116 1438 11 MP stroke
1 sg
8 -22 73 37 72 33 132 78 132 67 42 52 42 50 -51 1 
-51 -3 -112 -55 -113 -64 -91 -75 -90 -79 5522 1889 14 MP
PP
0 sg
7 -20 8 -22 73 37 72 33 132 78 132 67 42 52 42 50 
-51 1 -51 -3 -112 -55 -113 -64 -91 -75 -90 -79 5522 1889 15 MP stroke
1 sg
-85 -30 -173 -112 -174 -127 10 -8 10 -10 155 93 155 78 101 67 
101 62 -8 6 -8 6 4925 1392 12 MP
PP
0 sg
-84 -25 -85 -30 -173 -112 -174 -127 10 -8 10 -10 155 93 155 78 
101 67 101 62 -8 6 -8 6 4925 1392 13 MP stroke
1 sg
25 42 -90 6 -89 -4 -132 -67 -132 -78 33 -31 32 -39 165 72 
164 54 4968 1805 10 MP
PP
0 sg
24 45 25 42 -90 6 -89 -4 -132 -67 -132 -78 33 -31 32 -39 
165 72 164 54 4968 1805 11 MP stroke
1 sg
190 -15 50 37 51 36 -68 34 -68 25 -164 -54 -165 -72 -8 -7 
-7 -7 5312 1945 10 MP
PP
0 sg
189 23 190 -15 50 37 51 36 -68 34 -68 25 -164 -54 -165 -72 
-8 -7 -7 -7 5312 1945 11 MP stroke
1 sg
-50 1 -172 -116 -172 -129 63 29 63 27 159 99 159 87 4798 1252 
8 MP
PP
0 sg
-50 2 -50 1 -172 -116 -172 -129 63 29 63 27 159 99 159 87 
4798 1252 9 MP stroke
1 sg
-74 -19 -159 -87 -159 -99 11 -5 11 -4 85 30 84 25 187 84 
188 66 -50 13 -50 12 4650 1217 12 MP
PP
0 sg
-74 -16 -74 -19 -159 -87 -159 -99 11 -5 11 -4 85 30 84 25 
187 84 188 66 -50 13 -50 12 4650 1217 13 MP stroke
1 sg
51 -1 185 49 184 27 29 72 29 65 -216 -56 -216 -83 -48 -37 
-49 -39 5116 1616 10 MP
PP
0 sg
51 3 51 -1 185 49 184 27 29 72 29 65 -216 -56 -216 -83 
-48 -37 -49 -39 5116 1616 11 MP stroke
1 sg
-194 -37 -101 -62 -101 -67 46 -1 46 -6 216 83 216 56 22 9 
23 8 10 13 10 12 4522 1359 12 MP
PP
0 sg
-193 -8 -194 -37 -101 -62 -101 -67 46 -1 46 -6 216 83 216 56 
22 9 23 8 10 13 10 12 4522 1359 13 MP stroke
1 sg
90 -6 176 57 177 39 0 31 0 29 -39 13 -40 11 -184 -27 
-185 -49 -42 -50 -42 -52 5098 1716 12 MP
PP
0 sg
89 4 90 -6 176 57 177 39 0 31 0 29 -39 13 -40 11 
-184 -27 -185 -49 -42 -50 -42 -52 5098 1716 13 MP stroke
1 sg
68 -34 90 8 90 1 116 82 115 74 -72 42 -73 35 -177 -39 
-176 -57 -25 -42 -24 -45 4968 1805 12 MP
PP
0 sg
68 -25 68 -34 90 8 90 1 116 82 115 74 -72 42 -73 35 
-177 -39 -176 -57 -25 -42 -24 -45 4968 1805 13 MP stroke
1 sg
190 -93 61 38 62 35 -110 86 -111 70 -90 -1 -90 -8 -51 -36 
-50 -37 4933 1937 10 MP
PP
0 sg
189 -54 190 -93 61 38 62 35 -110 86 -111 70 -90 -1 -90 -8 
-51 -36 -50 -37 4933 1937 11 MP stroke
1 sg
-25 -2 -188 -66 -187 -84 8 -6 8 -6 194 37 193 8 82 26 
82 24 -71 41 -70 31 4499 1237 12 MP
PP
0 sg
-26 -3 -25 -2 -188 -66 -187 -84 8 -6 8 -6 194 37 193 8 
82 26 82 24 -71 41 -70 31 4499 1237 13 MP stroke
1 sg
50 -2 74 19 74 16 197 65 198 47 -67 21 -66 20 -162 -29 
-163 -42 -92 -55 -93 -59 4898 1249 12 MP
PP
0 sg
50 -1 50 -2 74 19 74 16 197 65 198 47 -67 21 -66 20 
-162 -29 -163 -42 -92 -55 -93 -59 4898 1249 13 MP stroke
1 sg
-12 0 -172 -86 -172 -95 163 42 162 29 34 14 35 14 -14 38 
-13 43 4346 955 10 MP
PP
0 sg
-11 1 -12 0 -172 -86 -172 -95 163 42 162 29 34 14 35 14 
-14 38 -13 43 4346 955 11 MP stroke
1 sg
110 -86 86 -18 86 -23 87 62 87 57 -76 104 -76 90 -92 23 
-92 17 -115 -74 -116 -82 4652 1855 12 MP
PP
0 sg
111 -70 110 -86 86 -18 86 -23 87 62 87 57 -76 104 -76 90 
-92 23 -92 17 -115 -74 -116 -82 4652 1855 13 MP stroke
1 sg
-61 3 -198 -47 -197 -65 50 -12 50 -13 25 2 26 3 152 30 
152 19 31 39 31 37 4133 1112 12 MP
PP
0 sg
-61 4 -61 3 -198 -47 -197 -65 50 -12 50 -13 25 2 26 3 
152 30 152 19 31 39 31 37 4133 1112 13 MP stroke
1 sg
-188 28 -23 -8 -22 -9 -29 -65 -29 -72 40 -11 39 -13 205 35 
206 16 -5 20 -5 19 4165 1472 12 MP
PP
0 sg
-189 60 -188 28 -23 -8 -22 -9 -29 -65 -29 -72 40 -11 39 -13 
205 35 206 16 -5 20 -5 19 4165 1472 13 MP stroke
1 sg
-74 39 -206 -16 -205 -35 0 -29 0 -31 73 -35 72 -42 92 -17 
92 -23 126 26 126 18 -11 52 -11 48 4007 1595 14 MP
PP
0 sg
-74 45 -74 39 -206 -16 -205 -35 0 -29 0 -31 73 -35 72 -42 
92 -17 92 -23 126 26 126 18 -11 52 -11 48 4007 1595 15 MP stroke
1 sg
189 -167 72 35 71 33 -113 139 -114 122 -86 23 -86 18 -62 -35 
-61 -38 4554 2084 10 MP
PP
0 sg
190 -130 189 -167 72 35 71 33 -113 139 -114 122 -86 23 -86 18 
-62 -35 -61 -38 4554 2084 11 MP stroke
1 sg
-10 -13 188 -28 189 -60 96 24 96 21 -85 67 -85 56 -108 0 
-107 -5 -82 -24 -82 -26 4522 1359 12 MP
PP
0 sg
-10 -12 -10 -13 188 -28 189 -60 96 24 96 21 -85 67 -85 56 
-108 0 -107 -5 -82 -24 -82 -26 4522 1359 13 MP stroke
1 sg
-91 16 -152 -19 -152 -30 70 -31 71 -41 107 5 108 0 22 3 
22 3 43 37 42 35 4014 1226 12 MP
PP
0 sg
-90 22 -91 16 -152 -19 -152 -30 70 -31 71 -41 107 5 108 0 
22 3 22 3 43 37 42 35 4014 1226 13 MP stroke
1 sg
67 -21 61 -3 61 -4 32 1 33 1 113 28 114 24 -88 28 
-89 25 -151 -10 -150 -21 -35 -14 -34 -14 4388 1064 14 MP
PP
0 sg
66 -20 67 -21 61 -3 61 -4 32 1 33 1 113 28 114 24 
-88 28 -89 25 -151 -10 -150 -21 -35 -14 -34 -14 4388 1064 15 MP stroke
1 sg
-72 18 -145 -61 -146 -67 12 0 11 -1 176 25 175 11 31 27 
30 29 3934 863 10 MP
PP
0 sg
-72 19 -72 18 -145 -61 -146 -67 12 0 11 -1 176 25 175 11 
31 27 30 29 3934 863 11 MP stroke
1 sg
44 27 -32 17 -32 17 -175 -11 -176 -25 13 -43 14 -38 150 21 
151 10 4018 1005 10 MP
PP
0 sg
43 25 44 27 -32 17 -32 17 -175 -11 -176 -25 13 -43 14 -38 
150 21 151 10 4018 1005 11 MP stroke
1 sg
113 -139 64 -35 65 -37 147 28 148 20 -9 63 -9 62 -41 54 
-41 53 -189 96 -188 76 -87 -57 -87 -62 4259 2052 14 MP
PP
0 sg
114 -122 113 -139 64 -35 65 -37 147 28 148 20 -9 63 -9 62 
-41 54 -41 53 -189 96 -188 76 -87 -57 -87 -62 4259 2052 15 MP stroke
1 sg
-153 88 -126 -18 -126 -26 76 -90 76 -104 188 -76 189 -96 15 112 
14 104 3679 1889 10 MP
PP
0 sg
-153 106 -153 88 -126 -18 -126 -26 76 -90 76 -104 188 -76 189 -96 
15 112 14 104 3679 1889 11 MP stroke
1 sg
-132 20 -33 -1 -32 -1 -31 -37 -31 -39 91 -16 90 -22 104 -4 
104 -9 34 9 33 8 -32 32 -32 30 3803 1160 14 MP
PP
0 sg
-133 30 -132 20 -33 -1 -32 -1 -31 -37 -31 -39 91 -16 90 -22 
104 -4 104 -9 34 9 33 8 -32 32 -32 30 3803 1160 15 MP stroke
1 sg
190 -235 59 24 60 23 -114 202 -113 184 -65 37 -64 35 -71 -33 
-72 -35 4175 2381 10 MP
PP
0 sg
190 -202 190 -235 59 24 60 23 -114 202 -113 184 -65 37 -64 35 
-71 -33 -72 -35 4175 2381 11 MP stroke
1 sg
5 -20 74 -39 74 -45 189 -16 190 -30 -85 89 -84 77 -88 26 
-88 22 -96 -21 -96 -24 4165 1472 12 MP
PP
0 sg
5 -19 5 -20 74 -39 74 -45 189 -16 190 -30 -85 89 -84 77 
-88 26 -88 22 -96 -21 -96 -24 4165 1472 13 MP stroke
1 sg
85 -67 88 -22 88 -26 110 24 111 18 -1 6 -1 5 -260 80 
-261 44 -22 -3 -22 -3 4143 1304 12 MP
PP
0 sg
85 -56 85 -67 88 -22 88 -26 110 24 111 18 -1 6 -1 5 
-260 80 -261 44 -22 -3 -22 -3 4143 1304 13 MP stroke
1 sg
-131 78 -104 9 -104 4 -42 -35 -43 -37 261 -44 260 -80 16 4 
17 4 3545 1414 10 MP
PP
0 sg
-130 97 -131 78 -104 9 -104 4 -42 -35 -43 -37 261 -44 260 -80 
16 4 17 4 3545 1414 11 MP stroke
1 sg
72 -19 129 3 130 -3 -129 49 -128 45 -73 -28 -73 -29 4078 826 
8 MP
PP
0 sg
72 -18 72 -19 129 3 130 -3 -129 49 -128 45 -73 -28 -73 -29 
4078 826 9 MP stroke
1 sg
133 -30 161 -6 162 -15 -131 61 -131 51 -49 6 -50 5 -114 -24 
-113 -28 4068 1110 10 MP
PP
0 sg
132 -20 133 -30 161 -6 162 -15 -131 61 -131 51 -49 6 -50 5 
-114 -24 -113 -28 4068 1110 11 MP stroke
1 sg
88 -28 50 -5 49 -6 98 19 99 17 -193 48 -193 32 -44 -27 
-43 -25 4018 1005 10 MP
PP
0 sg
89 -25 88 -28 50 -5 49 -6 98 19 99 17 -193 48 -193 32 
-44 -27 -43 -25 4018 1005 11 MP stroke
1 sg
-57 32 -190 30 -189 16 11 -48 11 -52 153 -88 153 -106 91 -16 
90 -20 34 46 34 43 -41 67 -42 62 3513 1707 14 MP
PP
0 sg
-58 34 -57 32 -190 30 -189 16 11 -48 11 -52 153 -88 153 -106 
91 -16 90 -20 34 46 34 43 -41 67 -42 62 3513 1707 15 MP stroke
1 sg
-122 52 -130 3 -129 -3 -30 -29 -31 -27 32 -17 32 -17 193 -32 
193 -48 38 -5 38 -6 19 35 19 38 3431 971 14 MP
PP
0 sg
-122 56 -122 52 -130 3 -129 -3 -30 -29 -31 -27 32 -17 32 -17 
193 -32 193 -48 38 -5 38 -6 19 35 19 38 3431 971 15 MP stroke
1 sg
-161 189 -148 -20 -147 -28 113 -184 114 -202 120 -95 121 -101 96 24 
96 22 -21 94 -22 93 3286 2734 12 MP
PP
0 sg
-161 208 -161 189 -148 -20 -147 -28 113 -184 114 -202 120 -95 121 -101 
96 24 96 22 -21 94 -22 93 3286 2734 13 MP stroke
1 sg
130 -97 27 -5 27 -4 85 40 85 34 -209 73 -209 54 -33 -8 
-34 -9 3806 1239 10 MP
PP
0 sg
131 -78 130 -97 27 -5 27 -4 85 40 85 34 -209 73 -209 54 
-33 -8 -34 -9 3806 1239 11 MP stroke
1 sg
32 -32 209 -54 209 -73 4 -1 5 -1 26 22 27 20 -76 55 
-77 51 -34 11 -34 11 -162 15 -161 6 3803 1160 14 MP
PP
0 sg
32 -30 32 -32 209 -54 209 -73 4 -1 5 -1 26 22 27 20 
-76 55 -77 51 -34 11 -34 11 -162 15 -161 6 3803 1160 15 MP stroke
1 sg
-134 117 -111 -18 -110 -24 84 -77 85 -89 57 -32 58 -34 103 12 
103 7 3307 1688 10 MP
PP
0 sg
-135 138 -134 117 -111 -18 -110 -24 84 -77 85 -89 57 -32 58 -34 
103 12 103 7 3307 1688 11 MP stroke
1 sg
190 -291 55 18 54 17 -64 189 -64 182 -121 101 -120 95 -60 -23 
-59 -24 3795 2818 10 MP
PP
0 sg
189 -264 190 -291 55 18 54 17 -64 189 -64 182 -121 101 -120 95 
-60 -23 -59 -24 3795 2818 11 MP stroke
1 sg
-140 66 -38 6 -38 5 -99 -17 -98 -19 131 -51 131 -61 34 -11 
34 -11 112 10 111 8 3189 1185 12 MP
PP
0 sg
-140 75 -140 66 -38 6 -38 5 -99 -17 -98 -19 131 -51 131 -61 
34 -11 34 -11 112 10 111 8 3189 1185 13 MP stroke
1 sg
-157 166 -90 20 -91 16 -14 -104 -15 -112 41 -53 41 -54 200 -67 
201 -79 21 40 20 40 3184 2278 12 MP
PP
0 sg
-157 187 -157 166 -90 20 -91 16 -14 -104 -15 -112 41 -53 41 -54 
200 -67 201 -79 21 40 20 40 3184 2278 13 MP stroke
1 sg
133 2 -103 190 -102 178 -201 79 -200 67 9 -62 9 -63 161 -189 
161 -208 3286 2734 10 MP
PP
0 sg
133 6 133 2 -103 190 -102 178 -201 79 -200 67 9 -62 9 -63 
161 -189 161 -208 3286 2734 11 MP stroke
1 sg
-16 -4 1 -5 1 -6 134 -117 135 -138 78 -38 78 -40 79 48 
79 42 -249 140 -249 113 -27 4 -27 5 3545 1414 14 MP
PP
0 sg
-17 -4 -16 -4 1 -5 1 -6 134 -117 135 -138 78 -38 78 -40 
79 48 79 42 -249 140 -249 113 -27 4 -27 5 3545 1414 15 MP stroke
1 sg
-88 86 -78 40 -78 38 -103 -7 -103 -12 42 -62 41 -67 188 -113 
188 -128 53 2 53 1 -14 67 -14 64 2976 1943 14 MP
PP
0 sg
-87 91 -88 86 -78 40 -78 38 -103 -7 -103 -12 42 -62 41 -67 
188 -113 188 -128 53 2 53 1 -14 67 -14 64 2976 1943 15 MP stroke
1 sg
113 -47 -48 151 -48 140 -188 128 -188 113 -34 -43 -34 -46 157 -166 
157 -187 3184 2278 10 MP
PP
0 sg
113 -43 113 -47 -48 151 -48 140 -188 128 -188 113 -34 -43 -34 -46 
157 -166 157 -187 3184 2278 11 MP stroke
1 sg
-194 125 -5 1 -4 1 -85 -34 -85 -40 249 -113 249 -140 4 -1 
5 -2 35 17 36 16 -6 11 -6 11 2925 1624 14 MP
PP
0 sg
-193 148 -194 125 -5 1 -4 1 -85 -34 -85 -40 249 -113 249 -140 
4 -1 5 -2 35 17 36 16 -6 11 -6 11 2925 1624 15 MP stroke
1 sg
29 -11 74 -6 74 -8 -224 133 -223 116 -19 -38 -19 -35 140 -66 
140 -75 3189 1185 10 MP
PP
0 sg
28 -10 29 -11 74 -6 74 -8 -224 133 -223 116 -19 -38 -19 -35 
140 -66 140 -75 3189 1185 11 MP stroke
1 sg
64 -189 128 -146 128 -153 115 29 116 27 -55 153 -56 150 -156 184 
-156 173 -96 -22 -96 -24 3435 2967 12 MP
PP
0 sg
64 -182 64 -189 128 -146 128 -153 115 29 116 27 -55 153 -56 150 
-156 184 -156 173 -96 -22 -96 -24 3435 2967 13 MP stroke
1 sg
94 -159 88 25 88 24 -128 153 -128 146 -54 -17 -55 -18 3416 3373 
8 MP
PP
0 sg
95 -154 94 -159 88 25 88 24 -128 153 -128 146 -54 -17 -55 -18 
3416 3373 9 MP stroke
1 sg
-162 103 -29 11 -28 10 -111 -8 -112 -10 77 -51 76 -55 155 -57 
154 -65 71 3 72 3 2807 1425 12 MP
PP
0 sg
-163 116 -162 103 -29 11 -28 10 -111 -8 -112 -10 77 -51 76 -55 
155 -57 154 -65 71 3 72 3 2807 1425 13 MP stroke
1 sg
-84 77 -154 65 -155 57 -27 -20 -26 -22 194 -125 193 -148 72 18 
71 15 2782 1591 10 MP
PP
0 sg
-84 83 -84 77 -154 65 -155 57 -27 -20 -26 -22 194 -125 193 -148 
72 18 71 15 2782 1591 11 MP stroke
1 sg
21 -94 156 -173 156 -184 119 21 119 17 -73 178 -74 172 -90 83 
-90 81 -133 -2 -133 -6 3286 2734 12 MP
PP
0 sg
22 -93 21 -94 156 -173 156 -184 119 21 119 17 -73 178 -74 172 
-90 83 -90 81 -133 -2 -133 -6 3286 2734 13 MP stroke
1 sg
-21 -40 102 -178 103 -190 90 -81 90 -83 93 33 92 31 -51 129 
-52 125 -100 104 -100 100 -113 47 -113 43 3184 2278 14 MP
PP
0 sg
-20 -40 -21 -40 102 -178 103 -190 90 -81 90 -83 93 33 92 31 
-51 129 -52 125 -100 104 -100 100 -113 47 -113 43 3184 2278 15 MP stroke
1 sg
-161 154 -5 2 -4 1 -79 -42 -79 -48 88 -86 87 -91 155 -65 
154 -70 2 36 3 36 2662 2006 12 MP
PP
0 sg
-161 173 -161 154 -5 2 -4 1 -79 -42 -79 -48 88 -86 87 -91 
155 -65 154 -70 2 36 3 36 2662 2006 13 MP stroke
1 sg
163 -116 44 -22 44 -22 57 -11 57 -12 -190 143 -189 129 -74 8 
-74 6 3132 1206 10 MP
PP
0 sg
162 -103 163 -116 44 -22 44 -22 57 -11 57 -12 -190 143 -189 129 
-74 8 -74 6 3132 1206 11 MP stroke
1 sg
48 -151 100 -100 100 -104 116 6 115 3 -38 82 -38 79 -173 170 
-172 158 -53 -1 -53 -2 3054 2077 12 MP
PP
0 sg
48 -140 48 -151 100 -100 100 -104 116 6 115 3 -38 82 -38 79 
-173 170 -172 158 -53 -1 -53 -2 3054 2077 13 MP stroke
1 sg
-31 66 -248 178 -249 160 -36 -16 -35 -17 161 -154 161 -173 147 -60 
147 -63 7 6 7 5 2354 2118 12 MP
PP
0 sg
-31 68 -31 66 -248 178 -249 160 -36 -16 -35 -17 161 -154 161 -173 
147 -60 147 -63 7 6 7 5 2354 2118 13 MP stroke
1 sg
-82 106 -154 70 -155 65 14 -64 14 -67 172 -158 173 -170 50 55 
50 51 2503 2296 10 MP
PP
0 sg
-82 112 -82 106 -154 70 -155 65 14 -64 14 -67 172 -158 173 -170 
50 55 50 51 2503 2296 11 MP stroke
1 sg
-148 125 -44 22 -44 22 -72 -3 -71 -3 84 -77 84 -83 144 -81 
145 -88 35 15 35 15 2423 1730 12 MP
PP
0 sg
-148 136 -148 125 -44 22 -44 22 -72 -3 -71 -3 84 -77 84 -83 
144 -81 145 -88 35 15 35 15 2423 1730 13 MP stroke
1 sg
55 -153 179 35 178 29 -115 140 -115 137 -119 -17 -119 -21 2931 3278 
8 MP
PP
0 sg
56 -150 55 -153 179 35 178 29 -115 140 -115 137 -119 -17 -119 -21 
2931 3278 9 MP stroke
1 sg
-76 97 -145 88 -144 81 -71 -15 -72 -18 6 -11 6 -11 249 -160 
248 -178 38 12 37 12 2341 1960 12 MP
PP
0 sg
-76 103 -76 97 -145 88 -144 81 -71 -15 -72 -18 6 -11 6 -11 
249 -160 248 -178 38 12 37 12 2341 1960 13 MP stroke
1 sg
-58 163 -147 169 -147 163 -92 -31 -93 -33 74 -172 73 -178 115 -137 
115 -140 109 15 110 12 2244 3490 12 MP
PP
0 sg
-59 169 -58 163 -147 169 -147 163 -92 -31 -93 -33 74 -172 73 -178 
115 -137 115 -140 109 15 110 12 2244 3490 13 MP stroke
1 sg
51 -129 147 -163 147 -169 109 7 109 5 -61 162 -61 155 -131 135 
-131 131 -115 -3 -116 -6 2758 2572 12 MP
PP
0 sg
52 -125 51 -129 147 -163 147 -169 109 7 109 5 -61 162 -61 155 
-131 135 -131 131 -115 -3 -116 -6 2758 2572 13 MP stroke
1 sg
148 -136 116 -62 116 -64 -207 191 -207 173 -57 12 -57 11 2719 1469 
8 MP
PP
0 sg
148 -125 148 -136 116 -62 116 -64 -207 191 -207 173 -57 12 -57 11 
2719 1469 9 MP stroke
1 sg
82 -112 142 -108 141 -112 15 15 16 16 -90 185 -89 171 -147 63 
-147 60 -3 -36 -2 -36 2667 2078 12 MP
PP
0 sg
82 -106 82 -112 142 -108 141 -112 15 15 16 16 -90 185 -89 171 
-147 63 -147 60 -3 -36 -2 -36 2667 2078 13 MP stroke
1 sg
-77 150 -141 112 -142 108 -50 -51 -50 -55 38 -79 38 -82 131 -131 
131 -135 99 4 99 2 2067 2823 12 MP
PP
0 sg
-76 157 -77 150 -141 112 -142 108 -50 -51 -50 -55 38 -79 38 -82 
131 -131 131 -135 99 4 99 2 2067 2823 13 MP stroke
1 sg
-139 140 -116 64 -116 62 -35 -15 -35 -15 76 -97 76 -103 185 -121 
185 -126 29 33 30 31 1912 2143 12 MP
PP
0 sg
-140 147 -139 140 -116 64 -116 62 -35 -15 -35 -15 76 -97 76 -103 
185 -121 185 -126 29 33 30 31 1912 2143 13 MP stroke
1 sg
-55 77 -185 126 -185 121 -37 -12 -38 -12 31 -66 31 -68 213 -172 
214 -182 33 56 33 52 1861 2364 12 MP
PP
0 sg
-55 80 -55 77 -185 126 -185 121 -37 -12 -38 -12 31 -66 31 -68 
213 -172 214 -182 33 56 33 52 1861 2364 13 MP stroke
1 sg
-64 114 -214 182 -213 172 -7 -5 -7 -6 89 -171 90 -185 195 -109 
195 -111 1799 2705 10 MP
PP
0 sg
-64 119 -64 114 -214 182 -213 172 -7 -5 -7 -6 89 -171 90 -185 
195 -109 195 -111 1799 2705 11 MP stroke
1 sg
59 -169 181 17 182 11 -131 160 -131 156 -109 -5 -109 -7 2361 3158 
8 MP
PP
0 sg
58 -163 59 -169 181 17 182 11 -131 160 -131 156 -109 -5 -109 -7 
2361 3158 9 MP stroke
1 sg
61 -162 131 -156 131 -160 109 5 110 2 -69 185 -68 178 -134 136 
-134 133 -99 -2 -99 -4 2265 2829 12 MP
PP
0 sg
61 -155 61 -162 131 -156 131 -160 109 5 110 2 -69 185 -68 178 
-134 136 -134 133 -99 -2 -99 -4 2265 2829 13 MP stroke
1 sg
-15 -15 77 -150 76 -157 134 -133 134 -136 91 1 92 0 -65 164 
-64 156 -27 33 -27 33 -195 111 -195 109 2189 2485 14 MP
PP
0 sg
-16 -16 -15 -15 77 -150 76 -157 134 -133 134 -136 91 1 92 0 
-65 164 -64 156 -27 33 -27 33 -195 111 -195 109 2189 2485 15 MP stroke
1 sg
165 -151 31 -5 32 -6 -223 275 -222 254 -30 -31 -29 -33 55 -77 
55 -80 1861 2364 10 MP
PP
0 sg
166 -146 165 -151 31 -5 32 -6 -223 275 -222 254 -30 -31 -29 -33 
55 -77 55 -80 1861 2364 11 MP stroke
1 sg
-50 124 -165 151 -166 146 -33 -52 -33 -56 64 -114 64 -119 27 -33 
27 -33 158 -72 157 -73 1430 2916 12 MP
PP
0 sg
-50 131 -50 124 -165 151 -166 146 -33 -52 -33 -56 64 -114 64 -119 
27 -33 27 -33 158 -72 157 -73 1430 2916 13 MP stroke
1 sg
69 -185 191 2 192 -3 -169 184 -168 181 -92 0 -91 -1 1799 3092 
8 MP
PP
0 sg
68 -178 69 -185 191 2 192 -3 -169 184 -168 181 -92 0 -91 -1 
1799 3092 9 MP stroke
1 sg
65 -164 168 -181 169 -184 89 -3 90 -3 -50 144 -49 139 -116 133 
-115 130 -157 73 -158 72 1745 2771 12 MP
PP
0 sg
64 -156 65 -164 168 -181 169 -184 89 -3 90 -3 -50 144 -49 139 
-116 133 -115 130 -157 73 -158 72 1745 2771 13 MP stroke
1 sg
50 -131 115 -130 116 -133 55 -6 56 -5 -190 267 -189 251 -32 6 
-31 5 1530 2661 10 MP
PP
0 sg
50 -124 50 -131 115 -130 116 -133 55 -6 56 -5 -190 267 -189 251 
-32 6 -31 5 1530 2661 11 MP stroke
1 sg
50 -144 101 -5 101 -5 -95 143 -95 139 -56 5 -55 6 1199 3179 
8 MP
PP
0 sg
49 -139 50 -144 101 -5 101 -5 -95 143 -95 139 -56 5 -55 6 
1199 3179 9 MP stroke
gr


end %%Color Dict

eplot
%%EndObject

epage
end

showpage

%%Trailer
%%EOF
