%!PS-Adobe-2.0 EPSF-1.2
%%Creator: MATLAB, The MathWorks, Inc. Version 8.0.0.783 (R2012b). Operating System: Microsoft Windows 7.
%%Title: ..\meshes\poligoni-triangle\triangle0.005-mesh.eps
%%CreationDate: 03/12/2013  01:22:05
%%DocumentNeededFonts: Helvetica
%%DocumentProcessColors: Cyan Magenta Yellow Black
%%Pages: 1
%%BoundingBox:   156   243   480   616
%%EndComments

%%BeginProlog
% MathWorks dictionary
/MathWorks 160 dict begin
% definition operators
/bdef {bind def} bind def
/ldef {load def} bind def
/xdef {exch def} bdef
/xstore {exch store} bdef
% operator abbreviations
/c  /clip ldef
/cc /concat ldef
/cp /closepath ldef
/gr /grestore ldef
/gs /gsave ldef
/mt /moveto ldef
/np /newpath ldef
/cm /currentmatrix ldef
/sm /setmatrix ldef
/rm /rmoveto ldef
/rl /rlineto ldef
/s {show newpath} bdef
/sc {setcmykcolor} bdef
/sr /setrgbcolor ldef
/sg /setgray ldef
/w /setlinewidth ldef
/j /setlinejoin ldef
/cap /setlinecap ldef
/rc {rectclip} bdef
/rf {rectfill} bdef
% page state control
/pgsv () def
/bpage {/pgsv save def} bdef
/epage {pgsv restore} bdef
/bplot /gsave ldef
/eplot {stroke grestore} bdef
% orientation switch
/portraitMode 0 def /landscapeMode 1 def /rotateMode 2 def
% coordinate system mappings
/dpi2point 0 def
% font control
/FontSize 0 def
/FMS {/FontSize xstore findfont [FontSize 0 0 FontSize neg 0 0]
  makefont setfont} bdef
/ISOLatin1Encoding where {pop /WindowsLatin1Encoding 256 array bdef
ISOLatin1Encoding WindowsLatin1Encoding copy pop
/.notdef/.notdef/quotesinglbase/florin/quotedblbase/ellipsis/dagger
/daggerdbl/circumflex/perthousand/Scaron/guilsinglleft/OE/.notdef/.notdef
/.notdef/.notdef/quoteleft/quoteright/quotedblleft/quotedblright/bullet
/endash/emdash/tilde/trademark/scaron/guilsinglright/oe/.notdef/.notdef
/Ydieresis WindowsLatin1Encoding 128 32 getinterval astore pop}
{/WindowsLatin1Encoding StandardEncoding bdef} ifelse
/reencode {exch dup where {pop load} {pop StandardEncoding} ifelse
  exch dup 3 1 roll findfont dup length dict begin
  { 1 index /FID ne {def}{pop pop} ifelse } forall
  /Encoding exch def currentdict end definefont pop} bdef
/isroman {findfont /CharStrings get /Agrave known} bdef
/FMSR {3 1 roll 1 index dup isroman {reencode} {pop pop} ifelse
  exch FMS} bdef
/csm {1 dpi2point div -1 dpi2point div scale neg translate
 dup landscapeMode eq {pop -90 rotate}
  {rotateMode eq {90 rotate} if} ifelse} bdef
% line types: solid, dotted, dashed, dotdash
/SO { [] 0 setdash } bdef
/DO { [.5 dpi2point mul 4 dpi2point mul] 0 setdash } bdef
/DA { [6 dpi2point mul] 0 setdash } bdef
/DD { [.5 dpi2point mul 4 dpi2point mul 6 dpi2point mul 4
  dpi2point mul] 0 setdash } bdef
% macros for lines and objects
/L {lineto stroke} bdef
/MP {3 1 roll moveto 1 sub {rlineto} repeat} bdef
/AP {{rlineto} repeat} bdef
/PDlw -1 def
/W {/PDlw currentlinewidth def setlinewidth} def
/PP {closepath eofill} bdef
/DP {closepath stroke} bdef
/MR {4 -2 roll moveto dup  0 exch rlineto exch 0 rlineto
  neg 0 exch rlineto closepath} bdef
/FR {MR stroke} bdef
/PR {MR fill} bdef
/L1i {{currentfile picstr readhexstring pop} image} bdef
/tMatrix matrix def
/MakeOval {newpath tMatrix currentmatrix pop translate scale
0 0 1 0 360 arc tMatrix setmatrix} bdef
/FO {MakeOval stroke} bdef
/PO {MakeOval fill} bdef
/PD {currentlinewidth 2 div 0 360 arc fill
   PDlw -1 eq not {PDlw w /PDlw -1 def} if} def
/FA {newpath tMatrix currentmatrix pop translate scale
  0 0 1 5 -2 roll arc tMatrix setmatrix stroke} bdef
/PA {newpath tMatrix currentmatrix pop	translate 0 0 moveto scale
  0 0 1 5 -2 roll arc closepath tMatrix setmatrix fill} bdef
/FAn {newpath tMatrix currentmatrix pop translate scale
  0 0 1 5 -2 roll arcn tMatrix setmatrix stroke} bdef
/PAn {newpath tMatrix currentmatrix pop translate 0 0 moveto scale
  0 0 1 5 -2 roll arcn closepath tMatrix setmatrix fill} bdef
/vradius 0 def /hradius 0 def /lry 0 def
/lrx 0 def /uly 0 def /ulx 0 def /rad 0 def
/MRR {/vradius xdef /hradius xdef /lry xdef /lrx xdef /uly xdef
  /ulx xdef newpath tMatrix currentmatrix pop ulx hradius add uly
  vradius add translate hradius vradius scale 0 0 1 180 270 arc 
  tMatrix setmatrix lrx hradius sub uly vradius add translate
  hradius vradius scale 0 0 1 270 360 arc tMatrix setmatrix
  lrx hradius sub lry vradius sub translate hradius vradius scale
  0 0 1 0 90 arc tMatrix setmatrix ulx hradius add lry vradius sub
  translate hradius vradius scale 0 0 1 90 180 arc tMatrix setmatrix
  closepath} bdef
/FRR {MRR stroke } bdef
/PRR {MRR fill } bdef
/MlrRR {/lry xdef /lrx xdef /uly xdef /ulx xdef /rad lry uly sub 2 div def
  newpath tMatrix currentmatrix pop ulx rad add uly rad add translate
  rad rad scale 0 0 1 90 270 arc tMatrix setmatrix lrx rad sub lry rad
  sub translate rad rad scale 0 0 1 270 90 arc tMatrix setmatrix
  closepath} bdef
/FlrRR {MlrRR stroke } bdef
/PlrRR {MlrRR fill } bdef
/MtbRR {/lry xdef /lrx xdef /uly xdef /ulx xdef /rad lrx ulx sub 2 div def
  newpath tMatrix currentmatrix pop ulx rad add uly rad add translate
  rad rad scale 0 0 1 180 360 arc tMatrix setmatrix lrx rad sub lry rad
  sub translate rad rad scale 0 0 1 0 180 arc tMatrix setmatrix
  closepath} bdef
/FtbRR {MtbRR stroke } bdef
/PtbRR {MtbRR fill } bdef
/stri 6 array def /dtri 6 array def
/smat 6 array def /dmat 6 array def
/tmat1 6 array def /tmat2 6 array def /dif 3 array def
/asub {/ind2 exch def /ind1 exch def dup dup
  ind1 get exch ind2 get sub exch } bdef
/tri_to_matrix {
  2 0 asub 3 1 asub 4 0 asub 5 1 asub
  dup 0 get exch 1 get 7 -1 roll astore } bdef
/compute_transform {
  dmat dtri tri_to_matrix tmat1 invertmatrix 
  smat stri tri_to_matrix tmat2 concatmatrix } bdef
/ds {stri astore pop} bdef
/dt {dtri astore pop} bdef
/db {2 copy /cols xdef /rows xdef mul dup string
  currentfile exch readhexstring pop
  /bmap xdef pop pop} bdef
/it {gs np dtri aload pop moveto lineto lineto cp c
  cols rows 8 compute_transform 
  {bmap} image gr}bdef
/il {newpath moveto lineto stroke}bdef
currentdict end def
%%EndProlog

%%BeginSetup
MathWorks begin

0 cap

end
%%EndSetup

%%Page: 1 1
%%BeginPageSetup
%%PageBoundingBox:   156   243   480   616
MathWorks begin
bpage
%%EndPageSetup

%%BeginObject: obj1
bplot

/dpi2point 12 def
portraitMode 0216 7344 csm

 1658   -48  3892  4472 MR c np
85 dict begin %Colortable dictionary
/c0 { 0.000000 0.000000 0.000000 sr} bdef
/c1 { 1.000000 1.000000 1.000000 sr} bdef
/c2 { 0.900000 0.000000 0.000000 sr} bdef
/c3 { 0.000000 0.820000 0.000000 sr} bdef
/c4 { 0.000000 0.000000 0.800000 sr} bdef
/c5 { 0.910000 0.820000 0.320000 sr} bdef
/c6 { 1.000000 0.260000 0.820000 sr} bdef
/c7 { 0.000000 0.820000 0.820000 sr} bdef
c0
1 j
1 sg
   0    0 6919 5187 PR
6 w
gs 1466 388 4228 4229 MR c np
0 141 -240 -101 0 -40 1898 4423 4 MP
PP
0 sg
240 0 0 141 -240 -101 0 -40 1898 4423 5 MP stroke
1 sg
0 -240 154 0 -127 240 5474 4183 4 MP
PP
0 sg
-27 0 0 -240 154 0 -127 240 5474 4183 5 MP stroke
1 sg
0 14 -240 0 0 -172 5501 753 4 MP
PP
0 sg
240 158 0 14 -240 0 0 -172 5501 753 5 MP stroke
1 sg
0 169 -240 0 0 -15 1898 596 4 MP
PP
0 sg
240 -154 0 169 -240 0 0 -15 1898 596 5 MP stroke
1 sg
-101 -284 121 -123 48 -10 196 89 6 217 -267 112 3696 2293 7 MP
PP
0 sg
-3 -1 -101 -284 121 -123 48 -10 196 89 6 217 -267 112 3696 2293 8 MP stroke
1 sg
-191 -178 -1 -82 219 -202 0 462 1658 2262 5 MP
PP
0 sg
-27 0 -191 -178 -1 -82 219 -202 0 462 1658 2262 6 MP stroke
1 sg
156 89 -60 242 -249 -36 -24 -176 2506 3074 5 MP
PP
0 sg
177 -119 156 89 -60 242 -249 -36 -24 -176 2506 3074 6 MP stroke
1 sg
139 140 -26 182 -206 84 -97 -40 -16 -160 2809 2521 6 MP
PP
0 sg
206 -206 139 140 -26 182 -206 84 -97 -40 -16 -160 2809 2521 7 MP stroke
1 sg
37 2 230 204 1 82 -226 140 -95 -44 -41 -275 2238 2619 7 MP
PP
0 sg
94 -109 37 2 230 204 1 82 -226 140 -95 -44 -41 -275 2238 2619 8 MP stroke
1 sg
-132 -222 3 -5 315 -120 11 3 19 279 -82 76 2922 3441 7 MP
PP
0 sg
-134 -11 -132 -222 3 -5 315 -120 11 3 19 279 -82 76 2922 3441 8 MP stroke
1 sg
249 36 89 134 -94 109 -226 32 -139 -140 -2 -27 2605 2754 7 MP
PP
0 sg
123 -144 249 36 89 134 -94 109 -226 32 -139 -140 -2 -27 2605 2754 8 MP stroke
1 sg
0 277 -159 -88 53 -189 1764 1661 4 MP
PP
0 sg
106 0 0 277 -159 -88 53 -189 1764 1661 5 MP stroke
1 sg
0 354 -223 -167 16 -59 1865 3501 4 MP
PP
0 sg
207 -128 0 354 -223 -167 16 -59 1865 3501 5 MP stroke
1 sg
-135 -110 26 -182 226 -32 41 275 2197 2344 5 MP
PP
0 sg
-158 49 -135 -110 26 -182 226 -32 41 275 2197 2344 6 MP stroke
1 sg
-91 -145 164 -201 124 11 99 232 -30 89 2120 1625 6 MP
PP
0 sg
-266 14 -91 -145 164 -201 124 11 99 232 -30 89 2120 1625 7 MP stroke
1 sg
208 125 -73 234 -226 23 -38 -124 2229 1309 5 MP
PP
0 sg
129 -258 208 125 -73 234 -226 23 -38 -124 2229 1309 6 MP stroke
1 sg
-99 -232 124 -117 211 29 61 132 -40 135 1833 1767 6 MP
PP
0 sg
-257 53 -99 -232 124 -117 211 29 61 132 -40 135 1833 1767 7 MP stroke
1 sg
191 178 -169 228 -211 -29 -37 -237 2102 2300 5 MP
PP
0 sg
226 -140 191 178 -169 228 -211 -29 -37 -237 2102 2300 6 MP stroke
1 sg
0 58 -387 0 74 -154 2692 735 4 MP
PP
0 sg
313 96 0 58 -387 0 74 -154 2692 735 5 MP stroke
1 sg
-104 -129 62 -209 158 -49 95 44 37 237 -124 117 2189 1946 7 MP
PP
0 sg
-124 -11 -104 -129 62 -209 158 -49 95 44 37 237 -124 117 2189 1946 8 MP stroke
1 sg
0 409 -203 -186 -5 -67 1866 3014 4 MP
PP
0 sg
208 -156 0 409 -203 -186 -5 -67 1866 3014 5 MP stroke
1 sg
-88 -193 152 -176 134 11 77 223 -266 136 3111 3082 6 MP
PP
0 sg
-9 -1 -88 -193 152 -176 134 11 77 223 -266 136 3111 3082 7 MP stroke
1 sg
-123 196 -47 10 -238 -191 0 -15 3820 4423 5 MP
PP
0 sg
408 0 -123 196 -47 10 -238 -191 0 -15 3820 4423 6 MP stroke
1 sg
-219 202 -230 -204 246 -221 203 186 1658 2761 5 MP
PP
0 sg
0 37 -219 202 -230 -204 246 -221 203 186 1658 2761 6 MP stroke
1 sg
-89 -134 60 -242 142 -49 165 139 5 67 -246 221 2107 2726 7 MP
PP
0 sg
-37 -2 -89 -134 60 -242 142 -49 165 139 5 67 -246 221 2107 2726 8 MP stroke
1 sg
-220 -146 128 -205 90 -18 206 136 2 27 2603 2727 6 MP
PP
0 sg
-206 206 -220 -146 128 -205 90 -18 206 136 2 27 2603 2727 7 MP stroke
1 sg
9 1 210 210 -128 205 -83 17 -128 -74 -34 -208 3274 2932 7 MP
PP
0 sg
154 -151 9 1 210 210 -128 205 -83 17 -128 -74 -34 -208 3274 2932 8 MP stroke
1 sg
220 146 16 160 -198 134 -172 -99 51 -324 3112 2650 6 MP
PP
0 sg
83 -17 220 146 16 160 -198 134 -172 -99 51 -324 3112 2650 7 MP stroke
1 sg
128 74 -51 324 -108 24 -158 -103 -6 -217 3435 2622 6 MP
PP
0 sg
195 -102 128 74 -51 324 -108 24 -158 -103 -6 -217 3435 2622 7 MP stroke
1 sg
-235 -186 240 -234 42 1 142 179 -166 234 2756 1527 6 MP
PP
0 sg
-23 6 -235 -186 240 -234 42 1 142 179 -166 234 2756 1527 7 MP stroke
1 sg
52 8 158 189 -218 249 -168 -54 -66 -214 3472 1726 6 MP
PP
0 sg
242 -178 52 8 158 189 -218 249 -168 -54 -66 -214 3472 1726 7 MP stroke
1 sg
172 194 -394 0 133 -187 3627 768 4 MP
PP
0 sg
89 -7 172 194 -394 0 133 -187 3627 768 5 MP stroke
1 sg
-136 -188 95 -210 108 -24 172 99 5 67 -192 264 3178 1896 7 MP
PP
0 sg
-52 -8 -136 -188 95 -210 108 -24 172 99 5 67 -192 264 3178 1896 8 MP stroke
1 sg
0 326 -175 -112 -13 -109 1846 1113 4 MP
PP
0 sg
188 -105 0 326 -175 -112 -13 -109 1846 1113 5 MP stroke
1 sg
-212 -219 -5 -67 198 -134 97 40 94 226 -130 155 2732 1940 7 MP
PP
0 sg
-42 -1 -212 -219 -5 -67 198 -134 97 40 94 226 -130 155 2732 1940 8 MP stroke
1 sg
-158 -189 192 -264 212 219 -240 234 3014 1707 5 MP
PP
0 sg
-6 0 -158 -189 192 -264 212 219 -240 234 3014 1707 6 MP stroke
1 sg
-142 -179 130 -155 185 9 104 129 -164 201 2477 1756 6 MP
PP
0 sg
-113 -5 -142 -179 130 -155 185 9 104 129 -164 201 2477 1756 7 MP stroke
1 sg
-94 -226 206 -84 135 110 -62 209 2417 2086 5 MP
PP
0 sg
-185 -9 -94 -226 206 -84 135 110 -62 209 2417 2086 6 MP stroke
1 sg
0 -433 182 142 -24 194 -124 97 5467 2262 5 MP
PP
0 sg
-34 0 0 -433 182 142 -24 194 -124 97 5467 2262 6 MP stroke
1 sg
27 0 0 360 -135 0 -61 -132 1854 2034 5 MP
PP
0 sg
169 -228 27 0 0 360 -135 0 -61 -132 1854 2034 6 MP stroke
1 sg
-129 258 -211 -133 54 -169 266 -14 2120 1625 5 MP
PP
0 sg
20 58 -129 258 -211 -133 54 -169 266 -14 2120 1625 6 MP stroke
1 sg
382 -54 3 157 -172 176 -209 -184 -15 -85 2594 1105 6 MP
PP
0 sg
11 -10 382 -54 3 157 -172 176 -209 -184 -15 -85 2594 1105 7 MP stroke
1 sg
-119 -95 73 -234 75 -30 159 88 0 166 1658 1218 6 MP
PP
0 sg
-188 105 -119 -95 73 -234 75 -30 159 88 0 166 1658 1218 7 MP stroke
1 sg
360 -80 107 146 0 15 -481 0 0 -58 2379 639 6 MP
PP
0 sg
14 -23 360 -80 107 146 0 15 -481 0 0 -58 2379 639 7 MP stroke
1 sg
226 -23 119 95 13 109 -170 176 -195 -184 -3 -157 2201 1169 7 MP
PP
0 sg
10 -16 226 -23 119 95 13 109 -170 176 -195 -184 -3 -157 2201 1169 8 MP stroke
1 sg
195 184 -2 86 -360 80 -5 -174 2370 836 5 MP
PP
0 sg
172 -176 195 184 -2 86 -360 80 -5 -174 2370 836 6 MP stroke
1 sg
-107 -146 2 -86 170 -176 175 112 0 142 1658 750 6 MP
PP
0 sg
-240 154 -107 -146 2 -86 170 -176 175 112 0 142 1658 750 7 MP stroke
1 sg
168 -19 136 188 -242 178 -129 -73 -24 -67 3625 1866 6 MP
PP
0 sg
91 -207 168 -19 136 188 -242 178 -129 -73 -24 -67 3625 1866 7 MP stroke
1 sg
-162 -220 267 -112 158 103 -95 210 3366 2092 5 MP
PP
0 sg
-168 19 -162 -220 267 -112 158 103 -95 210 3366 2092 6 MP stroke
1 sg
-69 -106 40 -135 135 0 0 241 1658 1661 5 MP
PP
0 sg
-106 0 -69 -106 40 -135 135 0 0 241 1658 1661 6 MP stroke
1 sg
257 -53 69 106 -53 189 -75 30 -208 -125 -20 -58 2120 1625 7 MP
PP
0 sg
30 -89 257 -53 69 106 -53 189 -75 30 -208 -125 -20 -58 2120 1625 8 MP stroke
1 sg
-165 -139 43 -223 107 -66 223 167 0 105 1658 3170 6 MP
PP
0 sg
-208 156 -165 -139 43 -223 107 -66 223 167 0 105 1658 3170 7 MP stroke
1 sg
229 98 -43 223 -142 49 -156 -89 -21 -170 2350 3363 6 MP
PP
0 sg
133 -111 229 98 -43 223 -142 49 -156 -89 -21 -170 2350 3363 7 MP stroke
1 sg
-177 119 -176 -102 120 -261 212 74 2350 3363 5 MP
PP
0 sg
21 170 -177 119 -176 -102 120 -261 212 74 2350 3363 6 MP stroke
1 sg
145 291 -16 59 -107 66 -229 -98 -17 -149 2234 3623 6 MP
PP
0 sg
224 -169 145 291 -16 59 -107 66 -229 -98 -17 -149 2234 3623 7 MP stroke
1 sg
-206 -136 81 -274 48 -12 176 102 24 176 2482 2898 6 MP
PP
0 sg
-123 144 -206 -136 81 -274 48 -12 176 102 24 176 2482 2898 7 MP stroke
1 sg
0 -134 480 0 0 44 -104 99 2483 4280 5 MP
PP
0 sg
-376 -9 0 -134 480 0 0 44 -104 99 2483 4280 6 MP stroke
1 sg
-2 3 -237 130 -169 -267 408 0 2859 4423 5 MP
PP
0 sg
0 134 -2 3 -237 130 -169 -267 408 0 2859 4423 6 MP stroke
1 sg
-72 -166 187 -229 173 76 2 2 -36 295 3520 3061 6 MP
PP
0 sg
-254 22 -72 -166 187 -229 173 76 2 2 -36 295 3520 3061 7 MP stroke
1 sg
0 307 -207 -128 43 -110 1822 4015 4 MP
PP
0 sg
164 -69 0 307 -207 -128 43 -110 1822 4015 5 MP stroke
1 sg
-210 -210 266 -136 115 54 -81 274 2811 2890 5 MP
PP
0 sg
-90 18 -210 -210 266 -136 115 54 -81 274 2811 2890 6 MP stroke
1 sg
255 34 23 46 -120 261 -48 12 -115 -54 -77 -223 2922 3441 7 MP
PP
0 sg
82 -76 255 34 23 46 -120 261 -48 12 -115 -54 -77 -223 2922 3441 8 MP stroke
1 sg
128 68 -18 231 -155 65 -192 -205 47 -91 2679 3944 6 MP
PP
0 sg
190 -68 128 68 -18 231 -155 65 -192 -205 47 -91 2679 3944 7 MP stroke
1 sg
-89 -138 255 -227 197 152 -190 289 3486 3358 5 MP
PP
0 sg
-173 -76 -89 -138 255 -227 197 152 -190 289 3486 3358 6 MP stroke
1 sg
192 205 -51 165 -255 -34 -19 -279 2859 3796 5 MP
PP
0 sg
133 -57 192 205 -51 165 -255 -34 -19 -279 2859 3796 6 MP stroke
1 sg
-2 -2 190 -289 108 -27 132 222 -152 176 3208 3276 6 MP
PP
0 sg
-276 -80 -2 -2 190 -289 108 -27 132 222 -152 176 3208 3276 7 MP stroke
1 sg
-38 -60 36 -295 276 80 88 193 -154 151 3274 2932 6 MP
PP
0 sg
-208 -69 -38 -60 36 -295 276 80 88 193 -154 151 3274 2932 7 MP stroke
1 sg
-195 102 -196 -89 149 -290 208 69 3274 2932 5 MP
PP
0 sg
34 208 -195 102 -196 -89 149 -290 208 69 3274 2932 6 MP stroke
1 sg
-145 -291 11 -45 134 -68 207 128 0 148 1658 3629 6 MP
PP
0 sg
-207 128 -145 -291 11 -45 134 -68 207 128 0 148 1658 3629 7 MP stroke
1 sg
0 40 -57 90 -194 80 -230 -166 0 -44 2379 4423 6 MP
PP
0 sg
481 0 0 40 -57 90 -194 80 -230 -166 0 -44 2379 4423 7 MP stroke
1 sg
189 167 -11 45 -224 169 -145 -90 18 -231 2361 3944 6 MP
PP
0 sg
173 -60 189 167 -11 45 -224 169 -145 -90 18 -231 2361 3944 7 MP stroke
1 sg
-23 -46 51 -165 155 -65 145 90 17 149 -133 111 2350 3363 7 MP
PP
0 sg
-212 -74 -23 -46 51 -165 155 -65 145 90 17 149 -133 111 2350 3363 8 MP stroke
1 sg
230 166 -39 209 -173 60 -128 -68 6 -268 2483 4280 6 MP
PP
0 sg
104 -99 230 166 -39 209 -173 60 -128 -68 6 -268 2483 4280 7 MP stroke
1 sg
-189 -167 39 -209 194 -80 133 278 -43 110 1865 3905 6 MP
PP
0 sg
-134 68 -189 -167 39 -209 194 -80 133 278 -43 110 1865 3905 7 MP stroke
1 sg
-164 69 -133 -278 57 -90 240 101 1658 4282 5 MP
PP
0 sg
0 198 -164 69 -133 -278 57 -90 240 101 1658 4282 6 MP stroke
1 sg
219 144 5 153 -109 84 -264 -41 -10 -255 4002 1407 6 MP
PP
0 sg
159 -85 219 144 5 153 -109 84 -264 -41 -10 -255 4002 1407 7 MP stroke
1 sg
23 -6 236 119 -63 293 -11 10 -252 -62 -47 -93 2893 1260 7 MP
PP
0 sg
114 -261 23 -6 236 119 -63 293 -11 10 -252 -62 -47 -93 2893 1260 8 MP stroke
1 sg
-382 54 63 -293 80 -34 211 133 38 124 2191 1185 6 MP
PP
0 sg
-10 16 -382 54 63 -293 80 -34 211 133 38 124 2191 1185 7 MP stroke
1 sg
-236 -119 166 -234 113 5 91 145 -54 169 2440 1442 6 MP
PP
0 sg
-80 34 -236 -119 166 -234 113 5 91 145 -54 169 2440 1442 7 MP stroke
1 sg
6 0 235 186 -114 261 -282 -66 -63 -132 3238 1458 6 MP
PP
0 sg
218 -249 6 0 235 186 -114 261 -282 -66 -63 -132 3238 1458 7 MP stroke
1 sg
-239 -163 -5 -153 218 -164 168 54 63 132 -139 286 3314 1040 7 MP
PP
0 sg
-66 8 -239 -163 -5 -153 218 -164 168 54 63 132 -139 286 3314 1040 8 MP stroke
1 sg
252 62 15 85 -133 238 -197 -75 -39 -128 2948 985 6 MP
PP
0 sg
102 -182 252 62 15 85 -133 238 -197 -75 -39 -128 2948 985 7 MP stroke
1 sg
209 184 5 174 -14 23 -313 -96 -20 -47 2712 782 6 MP
PP
0 sg
133 -238 209 184 5 174 -14 23 -313 -96 -20 -47 2712 782 7 MP stroke
1 sg
61 129 -361 0 127 -143 3186 724 4 MP
PP
0 sg
173 14 61 129 -361 0 127 -143 3186 724 5 MP stroke
1 sg
-61 -129 104 -147 197 75 20 47 -74 154 2766 581 6 MP
PP
0 sg
-186 0 -61 -129 104 -147 197 75 20 47 -74 154 2766 581 7 MP stroke
1 sg
129 73 66 214 -218 164 -219 -144 9 -103 3834 1595 6 MP
PP
0 sg
233 -204 129 73 66 214 -218 164 -219 -144 9 -103 3834 1595 7 MP stroke
1 sg
-134 -133 33 -210 109 -84 239 163 -158 257 3538 775 6 MP
PP
0 sg
-89 7 -134 -133 33 -210 109 -84 239 163 -158 257 3538 775 7 MP stroke
1 sg
0 74 -471 0 176 -183 4595 764 4 MP
PP
0 sg
295 109 0 74 -471 0 176 -183 4595 764 5 MP stroke
1 sg
-172 -194 158 -257 66 -8 69 54 59 262 -127 143 3313 581 7 MP
PP
0 sg
-53 0 -172 -194 158 -257 66 -8 69 54 59 262 -127 143 3313 581 8 MP stroke
1 sg
218 -47 143 200 -421 0 0 -74 4300 655 5 MP
PP
0 sg
60 -79 218 -47 143 200 -421 0 0 -74 4300 655 6 MP stroke
1 sg
-143 -200 39 -62 222 -58 134 133 -133 187 3760 581 6 MP
PP
0 sg
-119 0 -143 -200 39 -62 222 -58 134 133 -133 187 3760 581 7 MP stroke
1 sg
-69 -54 139 -286 282 66 47 93 -102 182 2948 985 6 MP
PP
0 sg
-297 -1 -69 -54 139 -286 282 66 47 93 -102 182 2948 985 7 MP stroke
1 sg
39 128 -104 147 -173 -14 -59 -262 3245 986 5 MP
PP
0 sg
297 1 39 128 -104 147 -173 -14 -59 -262 3245 986 6 MP stroke
1 sg
24 220 -155 124 -140 -139 68 -246 4068 2223 5 MP
PP
0 sg
203 41 24 220 -155 124 -140 -139 68 -246 4068 2223 6 MP stroke
1 sg
3 1 162 220 -91 207 -216 -96 -24 -220 3865 2182 6 MP
PP
0 sg
166 -112 3 1 162 220 -91 207 -216 -96 -24 -220 3865 2182 7 MP stroke
1 sg
-81 -207 216 -144 167 204 -9 103 -159 85 4002 1407 6 MP
PP
0 sg
-134 -41 -81 -207 216 -144 167 204 -9 103 -159 85 4002 1407 7 MP stroke
1 sg
216 96 24 67 -233 204 -167 -204 5 -39 3996 1838 6 MP
PP
0 sg
155 -124 216 96 24 67 -233 204 -167 -204 5 -39 3996 1838 7 MP stroke
1 sg
197 106 -28 242 -271 -60 -8 -204 5096 2284 5 MP
PP
0 sg
110 -84 197 106 -28 242 -271 -60 -8 -204 5096 2284 6 MP stroke
1 sg
-122 -209 183 -130 118 41 58 222 -55 73 4318 1023 6 MP
PP
0 sg
-182 3 -122 -209 183 -130 118 41 58 222 -55 73 4318 1023 7 MP stroke
1 sg
-78 -289 55 -73 223 -6 57 259 -39 62 4022 781 6 MP
PP
0 sg
-218 47 -78 -289 55 -73 223 -6 57 259 -39 62 4022 781 7 MP stroke
1 sg
-57 -259 48 -50 264 41 -33 210 3761 901 5 MP
PP
0 sg
-222 58 -57 -259 48 -50 264 41 -33 210 3761 901 6 MP stroke
1 sg
-58 -222 185 -130 134 41 10 255 -48 50 4040 1102 6 MP
PP
0 sg
-223 6 -58 -222 185 -130 134 41 10 255 -48 50 4040 1102 7 MP stroke
1 sg
182 -3 78 289 -60 79 -295 -109 -18 -108 4613 872 6 MP
PP
0 sg
113 -148 182 -3 78 289 -60 79 -295 -109 -18 -108 4613 872 7 MP stroke
1 sg
244 -33 148 153 -472 0 0 -14 5261 595 5 MP
PP
0 sg
80 -106 244 -33 148 153 -472 0 0 -14 5261 595 6 MP stroke
1 sg
-170 -199 163 -191 108 -7 156 237 -23 112 -13 13 5071 1617 7 MP
PP
0 sg
-221 35 -170 -199 163 -191 108 -7 156 237 -23 112 -13 13 5071 1617 8 MP stroke
1 sg
0 -315 185 81 20 100 5296 1023 4 MP
PP
0 sg
-205 134 0 -315 185 81 20 100 5296 1023 5 MP stroke
1 sg
142 63 81 207 -185 130 -118 -41 -55 -183 4494 1542 6 MP
PP
0 sg
135 -176 142 63 81 207 -185 130 -118 -41 -55 -183 4494 1542 7 MP stroke
1 sg
-86 219 -296 -187 217 -233 4442 2148 4 MP
PP
0 sg
165 201 -86 219 -296 -187 217 -233 4442 2148 5 MP stroke
1 sg
141 -30 140 139 -5 39 -216 144 -142 -63 -4 -10 4363 1728 7 MP
PP
0 sg
86 -219 141 -30 140 139 -5 39 -216 144 -142 -63 -4 -10 4363 1728 8 MP stroke
1 sg
126 55 25 34 6 53 -199 285 -230 -142 21 -177 4540 2865 7 MP
PP
0 sg
251 -108 126 55 25 34 6 53 -199 285 -230 -142 21 -177 4540 2865 8 MP stroke
1 sg
-40 110 -169 74 0 -383 39 0 5462 1781 5 MP
PP
0 sg
170 199 -40 110 -169 74 0 -383 39 0 5462 1781 6 MP stroke
1 sg
-54 -112 166 -241 217 132 21 147 4088 2245 5 MP
PP
0 sg
-350 74 -54 -112 166 -241 217 132 21 147 4088 2245 6 MP stroke
1 sg
20 22 -68 246 -141 30 -165 -201 4 -23 4438 2171 6 MP
PP
0 sg
350 -74 20 22 -68 246 -141 30 -165 -201 4 -23 4438 2171 7 MP stroke
1 sg
-20 -22 -21 -147 186 -199 123 13 101 284 -166 112 3865 2182 7 MP
PP
0 sg
-203 -41 -20 -22 -21 -147 186 -199 123 13 101 284 -166 112 3865 2182 8 MP stroke
1 sg
142 248 -121 123 -123 -13 -209 -240 -6 -53 4138 2884 6 MP
PP
0 sg
317 -65 142 248 -121 123 -123 -13 -209 -240 -6 -53 4138 2884 7 MP stroke
1 sg
209 240 -186 199 -217 -132 -5 -22 4331 2546 5 MP
PP
0 sg
199 -285 209 240 -186 199 -217 -132 -5 -22 4331 2546 6 MP stroke
1 sg
146 31 53 252 -150 79 -197 -106 10 -154 4976 2522 6 MP
PP
0 sg
138 -102 146 31 53 252 -150 79 -197 -106 10 -154 4976 2522 7 MP stroke
1 sg
-142 -248 47 -90 254 -22 38 60 -149 290 3631 2711 6 MP
PP
0 sg
-48 10 -142 -248 47 -90 254 -22 38 60 -149 290 3631 2711 7 MP stroke
1 sg
-87 -250 174 -207 75 23 120 190 -156 299 4163 2918 6 MP
PP
0 sg
-126 -55 -87 -250 174 -207 75 23 120 190 -156 299 4163 2918 7 MP stroke
1 sg
-60 -90 28 -242 150 -79 147 58 54 112 -4 23 -217 233 -44 9 
4703 1906 9 MP
PP
0 sg
-54 -24 -60 -90 28 -242 150 -79 147 58 54 112 -4 23 -217 233 
-44 9 4703 1906 10 MP stroke
1 sg
230 142 5 22 -166 241 -147 -58 -53 -252 4692 2593 6 MP
PP
0 sg
131 -95 230 142 5 22 -166 241 -147 -58 -53 -252 4692 2593 7 MP stroke
1 sg
-25 -34 156 -299 161 12 72 166 -47 90 3821 2949 6 MP
PP
0 sg
-317 65 -25 -34 156 -299 161 12 72 166 -47 90 3821 2949 7 MP stroke
1 sg
-235 193 -183 -153 95 -202 47 -10 3535 4227 5 MP
PP
0 sg
276 172 -235 193 -183 -153 95 -202 47 -10 3535 4227 6 MP stroke
1 sg
38 -1 36 377 -3 5 -108 27 -197 -152 -1 -63 3494 3862 7 MP
PP
0 sg
235 -193 38 -1 36 377 -3 5 -108 27 -197 -152 -1 -63 3494 3862 8 MP stroke
1 sg
-38 -268 278 -63 51 29 -47 269 4937 734 5 MP
PP
0 sg
-244 33 -38 -268 278 -63 51 29 -47 269 4937 734 6 MP stroke
1 sg
-41 -113 376 0 0 152 4300 4271 4 MP
PP
0 sg
-335 -39 -41 -113 376 0 0 152 4300 4271 5 MP stroke
1 sg
-57 -103 62 -286 100 -36 183 153 1 63 -255 227 3748 3572 7 MP
PP
0 sg
-34 -18 -57 -103 62 -286 100 -36 183 153 1 63 -255 227 3748 3572 8 MP stroke
1 sg
-148 -153 47 -269 14 -2 263 133 18 108 -176 183 4771 581 7 MP
PP
0 sg
-18 0 -148 -153 47 -269 14 -2 263 133 18 108 -176 183 4771 581 8 MP stroke
1 sg
235 -59 114 135 -215 229 -14 2 -51 -29 -81 -260 5022 1292 7 MP
PP
0 sg
12 -18 235 -59 114 135 -215 229 -14 2 -51 -29 -81 -260 5022 1292 8 MP stroke
1 sg
197 113 -10 154 -110 84 -247 -75 24 -194 5319 2553 6 MP
PP
0 sg
146 -82 197 113 -10 154 -110 84 -247 -75 24 -194 5319 2553 7 MP stroke
1 sg
54 24 -15 330 -29 24 -311 -78 23 -112 5035 1742 6 MP
PP
0 sg
278 -188 54 24 -15 330 -29 24 -311 -78 23 -112 5035 1742 7 MP stroke
1 sg
0 -391 185 149 -5 101 5321 2930 4 MP
PP
0 sg
-180 141 0 -391 185 149 -5 101 5321 2930 5 MP stroke
1 sg
-73 -265 271 -52 100 76 -21 177 -131 95 4692 2593 6 MP
PP
0 sg
-146 -31 -73 -265 271 -52 100 76 -21 177 -131 95 4692 2593 7 MP stroke
1 sg
124 0 26 326 -271 52 -24 -16 -32 -130 4967 3035 6 MP
PP
0 sg
177 -232 124 0 26 326 -271 52 -24 -16 -32 -130 4967 3035 7 MP stroke
1 sg
271 56 87 250 -251 108 -100 -76 -26 -326 4666 3267 6 MP
PP
0 sg
19 -12 271 56 87 250 -251 108 -100 -76 -26 -326 4666 3267 7 MP stroke
1 sg
154 122 -224 327 -18 4 -224 -145 0 0 4611 3961 6 MP
PP
0 sg
312 -308 154 122 -224 327 -18 4 -224 -145 0 0 4611 3961 7 MP stroke
1 sg
224 145 -92 227 -114 40 -150 -128 18 -203 4725 3880 6 MP
PP
0 sg
114 -81 224 145 -92 227 -114 40 -150 -128 18 -203 4725 3880 7 MP stroke
1 sg
275 156 2 3 -174 207 -271 -56 54 -270 4593 3549 6 MP
PP
0 sg
114 -40 275 156 2 3 -174 207 -271 -56 54 -270 4593 3549 7 MP stroke
1 sg
-2 -3 34 -276 113 -65 218 81 57 103 -345 183 4127 3407 7 MP
PP
0 sg
-75 -23 -2 -3 34 -276 113 -65 218 81 57 103 -345 183 4127 3407 8 MP stroke
1 sg
-120 -190 345 -183 34 18 89 138 -187 229 3846 3205 6 MP
PP
0 sg
-161 -12 -120 -190 345 -183 34 18 89 138 -187 229 3846 3205 7 MP stroke
1 sg
192 156 -177 232 -189 -103 5 -214 5151 3352 5 MP
PP
0 sg
169 -71 192 156 -177 232 -189 -103 5 -214 5151 3352 6 MP stroke
1 sg
199 111 -34 276 -275 -156 92 -227 4387 3816 5 MP
PP
0 sg
18 -4 199 111 -34 276 -275 -156 92 -227 4387 3816 6 MP stroke
1 sg
-100 36 -285 -165 242 -264 238 191 3582 4217 5 MP
PP
0 sg
-95 202 -100 36 -285 -165 242 -264 238 191 3582 4217 6 MP stroke
1 sg
0 -352 175 93 25 98 5301 3426 4 MP
PP
0 sg
-200 161 0 -352 175 93 25 98 5301 3426 5 MP stroke
1 sg
24 16 73 265 -138 102 -197 -113 18 -162 5155 2797 6 MP
PP
0 sg
220 -108 24 16 73 265 -138 102 -197 -113 18 -162 5155 2797 7 MP stroke
1 sg
-1 -2 0 -152 480 0 0 15 -242 264 -36 8 -47 -11 4145 4147 
8 MP
PP
0 sg
-154 -122 -1 -2 0 -152 480 0 0 15 -242 264 -36 8 -47 -11 
4145 4147 9 MP stroke
1 sg
-22 -226 30 -20 245 16 103 242 0 0 -114 81 4725 3880 7 MP
PP
0 sg
-242 -93 -22 -226 30 -20 245 16 103 242 0 0 -114 81 4725 3880 8 MP stroke
1 sg
-103 -195 290 0 -75 204 -30 20 4989 4199 5 MP
PP
0 sg
-82 -29 -103 -195 290 0 -75 204 -30 20 4989 4199 6 MP stroke
1 sg
150 128 -54 270 -19 12 -124 0 -192 -156 32 -163 4950 3586 7 MP
PP
0 sg
207 -91 150 128 -54 270 -19 12 -124 0 -192 -156 32 -163 4950 3586 8 MP stroke
1 sg
-25 -98 175 -270 201 208 -32 163 -169 71 5151 3352 6 MP
PP
0 sg
-150 -74 -25 -98 175 -270 201 208 -32 163 -169 71 5151 3352 7 MP stroke
1 sg
242 93 -18 203 -207 91 -201 -208 -2 -9 5153 3803 6 MP
PP
0 sg
186 -170 242 93 -18 203 -207 91 -201 -208 -2 -9 5153 3803 7 MP stroke
1 sg
-202 107 0 -394 27 0 113 77 5361 4106 5 MP
PP
0 sg
62 210 -202 107 0 -394 27 0 113 77 5361 4106 6 MP stroke
1 sg
-62 -210 290 -122 82 29 22 226 -186 170 5153 3803 6 MP
PP
0 sg
-146 -93 -62 -210 290 -122 82 29 22 226 -186 170 5153 3803 7 MP stroke
1 sg
146 93 2 9 -175 270 -175 -93 0 -172 5501 3789 6 MP
PP
0 sg
202 -107 146 93 2 9 -175 270 -175 -93 0 -172 5501 3789 7 MP stroke
1 sg
103 195 -290 122 -113 -77 127 -240 5347 4423 5 MP
PP
0 sg
173 0 103 195 -290 122 -113 -77 127 -240 5347 4423 6 MP stroke
1 sg
-113 148 -263 -133 215 -229 39 5 4622 1229 5 MP
PP
0 sg
122 209 -113 148 -263 -133 215 -229 39 5 4622 1229 6 MP stroke
1 sg
-101 -209 40 -110 221 -35 61 307 -12 18 5022 1292 6 MP
PP
0 sg
-209 29 -101 -209 40 -110 221 -35 61 307 -12 18 5022 1292 7 MP stroke
1 sg
-61 -307 13 -13 311 78 -28 183 4775 1369 5 MP
PP
0 sg
-235 59 -61 -307 13 -13 311 78 -28 183 4775 1369 6 MP stroke
1 sg
0 -481 34 0 168 290 -163 191 5462 1781 5 MP
PP
0 sg
-39 0 0 -481 34 0 168 290 -163 191 5462 1781 6 MP stroke
1 sg
-114 -135 28 -183 29 -24 224 34 55 183 -183 130 4622 1229 7 MP
PP
0 sg
-39 -5 -114 -135 28 -183 29 -24 224 34 55 183 -183 130 4622 1229 8 MP stroke
1 sg
296 187 4 10 -135 176 -224 -34 15 -330 4703 1906 6 MP
PP
0 sg
44 -9 296 187 4 10 -135 176 -224 -34 15 -330 4703 1906 7 MP stroke
1 sg
-41 -362 36 -8 285 165 -62 286 3839 3693 5 MP
PP
0 sg
-218 -81 -41 -362 36 -8 285 165 -62 286 3839 3693 6 MP stroke
1 sg
-113 65 -199 -111 224 -327 47 11 4098 4136 5 MP
PP
0 sg
41 362 -113 65 -199 -111 224 -327 47 11 4098 4136 6 MP stroke
1 sg
-312 308 -103 -242 79 -107 335 39 4300 4271 5 MP
PP
0 sg
1 2 -312 308 -103 -242 79 -107 335 39 4300 4271 6 MP stroke
1 sg
75 -204 208 0 41 113 -79 107 4714 4203 5 MP
PP
0 sg
-245 -16 75 -204 208 0 41 113 -79 107 4714 4203 6 MP stroke
1 sg
-168 -290 124 -97 247 75 8 204 -103 101 5191 1979 6 MP
PP
0 sg
-108 7 -168 -290 124 -97 247 75 8 204 -103 101 5191 1979 7 MP stroke
1 sg
-278 188 -156 -237 103 -101 271 60 4817 2020 5 MP
PP
0 sg
60 90 -278 188 -156 -237 103 -101 271 60 4817 2020 6 MP stroke
1 sg
209 -29 81 260 -278 63 -77 -54 -20 -100 5316 1123 6 MP
PP
0 sg
85 -140 209 -29 81 260 -278 63 -77 -54 -20 -100 5316 1123 7 MP stroke
1 sg
101 209 -85 140 -185 -81 0 -194 5501 1398 5 MP
PP
0 sg
169 -74 101 209 -85 140 -185 -81 0 -194 5501 1398 6 MP stroke
1 sg
166 133 -18 162 -146 82 -182 -142 0 -94 5501 2789 6 MP
PP
0 sg
180 -141 166 133 -18 162 -146 82 -182 -142 0 -94 5501 2789 7 MP stroke
1 sg
189 103 32 130 -220 108 -166 -133 5 -101 5316 3031 6 MP
PP
0 sg
160 -107 189 103 32 130 -220 108 -166 -133 5 -101 5316 3031 7 MP stroke
1 sg
150 74 -5 214 -160 107 -185 -149 0 -85 5501 3265 6 MP
PP
0 sg
200 -161 150 74 -5 214 -160 107 -185 -149 0 -85 5501 3265 7 MP stroke
1 sg
77 54 38 268 -80 106 -240 -158 0 -136 5501 889 6 MP
PP
0 sg
205 -134 77 54 38 268 -80 106 -240 -158 0 -136 5501 889 7 MP stroke
1 sg
-248 -322 20 -35 237 -130 182 342 -47 91 -133 57 2859 3796 7 MP
PP
0 sg
-11 -3 -248 -322 20 -35 237 -130 182 342 -47 91 -133 57 2859 3796 8 MP stroke
1 sg
-276 -172 123 -196 145 0 169 267 -20 35 -103 65 3221 4056 7 MP
PP
0 sg
-38 1 -276 -172 123 -196 145 0 169 267 -20 35 -103 65 3221 4056 8 MP stroke
1 sg
-190 68 -182 -342 2 -3 376 9 2483 4280 5 MP
PP
0 sg
-6 268 -190 68 -182 -342 2 -3 376 9 2483 4280 6 MP stroke
1 sg
-36 -377 103 -65 248 322 2870 3799 4 MP
PP
0 sg
-315 120 -36 -377 103 -65 248 322 2870 3799 5 MP stroke
gr

0 sg
%%IncludeResource: font Helvetica
/Helvetica /WindowsLatin1Encoding 120 FMSR

3225  123 mt 
(177 polygons) s
3010  239 mt 
(h) s
%%IncludeResource: font Helvetica
/Helvetica /WindowsLatin1Encoding 96 FMSR

3076  299 mt 
(mean) s
%%IncludeResource: font Helvetica
/Helvetica /WindowsLatin1Encoding 120 FMSR

3316  239 mt 
(=1.074517e-01) s

end %%Color Dict

eplot
%%EndObject

epage
end

showpage

%%Trailer
%%EOF
