%!PS-Adobe-3.0 EPSF-3.0
%%Creator: MATLAB, The MathWorks, Inc. Version 8.2.0.701 (R2013b). Operating System: Darwin 13.0.0 Darwin Kernel Version 13.0.0: Thu Sep 19 22:22:27 PDT 2013; root:xnu-2422.1.72~6/RELEASE_X86_64 x86_64.
%%Title: /Users/russo/Desktop/matlab/mimetici-NEW/meshes/documentation/mesh.eps
%%CreationDate: 11/05/2013  12:58:51
%%DocumentNeededFonts: Helvetica
%%DocumentProcessColors: Cyan Magenta Yellow Black
%%LanguageLevel: 2
%%Pages: 1
%%BoundingBox:    26   186   585   606
%%EndComments

%%BeginProlog
% MathWorks dictionary
/MathWorks 160 dict begin
% definition operators
/bdef {bind def} bind def
/ldef {load def} bind def
/xdef {exch def} bdef
/xstore {exch store} bdef
% operator abbreviations
/c  /clip ldef
/cc /concat ldef
/cp /closepath ldef
/gr /grestore ldef
/gs /gsave ldef
/mt /moveto ldef
/np /newpath ldef
/cm /currentmatrix ldef
/sm /setmatrix ldef
/rm /rmoveto ldef
/rl /rlineto ldef
/s {show newpath} bdef
/sc {setcmykcolor} bdef
/sr /setrgbcolor ldef
/sg /setgray ldef
/w /setlinewidth ldef
/j /setlinejoin ldef
/cap /setlinecap ldef
/rc {rectclip} bdef
/rf {rectfill} bdef
% page state control
/pgsv () def
/bpage {/pgsv save def} bdef
/epage {pgsv restore} bdef
/bplot /gsave ldef
/eplot {stroke grestore} bdef
% orientation switch
/portraitMode 0 def /landscapeMode 1 def /rotateMode 2 def
% coordinate system mappings
/dpi2point 0 def
% font control
/FontSize 0 def
/FMS {/FontSize xstore findfont [FontSize 0 0 FontSize neg 0 0]
  makefont setfont} bdef
/reencode {exch dup where {pop load} {pop StandardEncoding} ifelse
  exch dup 3 1 roll findfont dup length dict begin
  { 1 index /FID ne {def}{pop pop} ifelse } forall
  /Encoding exch def currentdict end definefont pop} bdef
/isroman {findfont /CharStrings get /Agrave known} bdef
/FMSR {3 1 roll 1 index dup isroman {reencode} {pop pop} ifelse
  exch FMS} bdef
/csm {1 dpi2point div -1 dpi2point div scale neg translate
 dup landscapeMode eq {pop -90 rotate}
  {rotateMode eq {90 rotate} if} ifelse} bdef
% line types: solid, dotted, dashed, dotdash
/SO { [] 0 setdash } bdef
/DO { [.5 dpi2point mul 4 dpi2point mul] 0 setdash } bdef
/DA { [6 dpi2point mul] 0 setdash } bdef
/DD { [.5 dpi2point mul 4 dpi2point mul 6 dpi2point mul 4
  dpi2point mul] 0 setdash } bdef
% macros for lines and objects
/L {lineto stroke} bdef
/MP {3 1 roll moveto 1 sub {rlineto} repeat} bdef
/AP {{rlineto} repeat} bdef
/PDlw -1 def
/W {/PDlw currentlinewidth def setlinewidth} def
/PP {closepath eofill} bdef
/DP {closepath stroke} bdef
/MR {4 -2 roll moveto dup  0 exch rlineto exch 0 rlineto
  neg 0 exch rlineto closepath} bdef
/FR {MR stroke} bdef
/PR {MR fill} bdef
/L1i {{currentfile picstr readhexstring pop} image} bdef
/tMatrix matrix def
/MakeOval {newpath tMatrix currentmatrix pop translate scale
0 0 1 0 360 arc tMatrix setmatrix} bdef
/FO {MakeOval stroke} bdef
/PO {MakeOval fill} bdef
/PD {currentlinewidth 2 div 0 360 arc fill
   PDlw -1 eq not {PDlw w /PDlw -1 def} if} def
/FA {newpath tMatrix currentmatrix pop translate scale
  0 0 1 5 -2 roll arc tMatrix setmatrix stroke} bdef
/PA {newpath tMatrix currentmatrix pop	translate 0 0 moveto scale
  0 0 1 5 -2 roll arc closepath tMatrix setmatrix fill} bdef
/FAn {newpath tMatrix currentmatrix pop translate scale
  0 0 1 5 -2 roll arcn tMatrix setmatrix stroke} bdef
/PAn {newpath tMatrix currentmatrix pop translate 0 0 moveto scale
  0 0 1 5 -2 roll arcn closepath tMatrix setmatrix fill} bdef
/vradius 0 def /hradius 0 def /lry 0 def
/lrx 0 def /uly 0 def /ulx 0 def /rad 0 def
/MRR {/vradius xdef /hradius xdef /lry xdef /lrx xdef /uly xdef
  /ulx xdef newpath tMatrix currentmatrix pop ulx hradius add uly
  vradius add translate hradius vradius scale 0 0 1 180 270 arc 
  tMatrix setmatrix lrx hradius sub uly vradius add translate
  hradius vradius scale 0 0 1 270 360 arc tMatrix setmatrix
  lrx hradius sub lry vradius sub translate hradius vradius scale
  0 0 1 0 90 arc tMatrix setmatrix ulx hradius add lry vradius sub
  translate hradius vradius scale 0 0 1 90 180 arc tMatrix setmatrix
  closepath} bdef
/FRR {MRR stroke } bdef
/PRR {MRR fill } bdef
/MlrRR {/lry xdef /lrx xdef /uly xdef /ulx xdef /rad lry uly sub 2 div def
  newpath tMatrix currentmatrix pop ulx rad add uly rad add translate
  rad rad scale 0 0 1 90 270 arc tMatrix setmatrix lrx rad sub lry rad
  sub translate rad rad scale 0 0 1 270 90 arc tMatrix setmatrix
  closepath} bdef
/FlrRR {MlrRR stroke } bdef
/PlrRR {MlrRR fill } bdef
/MtbRR {/lry xdef /lrx xdef /uly xdef /ulx xdef /rad lrx ulx sub 2 div def
  newpath tMatrix currentmatrix pop ulx rad add uly rad add translate
  rad rad scale 0 0 1 180 360 arc tMatrix setmatrix lrx rad sub lry rad
  sub translate rad rad scale 0 0 1 0 180 arc tMatrix setmatrix
  closepath} bdef
/FtbRR {MtbRR stroke } bdef
/PtbRR {MtbRR fill } bdef
/stri 6 array def /dtri 6 array def
/smat 6 array def /dmat 6 array def
/tmat1 6 array def /tmat2 6 array def /dif 3 array def
/asub {/ind2 exch def /ind1 exch def dup dup
  ind1 get exch ind2 get sub exch } bdef
/tri_to_matrix {
  2 0 asub 3 1 asub 4 0 asub 5 1 asub
  dup 0 get exch 1 get 7 -1 roll astore } bdef
/compute_transform {
  dmat dtri tri_to_matrix tmat1 invertmatrix 
  smat stri tri_to_matrix tmat2 concatmatrix } bdef
/ds {stri astore pop} bdef
/dt {dtri astore pop} bdef
/db {2 copy /cols xdef /rows xdef mul dup 3 mul string
  currentfile 
  3 index 0 eq {/ASCIIHexDecode filter}
  {/ASCII85Decode filter 3 index 2 eq {/RunLengthDecode filter} if }
  ifelse exch readstring pop
  dup 0 3 index getinterval /rbmap xdef
  dup 2 index dup getinterval /gbmap xdef
  1 index dup 2 mul exch getinterval /bbmap xdef pop pop}bdef
/it {gs np dtri aload pop moveto lineto lineto cp c
  cols rows 8 compute_transform 
  rbmap gbmap bbmap true 3 colorimage gr}bdef
/il {newpath moveto lineto stroke}bdef
currentdict end def
%%EndProlog

%%BeginSetup
MathWorks begin

0 cap

end
%%EndSetup

%%Page: 1 1
%%BeginPageSetup
%%PageBoundingBox:    26   186   585   606
MathWorks begin
bpage
%%EndPageSetup

%%BeginObject: obj1
bplot

/dpi2point 12 def
portraitMode 0312 7272 csm

    0     0  6719  5033 rc
85 dict begin %Colortable dictionary
/c0 { 0.000000 0.000000 0.000000 sr} bdef
/c1 { 1.000000 1.000000 1.000000 sr} bdef
/c2 { 0.900000 0.000000 0.000000 sr} bdef
/c3 { 0.000000 0.820000 0.000000 sr} bdef
/c4 { 0.000000 0.000000 0.800000 sr} bdef
/c5 { 0.910000 0.820000 0.320000 sr} bdef
/c6 { 1.000000 0.260000 0.820000 sr} bdef
/c7 { 0.000000 0.820000 0.820000 sr} bdef
c0
1 j
1 sg
   0    0 6720 5034 rf
6 w
0 4103 4102 0 0 -4103 1426 4479 4 MP
PP
-4102 0 0 4103 4102 0 0 -4103 1426 4479 5 MP stroke
4 w
DO
SO
6 w
0 sg
1426 4479 mt 5528 4479 L
1426 4479 mt 1426  376 L
1612 4479 mt 1612 4437 L
%%IncludeResource: font Helvetica
/Helvetica /ISOLatin1Encoding 120 FMSR

1579 4624 mt 
(0) s
1985 4479 mt 1985 4437 L
1902 4624 mt 
(0.1) s
2358 4479 mt 2358 4437 L
2275 4624 mt 
(0.2) s
2731 4479 mt 2731 4437 L
2648 4624 mt 
(0.3) s
3104 4479 mt 3104 4437 L
3021 4624 mt 
(0.4) s
3477 4479 mt 3477 4437 L
3394 4624 mt 
(0.5) s
3849 4479 mt 3849 4437 L
3766 4624 mt 
(0.6) s
4222 4479 mt 4222 4437 L
4139 4624 mt 
(0.7) s
4595 4479 mt 4595 4437 L
4512 4624 mt 
(0.8) s
4968 4479 mt 4968 4437 L
4885 4624 mt 
(0.9) s
5341 4479 mt 5341 4437 L
5308 4624 mt 
(1) s
1426 4292 mt 1467 4292 L
1325 4336 mt 
(0) s
1426 3919 mt 1467 3919 L
1225 3963 mt 
(0.1) s
1426 3546 mt 1467 3546 L
1225 3590 mt 
(0.2) s
1426 3173 mt 1467 3173 L
1225 3217 mt 
(0.3) s
1426 2800 mt 1467 2800 L
1225 2844 mt 
(0.4) s
1426 2427 mt 1467 2427 L
1225 2471 mt 
(0.5) s
1426 2055 mt 1467 2055 L
1225 2099 mt 
(0.6) s
1426 1682 mt 1467 1682 L
1225 1726 mt 
(0.7) s
1426 1309 mt 1467 1309 L
1225 1353 mt 
(0.8) s
1426  936 mt 1467  936 L
1225  980 mt 
(0.9) s
1426  563 mt 1467  563 L
1325  607 mt 
(1) s
gs 1426 376 4103 4104 rc
1 sg
-1865 0 0 -1865 1865 0 1612 4292 4 MP
PP
0 sg
0 1865 -1865 0 0 -1865 1865 0 1612 4292 5 MP stroke
1 sg
-1864 0 0 -1865 1864 0 3477 4292 4 MP
PP
0 sg
0 1865 -1864 0 0 -1865 1864 0 3477 4292 5 MP stroke
1 sg
-1865 0 0 -1864 1865 0 1612 2427 4 MP
PP
0 sg
0 1864 -1865 0 0 -1864 1865 0 1612 2427 5 MP stroke
1 sg
-1864 0 0 -1864 1864 0 3477 2427 4 MP
PP
0 sg
0 1864 -1864 0 0 -1864 1864 0 3477 2427 5 MP stroke
gr

3188  111 mt 
(4 polygons) s
2907  227 mt 
(h) s
%%IncludeResource: font Helvetica
/Helvetica /ISOLatin1Encoding 96 FMSR

2973  287 mt 
(mean) s
%%IncludeResource: font Helvetica
/Helvetica /ISOLatin1Encoding 120 FMSR

3213  227 mt 
(=7.071068e-01) s
1 sg
-114 0 0 -186 114 0 1555 4385 4 MP
PP
/c8 { 0.000000 0.000000 1.000000 sr} bdef
c8
1579 4334 mt 
(1) s
1 sg
-114 0 0 -186 114 0 3420 4385 4 MP
PP
c8
3444 4334 mt 
(2) s
1 sg
-114 0 0 -186 114 0 5284 4385 4 MP
PP
c8
5308 4334 mt 
(3) s
1 sg
-114 0 0 -186 114 0 1555 2520 4 MP
PP
c8
1579 2469 mt 
(4) s
1 sg
-114 0 0 -186 114 0 3420 2520 4 MP
PP
c8
3444 2469 mt 
(5) s
1 sg
-114 0 0 -186 114 0 5284 2520 4 MP
PP
c8
5308 2469 mt 
(6) s
1 sg
-114 0 0 -186 114 0 1555 656 4 MP
PP
c8
1579  605 mt 
(7) s
1 sg
-114 0 0 -186 114 0 3420 656 4 MP
PP
c8
3444  605 mt 
(8) s
1 sg
-114 0 0 -186 114 0 5284 656 4 MP
PP
c8
5308  605 mt 
(9) s
/c9 { 1.000000 0.000000 0.000000 sr} bdef
c9
2511 3402 mt 
(1) s
4376 3402 mt 
(2) s
2511 1537 mt 
(3) s
4376 1537 mt 
(4) s

end %%Color Dict

eplot
%%EndObject

epage
end

showpage

%%Trailer
%%EOF
