%!PS-Adobe-3.0 EPSF-3.0
%%Creator: MATLAB, The MathWorks, Inc. Version 7.13.0.564 (R2011b). Operating System: Microsoft Windows 7.
%%Title: .\quadrati40x40.eps
%%CreationDate: 07/05/2012  18:27:00
%%DocumentNeededFonts: Helvetica
%%DocumentProcessColors: Cyan Magenta Yellow Black
%%LanguageLevel: 2
%%Pages: 1
%%BoundingBox:    76   215   543   583
%%EndComments

%%BeginProlog
% MathWorks dictionary
/MathWorks 160 dict begin
% definition operators
/bdef {bind def} bind def
/ldef {load def} bind def
/xdef {exch def} bdef
/xstore {exch store} bdef
% operator abbreviations
/c  /clip ldef
/cc /concat ldef
/cp /closepath ldef
/gr /grestore ldef
/gs /gsave ldef
/mt /moveto ldef
/np /newpath ldef
/cm /currentmatrix ldef
/sm /setmatrix ldef
/rm /rmoveto ldef
/rl /rlineto ldef
/s {show newpath} bdef
/sc {setcmykcolor} bdef
/sr /setrgbcolor ldef
/sg /setgray ldef
/w /setlinewidth ldef
/j /setlinejoin ldef
/cap /setlinecap ldef
/rc {rectclip} bdef
/rf {rectfill} bdef
% page state control
/pgsv () def
/bpage {/pgsv save def} bdef
/epage {pgsv restore} bdef
/bplot /gsave ldef
/eplot {stroke grestore} bdef
% orientation switch
/portraitMode 0 def /landscapeMode 1 def /rotateMode 2 def
% coordinate system mappings
/dpi2point 0 def
% font control
/FontSize 0 def
/FMS {/FontSize xstore findfont [FontSize 0 0 FontSize neg 0 0]
  makefont setfont} bdef
/ISOLatin1Encoding where {pop /WindowsLatin1Encoding 256 array bdef
ISOLatin1Encoding WindowsLatin1Encoding copy pop
/.notdef/.notdef/quotesinglbase/florin/quotedblbase/ellipsis/dagger
/daggerdbl/circumflex/perthousand/Scaron/guilsinglleft/OE/.notdef/.notdef
/.notdef/.notdef/quoteleft/quoteright/quotedblleft/quotedblright/bullet
/endash/emdash/tilde/trademark/scaron/guilsinglright/oe/.notdef/.notdef
/Ydieresis WindowsLatin1Encoding 128 32 getinterval astore pop}
{/WindowsLatin1Encoding StandardEncoding bdef} ifelse
/reencode {exch dup where {pop load} {pop StandardEncoding} ifelse
  exch dup 3 1 roll findfont dup length dict begin
  { 1 index /FID ne {def}{pop pop} ifelse } forall
  /Encoding exch def currentdict end definefont pop} bdef
/isroman {findfont /CharStrings get /Agrave known} bdef
/FMSR {3 1 roll 1 index dup isroman {reencode} {pop pop} ifelse
  exch FMS} bdef
/csm {1 dpi2point div -1 dpi2point div scale neg translate
 dup landscapeMode eq {pop -90 rotate}
  {rotateMode eq {90 rotate} if} ifelse} bdef
% line types: solid, dotted, dashed, dotdash
/SO { [] 0 setdash } bdef
/DO { [.5 dpi2point mul 4 dpi2point mul] 0 setdash } bdef
/DA { [6 dpi2point mul] 0 setdash } bdef
/DD { [.5 dpi2point mul 4 dpi2point mul 6 dpi2point mul 4
  dpi2point mul] 0 setdash } bdef
% macros for lines and objects
/L {lineto stroke} bdef
/MP {3 1 roll moveto 1 sub {rlineto} repeat} bdef
/AP {{rlineto} repeat} bdef
/PDlw -1 def
/W {/PDlw currentlinewidth def setlinewidth} def
/PP {closepath eofill} bdef
/DP {closepath stroke} bdef
/MR {4 -2 roll moveto dup  0 exch rlineto exch 0 rlineto
  neg 0 exch rlineto closepath} bdef
/FR {MR stroke} bdef
/PR {MR fill} bdef
/L1i {{currentfile picstr readhexstring pop} image} bdef
/tMatrix matrix def
/MakeOval {newpath tMatrix currentmatrix pop translate scale
0 0 1 0 360 arc tMatrix setmatrix} bdef
/FO {MakeOval stroke} bdef
/PO {MakeOval fill} bdef
/PD {currentlinewidth 2 div 0 360 arc fill
   PDlw -1 eq not {PDlw w /PDlw -1 def} if} def
/FA {newpath tMatrix currentmatrix pop translate scale
  0 0 1 5 -2 roll arc tMatrix setmatrix stroke} bdef
/PA {newpath tMatrix currentmatrix pop	translate 0 0 moveto scale
  0 0 1 5 -2 roll arc closepath tMatrix setmatrix fill} bdef
/FAn {newpath tMatrix currentmatrix pop translate scale
  0 0 1 5 -2 roll arcn tMatrix setmatrix stroke} bdef
/PAn {newpath tMatrix currentmatrix pop translate 0 0 moveto scale
  0 0 1 5 -2 roll arcn closepath tMatrix setmatrix fill} bdef
/vradius 0 def /hradius 0 def /lry 0 def
/lrx 0 def /uly 0 def /ulx 0 def /rad 0 def
/MRR {/vradius xdef /hradius xdef /lry xdef /lrx xdef /uly xdef
  /ulx xdef newpath tMatrix currentmatrix pop ulx hradius add uly
  vradius add translate hradius vradius scale 0 0 1 180 270 arc 
  tMatrix setmatrix lrx hradius sub uly vradius add translate
  hradius vradius scale 0 0 1 270 360 arc tMatrix setmatrix
  lrx hradius sub lry vradius sub translate hradius vradius scale
  0 0 1 0 90 arc tMatrix setmatrix ulx hradius add lry vradius sub
  translate hradius vradius scale 0 0 1 90 180 arc tMatrix setmatrix
  closepath} bdef
/FRR {MRR stroke } bdef
/PRR {MRR fill } bdef
/MlrRR {/lry xdef /lrx xdef /uly xdef /ulx xdef /rad lry uly sub 2 div def
  newpath tMatrix currentmatrix pop ulx rad add uly rad add translate
  rad rad scale 0 0 1 90 270 arc tMatrix setmatrix lrx rad sub lry rad
  sub translate rad rad scale 0 0 1 270 90 arc tMatrix setmatrix
  closepath} bdef
/FlrRR {MlrRR stroke } bdef
/PlrRR {MlrRR fill } bdef
/MtbRR {/lry xdef /lrx xdef /uly xdef /ulx xdef /rad lrx ulx sub 2 div def
  newpath tMatrix currentmatrix pop ulx rad add uly rad add translate
  rad rad scale 0 0 1 180 360 arc tMatrix setmatrix lrx rad sub lry rad
  sub translate rad rad scale 0 0 1 0 180 arc tMatrix setmatrix
  closepath} bdef
/FtbRR {MtbRR stroke } bdef
/PtbRR {MtbRR fill } bdef
/stri 6 array def /dtri 6 array def
/smat 6 array def /dmat 6 array def
/tmat1 6 array def /tmat2 6 array def /dif 3 array def
/asub {/ind2 exch def /ind1 exch def dup dup
  ind1 get exch ind2 get sub exch } bdef
/tri_to_matrix {
  2 0 asub 3 1 asub 4 0 asub 5 1 asub
  dup 0 get exch 1 get 7 -1 roll astore } bdef
/compute_transform {
  dmat dtri tri_to_matrix tmat1 invertmatrix 
  smat stri tri_to_matrix tmat2 concatmatrix } bdef
/ds {stri astore pop} bdef
/dt {dtri astore pop} bdef
/db {2 copy /cols xdef /rows xdef mul dup 3 mul string
  currentfile 
  3 index 0 eq {/ASCIIHexDecode filter}
  {/ASCII85Decode filter 3 index 2 eq {/RunLengthDecode filter} if }
  ifelse exch readstring pop
  dup 0 3 index getinterval /rbmap xdef
  dup 2 index dup getinterval /gbmap xdef
  1 index dup 2 mul exch getinterval /bbmap xdef pop pop}bdef
/it {gs np dtri aload pop moveto lineto lineto cp c
  cols rows 8 compute_transform 
  rbmap gbmap bbmap true 3 colorimage gr}bdef
/il {newpath moveto lineto stroke}bdef
currentdict end def
%%EndProlog

%%BeginSetup
MathWorks begin

0 cap

end
%%EndSetup

%%Page: 1 1
%%BeginPageSetup
%%PageBoundingBox:    76   215   543   583
MathWorks begin
bpage
%%EndPageSetup

%%BeginObject: obj1
bplot

/dpi2point 12 def
portraitMode 0216 7344 csm

  699   341  5610  4421 rc
85 dict begin %Colortable dictionary
/c0 { 0.000000 0.000000 0.000000 sr} bdef
/c1 { 1.000000 1.000000 1.000000 sr} bdef
/c2 { 0.900000 0.000000 0.000000 sr} bdef
/c3 { 0.000000 0.820000 0.000000 sr} bdef
/c4 { 0.000000 0.000000 0.800000 sr} bdef
/c5 { 0.910000 0.820000 0.320000 sr} bdef
/c6 { 1.000000 0.260000 0.820000 sr} bdef
/c7 { 0.000000 0.820000 0.820000 sr} bdef
c0
1 j
1 sg
   0    0 6919 5187 rf
6 w
0 4227 5359 0 0 -4227 900 4616 4 MP
PP
-5359 0 0 4227 5359 0 0 -4227 900 4616 5 MP stroke
4 w
DO
SO
6 w
0 sg
 900 4616 mt 6259 4616 L
 900 4616 mt  900  389 L
1114 4616 mt 1114 4562 L
%%IncludeResource: font Helvetica
/Helvetica /WindowsLatin1Encoding 120 FMSR

 961 4761 mt 
(-0.2) s
1818 4616 mt 1818 4562 L
1785 4761 mt 
(0) s
2523 4616 mt 2523 4562 L
2440 4761 mt 
(0.2) s
3227 4616 mt 3227 4562 L
3144 4761 mt 
(0.4) s
3932 4616 mt 3932 4562 L
3849 4761 mt 
(0.6) s
4636 4616 mt 4636 4562 L
4553 4761 mt 
(0.8) s
5341 4616 mt 5341 4562 L
5308 4761 mt 
(1) s
6045 4616 mt 6045 4562 L
5962 4761 mt 
(1.2) s
 900 4263 mt  953 4263 L
 799 4307 mt 
(0) s
 900 3559 mt  953 3559 L
 699 3603 mt 
(0.2) s
 900 2854 mt  953 2854 L
 699 2898 mt 
(0.4) s
 900 2150 mt  953 2150 L
 699 2194 mt 
(0.6) s
 900 1445 mt  953 1445 L
 699 1489 mt 
(0.8) s
 900  741 mt  953  741 L
 799  785 mt 
(1) s
gs 900 389 5360 4228 rc
0 88 -88 0 0 -88 88 0 1818 4263 5 MP stroke
0 88 -88 0 0 -88 88 0 1906 4263 5 MP stroke
0 88 -88 0 0 -88 88 0 1994 4263 5 MP stroke
0 88 -89 0 0 -88 89 0 2082 4263 5 MP stroke
0 88 -88 0 0 -88 88 0 2171 4263 5 MP stroke
0 88 -88 0 0 -88 88 0 2259 4263 5 MP stroke
0 88 -88 0 0 -88 88 0 2347 4263 5 MP stroke
0 88 -88 0 0 -88 88 0 2435 4263 5 MP stroke
0 88 -88 0 0 -88 88 0 2523 4263 5 MP stroke
0 88 -88 0 0 -88 88 0 2611 4263 5 MP stroke
0 88 -88 0 0 -88 88 0 2699 4263 5 MP stroke
0 88 -88 0 0 -88 88 0 2787 4263 5 MP stroke
0 88 -88 0 0 -88 88 0 2875 4263 5 MP stroke
0 88 -88 0 0 -88 88 0 2963 4263 5 MP stroke
0 88 -88 0 0 -88 88 0 3051 4263 5 MP stroke
0 88 -88 0 0 -88 88 0 3139 4263 5 MP stroke
0 88 -88 0 0 -88 88 0 3227 4263 5 MP stroke
0 88 -88 0 0 -88 88 0 3315 4263 5 MP stroke
0 88 -88 0 0 -88 88 0 3403 4263 5 MP stroke
0 88 -89 0 0 -88 89 0 3491 4263 5 MP stroke
0 88 -88 0 0 -88 88 0 3580 4263 5 MP stroke
0 88 -88 0 0 -88 88 0 3668 4263 5 MP stroke
0 88 -88 0 0 -88 88 0 3756 4263 5 MP stroke
0 88 -88 0 0 -88 88 0 3844 4263 5 MP stroke
0 88 -88 0 0 -88 88 0 3932 4263 5 MP stroke
0 88 -88 0 0 -88 88 0 4020 4263 5 MP stroke
0 88 -88 0 0 -88 88 0 4108 4263 5 MP stroke
0 88 -88 0 0 -88 88 0 4196 4263 5 MP stroke
0 88 -88 0 0 -88 88 0 4284 4263 5 MP stroke
0 88 -88 0 0 -88 88 0 4372 4263 5 MP stroke
0 88 -88 0 0 -88 88 0 4460 4263 5 MP stroke
0 88 -88 0 0 -88 88 0 4548 4263 5 MP stroke
0 88 -88 0 0 -88 88 0 4636 4263 5 MP stroke
0 88 -88 0 0 -88 88 0 4724 4263 5 MP stroke
0 88 -88 0 0 -88 88 0 4812 4263 5 MP stroke
0 88 -89 0 0 -88 89 0 4900 4263 5 MP stroke
0 88 -88 0 0 -88 88 0 4989 4263 5 MP stroke
0 88 -88 0 0 -88 88 0 5077 4263 5 MP stroke
0 88 -88 0 0 -88 88 0 5165 4263 5 MP stroke
0 88 -88 0 0 -88 88 0 5253 4263 5 MP stroke
0 88 -88 0 0 -88 88 0 1818 4175 5 MP stroke
0 88 -88 0 0 -88 88 0 1906 4175 5 MP stroke
0 88 -88 0 0 -88 88 0 1994 4175 5 MP stroke
0 88 -89 0 0 -88 89 0 2082 4175 5 MP stroke
0 88 -88 0 0 -88 88 0 2171 4175 5 MP stroke
0 88 -88 0 0 -88 88 0 2259 4175 5 MP stroke
0 88 -88 0 0 -88 88 0 2347 4175 5 MP stroke
0 88 -88 0 0 -88 88 0 2435 4175 5 MP stroke
0 88 -88 0 0 -88 88 0 2523 4175 5 MP stroke
0 88 -88 0 0 -88 88 0 2611 4175 5 MP stroke
0 88 -88 0 0 -88 88 0 2699 4175 5 MP stroke
0 88 -88 0 0 -88 88 0 2787 4175 5 MP stroke
0 88 -88 0 0 -88 88 0 2875 4175 5 MP stroke
0 88 -88 0 0 -88 88 0 2963 4175 5 MP stroke
0 88 -88 0 0 -88 88 0 3051 4175 5 MP stroke
0 88 -88 0 0 -88 88 0 3139 4175 5 MP stroke
0 88 -88 0 0 -88 88 0 3227 4175 5 MP stroke
0 88 -88 0 0 -88 88 0 3315 4175 5 MP stroke
0 88 -88 0 0 -88 88 0 3403 4175 5 MP stroke
0 88 -89 0 0 -88 89 0 3491 4175 5 MP stroke
0 88 -88 0 0 -88 88 0 3580 4175 5 MP stroke
0 88 -88 0 0 -88 88 0 3668 4175 5 MP stroke
0 88 -88 0 0 -88 88 0 3756 4175 5 MP stroke
0 88 -88 0 0 -88 88 0 3844 4175 5 MP stroke
0 88 -88 0 0 -88 88 0 3932 4175 5 MP stroke
0 88 -88 0 0 -88 88 0 4020 4175 5 MP stroke
0 88 -88 0 0 -88 88 0 4108 4175 5 MP stroke
0 88 -88 0 0 -88 88 0 4196 4175 5 MP stroke
0 88 -88 0 0 -88 88 0 4284 4175 5 MP stroke
0 88 -88 0 0 -88 88 0 4372 4175 5 MP stroke
0 88 -88 0 0 -88 88 0 4460 4175 5 MP stroke
0 88 -88 0 0 -88 88 0 4548 4175 5 MP stroke
0 88 -88 0 0 -88 88 0 4636 4175 5 MP stroke
0 88 -88 0 0 -88 88 0 4724 4175 5 MP stroke
0 88 -88 0 0 -88 88 0 4812 4175 5 MP stroke
0 88 -89 0 0 -88 89 0 4900 4175 5 MP stroke
0 88 -88 0 0 -88 88 0 4989 4175 5 MP stroke
0 88 -88 0 0 -88 88 0 5077 4175 5 MP stroke
0 88 -88 0 0 -88 88 0 5165 4175 5 MP stroke
0 88 -88 0 0 -88 88 0 5253 4175 5 MP stroke
0 88 -88 0 0 -88 88 0 1818 4087 5 MP stroke
0 88 -88 0 0 -88 88 0 1906 4087 5 MP stroke
0 88 -88 0 0 -88 88 0 1994 4087 5 MP stroke
0 88 -89 0 0 -88 89 0 2082 4087 5 MP stroke
0 88 -88 0 0 -88 88 0 2171 4087 5 MP stroke
0 88 -88 0 0 -88 88 0 2259 4087 5 MP stroke
0 88 -88 0 0 -88 88 0 2347 4087 5 MP stroke
0 88 -88 0 0 -88 88 0 2435 4087 5 MP stroke
0 88 -88 0 0 -88 88 0 2523 4087 5 MP stroke
0 88 -88 0 0 -88 88 0 2611 4087 5 MP stroke
0 88 -88 0 0 -88 88 0 2699 4087 5 MP stroke
0 88 -88 0 0 -88 88 0 2787 4087 5 MP stroke
0 88 -88 0 0 -88 88 0 2875 4087 5 MP stroke
0 88 -88 0 0 -88 88 0 2963 4087 5 MP stroke
0 88 -88 0 0 -88 88 0 3051 4087 5 MP stroke
0 88 -88 0 0 -88 88 0 3139 4087 5 MP stroke
0 88 -88 0 0 -88 88 0 3227 4087 5 MP stroke
0 88 -88 0 0 -88 88 0 3315 4087 5 MP stroke
0 88 -88 0 0 -88 88 0 3403 4087 5 MP stroke
0 88 -89 0 0 -88 89 0 3491 4087 5 MP stroke
0 88 -88 0 0 -88 88 0 3580 4087 5 MP stroke
0 88 -88 0 0 -88 88 0 3668 4087 5 MP stroke
0 88 -88 0 0 -88 88 0 3756 4087 5 MP stroke
0 88 -88 0 0 -88 88 0 3844 4087 5 MP stroke
0 88 -88 0 0 -88 88 0 3932 4087 5 MP stroke
0 88 -88 0 0 -88 88 0 4020 4087 5 MP stroke
0 88 -88 0 0 -88 88 0 4108 4087 5 MP stroke
0 88 -88 0 0 -88 88 0 4196 4087 5 MP stroke
0 88 -88 0 0 -88 88 0 4284 4087 5 MP stroke
0 88 -88 0 0 -88 88 0 4372 4087 5 MP stroke
0 88 -88 0 0 -88 88 0 4460 4087 5 MP stroke
0 88 -88 0 0 -88 88 0 4548 4087 5 MP stroke
0 88 -88 0 0 -88 88 0 4636 4087 5 MP stroke
0 88 -88 0 0 -88 88 0 4724 4087 5 MP stroke
0 88 -88 0 0 -88 88 0 4812 4087 5 MP stroke
0 88 -89 0 0 -88 89 0 4900 4087 5 MP stroke
0 88 -88 0 0 -88 88 0 4989 4087 5 MP stroke
0 88 -88 0 0 -88 88 0 5077 4087 5 MP stroke
0 88 -88 0 0 -88 88 0 5165 4087 5 MP stroke
0 88 -88 0 0 -88 88 0 5253 4087 5 MP stroke
0 88 -88 0 0 -88 88 0 1818 3999 5 MP stroke
0 88 -88 0 0 -88 88 0 1906 3999 5 MP stroke
0 88 -88 0 0 -88 88 0 1994 3999 5 MP stroke
0 88 -89 0 0 -88 89 0 2082 3999 5 MP stroke
0 88 -88 0 0 -88 88 0 2171 3999 5 MP stroke
0 88 -88 0 0 -88 88 0 2259 3999 5 MP stroke
0 88 -88 0 0 -88 88 0 2347 3999 5 MP stroke
0 88 -88 0 0 -88 88 0 2435 3999 5 MP stroke
0 88 -88 0 0 -88 88 0 2523 3999 5 MP stroke
0 88 -88 0 0 -88 88 0 2611 3999 5 MP stroke
0 88 -88 0 0 -88 88 0 2699 3999 5 MP stroke
0 88 -88 0 0 -88 88 0 2787 3999 5 MP stroke
0 88 -88 0 0 -88 88 0 2875 3999 5 MP stroke
0 88 -88 0 0 -88 88 0 2963 3999 5 MP stroke
0 88 -88 0 0 -88 88 0 3051 3999 5 MP stroke
0 88 -88 0 0 -88 88 0 3139 3999 5 MP stroke
0 88 -88 0 0 -88 88 0 3227 3999 5 MP stroke
0 88 -88 0 0 -88 88 0 3315 3999 5 MP stroke
0 88 -88 0 0 -88 88 0 3403 3999 5 MP stroke
0 88 -89 0 0 -88 89 0 3491 3999 5 MP stroke
0 88 -88 0 0 -88 88 0 3580 3999 5 MP stroke
0 88 -88 0 0 -88 88 0 3668 3999 5 MP stroke
0 88 -88 0 0 -88 88 0 3756 3999 5 MP stroke
0 88 -88 0 0 -88 88 0 3844 3999 5 MP stroke
0 88 -88 0 0 -88 88 0 3932 3999 5 MP stroke
0 88 -88 0 0 -88 88 0 4020 3999 5 MP stroke
0 88 -88 0 0 -88 88 0 4108 3999 5 MP stroke
0 88 -88 0 0 -88 88 0 4196 3999 5 MP stroke
0 88 -88 0 0 -88 88 0 4284 3999 5 MP stroke
0 88 -88 0 0 -88 88 0 4372 3999 5 MP stroke
0 88 -88 0 0 -88 88 0 4460 3999 5 MP stroke
0 88 -88 0 0 -88 88 0 4548 3999 5 MP stroke
0 88 -88 0 0 -88 88 0 4636 3999 5 MP stroke
0 88 -88 0 0 -88 88 0 4724 3999 5 MP stroke
0 88 -88 0 0 -88 88 0 4812 3999 5 MP stroke
0 88 -89 0 0 -88 89 0 4900 3999 5 MP stroke
0 88 -88 0 0 -88 88 0 4989 3999 5 MP stroke
0 88 -88 0 0 -88 88 0 5077 3999 5 MP stroke
0 88 -88 0 0 -88 88 0 5165 3999 5 MP stroke
0 88 -88 0 0 -88 88 0 5253 3999 5 MP stroke
0 88 -88 0 0 -88 88 0 1818 3911 5 MP stroke
0 88 -88 0 0 -88 88 0 1906 3911 5 MP stroke
0 88 -88 0 0 -88 88 0 1994 3911 5 MP stroke
0 88 -89 0 0 -88 89 0 2082 3911 5 MP stroke
0 88 -88 0 0 -88 88 0 2171 3911 5 MP stroke
0 88 -88 0 0 -88 88 0 2259 3911 5 MP stroke
0 88 -88 0 0 -88 88 0 2347 3911 5 MP stroke
0 88 -88 0 0 -88 88 0 2435 3911 5 MP stroke
0 88 -88 0 0 -88 88 0 2523 3911 5 MP stroke
0 88 -88 0 0 -88 88 0 2611 3911 5 MP stroke
0 88 -88 0 0 -88 88 0 2699 3911 5 MP stroke
0 88 -88 0 0 -88 88 0 2787 3911 5 MP stroke
0 88 -88 0 0 -88 88 0 2875 3911 5 MP stroke
0 88 -88 0 0 -88 88 0 2963 3911 5 MP stroke
0 88 -88 0 0 -88 88 0 3051 3911 5 MP stroke
0 88 -88 0 0 -88 88 0 3139 3911 5 MP stroke
0 88 -88 0 0 -88 88 0 3227 3911 5 MP stroke
0 88 -88 0 0 -88 88 0 3315 3911 5 MP stroke
0 88 -88 0 0 -88 88 0 3403 3911 5 MP stroke
0 88 -89 0 0 -88 89 0 3491 3911 5 MP stroke
0 88 -88 0 0 -88 88 0 3580 3911 5 MP stroke
0 88 -88 0 0 -88 88 0 3668 3911 5 MP stroke
0 88 -88 0 0 -88 88 0 3756 3911 5 MP stroke
0 88 -88 0 0 -88 88 0 3844 3911 5 MP stroke
0 88 -88 0 0 -88 88 0 3932 3911 5 MP stroke
0 88 -88 0 0 -88 88 0 4020 3911 5 MP stroke
0 88 -88 0 0 -88 88 0 4108 3911 5 MP stroke
0 88 -88 0 0 -88 88 0 4196 3911 5 MP stroke
0 88 -88 0 0 -88 88 0 4284 3911 5 MP stroke
0 88 -88 0 0 -88 88 0 4372 3911 5 MP stroke
0 88 -88 0 0 -88 88 0 4460 3911 5 MP stroke
0 88 -88 0 0 -88 88 0 4548 3911 5 MP stroke
0 88 -88 0 0 -88 88 0 4636 3911 5 MP stroke
0 88 -88 0 0 -88 88 0 4724 3911 5 MP stroke
0 88 -88 0 0 -88 88 0 4812 3911 5 MP stroke
0 88 -89 0 0 -88 89 0 4900 3911 5 MP stroke
0 88 -88 0 0 -88 88 0 4989 3911 5 MP stroke
0 88 -88 0 0 -88 88 0 5077 3911 5 MP stroke
0 88 -88 0 0 -88 88 0 5165 3911 5 MP stroke
0 88 -88 0 0 -88 88 0 5253 3911 5 MP stroke
0 88 -88 0 0 -88 88 0 1818 3823 5 MP stroke
0 88 -88 0 0 -88 88 0 1906 3823 5 MP stroke
0 88 -88 0 0 -88 88 0 1994 3823 5 MP stroke
0 88 -89 0 0 -88 89 0 2082 3823 5 MP stroke
0 88 -88 0 0 -88 88 0 2171 3823 5 MP stroke
0 88 -88 0 0 -88 88 0 2259 3823 5 MP stroke
0 88 -88 0 0 -88 88 0 2347 3823 5 MP stroke
0 88 -88 0 0 -88 88 0 2435 3823 5 MP stroke
0 88 -88 0 0 -88 88 0 2523 3823 5 MP stroke
0 88 -88 0 0 -88 88 0 2611 3823 5 MP stroke
0 88 -88 0 0 -88 88 0 2699 3823 5 MP stroke
0 88 -88 0 0 -88 88 0 2787 3823 5 MP stroke
0 88 -88 0 0 -88 88 0 2875 3823 5 MP stroke
0 88 -88 0 0 -88 88 0 2963 3823 5 MP stroke
0 88 -88 0 0 -88 88 0 3051 3823 5 MP stroke
0 88 -88 0 0 -88 88 0 3139 3823 5 MP stroke
0 88 -88 0 0 -88 88 0 3227 3823 5 MP stroke
0 88 -88 0 0 -88 88 0 3315 3823 5 MP stroke
0 88 -88 0 0 -88 88 0 3403 3823 5 MP stroke
0 88 -89 0 0 -88 89 0 3491 3823 5 MP stroke
0 88 -88 0 0 -88 88 0 3580 3823 5 MP stroke
0 88 -88 0 0 -88 88 0 3668 3823 5 MP stroke
0 88 -88 0 0 -88 88 0 3756 3823 5 MP stroke
0 88 -88 0 0 -88 88 0 3844 3823 5 MP stroke
0 88 -88 0 0 -88 88 0 3932 3823 5 MP stroke
0 88 -88 0 0 -88 88 0 4020 3823 5 MP stroke
0 88 -88 0 0 -88 88 0 4108 3823 5 MP stroke
0 88 -88 0 0 -88 88 0 4196 3823 5 MP stroke
0 88 -88 0 0 -88 88 0 4284 3823 5 MP stroke
0 88 -88 0 0 -88 88 0 4372 3823 5 MP stroke
0 88 -88 0 0 -88 88 0 4460 3823 5 MP stroke
0 88 -88 0 0 -88 88 0 4548 3823 5 MP stroke
0 88 -88 0 0 -88 88 0 4636 3823 5 MP stroke
0 88 -88 0 0 -88 88 0 4724 3823 5 MP stroke
0 88 -88 0 0 -88 88 0 4812 3823 5 MP stroke
0 88 -89 0 0 -88 89 0 4900 3823 5 MP stroke
0 88 -88 0 0 -88 88 0 4989 3823 5 MP stroke
0 88 -88 0 0 -88 88 0 5077 3823 5 MP stroke
0 88 -88 0 0 -88 88 0 5165 3823 5 MP stroke
0 88 -88 0 0 -88 88 0 5253 3823 5 MP stroke
0 88 -88 0 0 -88 88 0 1818 3735 5 MP stroke
0 88 -88 0 0 -88 88 0 1906 3735 5 MP stroke
0 88 -88 0 0 -88 88 0 1994 3735 5 MP stroke
0 88 -89 0 0 -88 89 0 2082 3735 5 MP stroke
0 88 -88 0 0 -88 88 0 2171 3735 5 MP stroke
0 88 -88 0 0 -88 88 0 2259 3735 5 MP stroke
0 88 -88 0 0 -88 88 0 2347 3735 5 MP stroke
0 88 -88 0 0 -88 88 0 2435 3735 5 MP stroke
0 88 -88 0 0 -88 88 0 2523 3735 5 MP stroke
0 88 -88 0 0 -88 88 0 2611 3735 5 MP stroke
0 88 -88 0 0 -88 88 0 2699 3735 5 MP stroke
0 88 -88 0 0 -88 88 0 2787 3735 5 MP stroke
0 88 -88 0 0 -88 88 0 2875 3735 5 MP stroke
0 88 -88 0 0 -88 88 0 2963 3735 5 MP stroke
0 88 -88 0 0 -88 88 0 3051 3735 5 MP stroke
0 88 -88 0 0 -88 88 0 3139 3735 5 MP stroke
0 88 -88 0 0 -88 88 0 3227 3735 5 MP stroke
0 88 -88 0 0 -88 88 0 3315 3735 5 MP stroke
0 88 -88 0 0 -88 88 0 3403 3735 5 MP stroke
0 88 -89 0 0 -88 89 0 3491 3735 5 MP stroke
0 88 -88 0 0 -88 88 0 3580 3735 5 MP stroke
0 88 -88 0 0 -88 88 0 3668 3735 5 MP stroke
0 88 -88 0 0 -88 88 0 3756 3735 5 MP stroke
0 88 -88 0 0 -88 88 0 3844 3735 5 MP stroke
0 88 -88 0 0 -88 88 0 3932 3735 5 MP stroke
0 88 -88 0 0 -88 88 0 4020 3735 5 MP stroke
0 88 -88 0 0 -88 88 0 4108 3735 5 MP stroke
0 88 -88 0 0 -88 88 0 4196 3735 5 MP stroke
0 88 -88 0 0 -88 88 0 4284 3735 5 MP stroke
0 88 -88 0 0 -88 88 0 4372 3735 5 MP stroke
0 88 -88 0 0 -88 88 0 4460 3735 5 MP stroke
0 88 -88 0 0 -88 88 0 4548 3735 5 MP stroke
0 88 -88 0 0 -88 88 0 4636 3735 5 MP stroke
0 88 -88 0 0 -88 88 0 4724 3735 5 MP stroke
0 88 -88 0 0 -88 88 0 4812 3735 5 MP stroke
0 88 -89 0 0 -88 89 0 4900 3735 5 MP stroke
0 88 -88 0 0 -88 88 0 4989 3735 5 MP stroke
0 88 -88 0 0 -88 88 0 5077 3735 5 MP stroke
0 88 -88 0 0 -88 88 0 5165 3735 5 MP stroke
0 88 -88 0 0 -88 88 0 5253 3735 5 MP stroke
0 88 -88 0 0 -88 88 0 1818 3647 5 MP stroke
0 88 -88 0 0 -88 88 0 1906 3647 5 MP stroke
0 88 -88 0 0 -88 88 0 1994 3647 5 MP stroke
0 88 -89 0 0 -88 89 0 2082 3647 5 MP stroke
0 88 -88 0 0 -88 88 0 2171 3647 5 MP stroke
0 88 -88 0 0 -88 88 0 2259 3647 5 MP stroke
0 88 -88 0 0 -88 88 0 2347 3647 5 MP stroke
0 88 -88 0 0 -88 88 0 2435 3647 5 MP stroke
0 88 -88 0 0 -88 88 0 2523 3647 5 MP stroke
0 88 -88 0 0 -88 88 0 2611 3647 5 MP stroke
0 88 -88 0 0 -88 88 0 2699 3647 5 MP stroke
0 88 -88 0 0 -88 88 0 2787 3647 5 MP stroke
0 88 -88 0 0 -88 88 0 2875 3647 5 MP stroke
0 88 -88 0 0 -88 88 0 2963 3647 5 MP stroke
0 88 -88 0 0 -88 88 0 3051 3647 5 MP stroke
0 88 -88 0 0 -88 88 0 3139 3647 5 MP stroke
0 88 -88 0 0 -88 88 0 3227 3647 5 MP stroke
0 88 -88 0 0 -88 88 0 3315 3647 5 MP stroke
0 88 -88 0 0 -88 88 0 3403 3647 5 MP stroke
0 88 -89 0 0 -88 89 0 3491 3647 5 MP stroke
0 88 -88 0 0 -88 88 0 3580 3647 5 MP stroke
0 88 -88 0 0 -88 88 0 3668 3647 5 MP stroke
0 88 -88 0 0 -88 88 0 3756 3647 5 MP stroke
0 88 -88 0 0 -88 88 0 3844 3647 5 MP stroke
0 88 -88 0 0 -88 88 0 3932 3647 5 MP stroke
0 88 -88 0 0 -88 88 0 4020 3647 5 MP stroke
0 88 -88 0 0 -88 88 0 4108 3647 5 MP stroke
0 88 -88 0 0 -88 88 0 4196 3647 5 MP stroke
0 88 -88 0 0 -88 88 0 4284 3647 5 MP stroke
0 88 -88 0 0 -88 88 0 4372 3647 5 MP stroke
0 88 -88 0 0 -88 88 0 4460 3647 5 MP stroke
0 88 -88 0 0 -88 88 0 4548 3647 5 MP stroke
0 88 -88 0 0 -88 88 0 4636 3647 5 MP stroke
0 88 -88 0 0 -88 88 0 4724 3647 5 MP stroke
0 88 -88 0 0 -88 88 0 4812 3647 5 MP stroke
0 88 -89 0 0 -88 89 0 4900 3647 5 MP stroke
0 88 -88 0 0 -88 88 0 4989 3647 5 MP stroke
0 88 -88 0 0 -88 88 0 5077 3647 5 MP stroke
0 88 -88 0 0 -88 88 0 5165 3647 5 MP stroke
0 88 -88 0 0 -88 88 0 5253 3647 5 MP stroke
0 88 -88 0 0 -88 88 0 1818 3559 5 MP stroke
0 88 -88 0 0 -88 88 0 1906 3559 5 MP stroke
0 88 -88 0 0 -88 88 0 1994 3559 5 MP stroke
0 88 -89 0 0 -88 89 0 2082 3559 5 MP stroke
0 88 -88 0 0 -88 88 0 2171 3559 5 MP stroke
0 88 -88 0 0 -88 88 0 2259 3559 5 MP stroke
0 88 -88 0 0 -88 88 0 2347 3559 5 MP stroke
0 88 -88 0 0 -88 88 0 2435 3559 5 MP stroke
0 88 -88 0 0 -88 88 0 2523 3559 5 MP stroke
0 88 -88 0 0 -88 88 0 2611 3559 5 MP stroke
0 88 -88 0 0 -88 88 0 2699 3559 5 MP stroke
0 88 -88 0 0 -88 88 0 2787 3559 5 MP stroke
0 88 -88 0 0 -88 88 0 2875 3559 5 MP stroke
0 88 -88 0 0 -88 88 0 2963 3559 5 MP stroke
0 88 -88 0 0 -88 88 0 3051 3559 5 MP stroke
0 88 -88 0 0 -88 88 0 3139 3559 5 MP stroke
0 88 -88 0 0 -88 88 0 3227 3559 5 MP stroke
0 88 -88 0 0 -88 88 0 3315 3559 5 MP stroke
0 88 -88 0 0 -88 88 0 3403 3559 5 MP stroke
0 88 -89 0 0 -88 89 0 3491 3559 5 MP stroke
0 88 -88 0 0 -88 88 0 3580 3559 5 MP stroke
0 88 -88 0 0 -88 88 0 3668 3559 5 MP stroke
0 88 -88 0 0 -88 88 0 3756 3559 5 MP stroke
0 88 -88 0 0 -88 88 0 3844 3559 5 MP stroke
0 88 -88 0 0 -88 88 0 3932 3559 5 MP stroke
0 88 -88 0 0 -88 88 0 4020 3559 5 MP stroke
0 88 -88 0 0 -88 88 0 4108 3559 5 MP stroke
0 88 -88 0 0 -88 88 0 4196 3559 5 MP stroke
0 88 -88 0 0 -88 88 0 4284 3559 5 MP stroke
0 88 -88 0 0 -88 88 0 4372 3559 5 MP stroke
0 88 -88 0 0 -88 88 0 4460 3559 5 MP stroke
0 88 -88 0 0 -88 88 0 4548 3559 5 MP stroke
0 88 -88 0 0 -88 88 0 4636 3559 5 MP stroke
0 88 -88 0 0 -88 88 0 4724 3559 5 MP stroke
0 88 -88 0 0 -88 88 0 4812 3559 5 MP stroke
0 88 -89 0 0 -88 89 0 4900 3559 5 MP stroke
0 88 -88 0 0 -88 88 0 4989 3559 5 MP stroke
0 88 -88 0 0 -88 88 0 5077 3559 5 MP stroke
0 88 -88 0 0 -88 88 0 5165 3559 5 MP stroke
0 88 -88 0 0 -88 88 0 5253 3559 5 MP stroke
0 88 -88 0 0 -88 88 0 1818 3471 5 MP stroke
0 88 -88 0 0 -88 88 0 1906 3471 5 MP stroke
0 88 -88 0 0 -88 88 0 1994 3471 5 MP stroke
0 88 -89 0 0 -88 89 0 2082 3471 5 MP stroke
0 88 -88 0 0 -88 88 0 2171 3471 5 MP stroke
0 88 -88 0 0 -88 88 0 2259 3471 5 MP stroke
0 88 -88 0 0 -88 88 0 2347 3471 5 MP stroke
0 88 -88 0 0 -88 88 0 2435 3471 5 MP stroke
0 88 -88 0 0 -88 88 0 2523 3471 5 MP stroke
0 88 -88 0 0 -88 88 0 2611 3471 5 MP stroke
0 88 -88 0 0 -88 88 0 2699 3471 5 MP stroke
0 88 -88 0 0 -88 88 0 2787 3471 5 MP stroke
0 88 -88 0 0 -88 88 0 2875 3471 5 MP stroke
0 88 -88 0 0 -88 88 0 2963 3471 5 MP stroke
0 88 -88 0 0 -88 88 0 3051 3471 5 MP stroke
0 88 -88 0 0 -88 88 0 3139 3471 5 MP stroke
0 88 -88 0 0 -88 88 0 3227 3471 5 MP stroke
0 88 -88 0 0 -88 88 0 3315 3471 5 MP stroke
0 88 -88 0 0 -88 88 0 3403 3471 5 MP stroke
0 88 -89 0 0 -88 89 0 3491 3471 5 MP stroke
0 88 -88 0 0 -88 88 0 3580 3471 5 MP stroke
0 88 -88 0 0 -88 88 0 3668 3471 5 MP stroke
0 88 -88 0 0 -88 88 0 3756 3471 5 MP stroke
0 88 -88 0 0 -88 88 0 3844 3471 5 MP stroke
0 88 -88 0 0 -88 88 0 3932 3471 5 MP stroke
0 88 -88 0 0 -88 88 0 4020 3471 5 MP stroke
0 88 -88 0 0 -88 88 0 4108 3471 5 MP stroke
0 88 -88 0 0 -88 88 0 4196 3471 5 MP stroke
0 88 -88 0 0 -88 88 0 4284 3471 5 MP stroke
0 88 -88 0 0 -88 88 0 4372 3471 5 MP stroke
0 88 -88 0 0 -88 88 0 4460 3471 5 MP stroke
0 88 -88 0 0 -88 88 0 4548 3471 5 MP stroke
0 88 -88 0 0 -88 88 0 4636 3471 5 MP stroke
0 88 -88 0 0 -88 88 0 4724 3471 5 MP stroke
0 88 -88 0 0 -88 88 0 4812 3471 5 MP stroke
0 88 -89 0 0 -88 89 0 4900 3471 5 MP stroke
0 88 -88 0 0 -88 88 0 4989 3471 5 MP stroke
0 88 -88 0 0 -88 88 0 5077 3471 5 MP stroke
0 88 -88 0 0 -88 88 0 5165 3471 5 MP stroke
0 88 -88 0 0 -88 88 0 5253 3471 5 MP stroke
0 88 -88 0 0 -88 88 0 1818 3383 5 MP stroke
0 88 -88 0 0 -88 88 0 1906 3383 5 MP stroke
0 88 -88 0 0 -88 88 0 1994 3383 5 MP stroke
0 88 -89 0 0 -88 89 0 2082 3383 5 MP stroke
0 88 -88 0 0 -88 88 0 2171 3383 5 MP stroke
0 88 -88 0 0 -88 88 0 2259 3383 5 MP stroke
0 88 -88 0 0 -88 88 0 2347 3383 5 MP stroke
0 88 -88 0 0 -88 88 0 2435 3383 5 MP stroke
0 88 -88 0 0 -88 88 0 2523 3383 5 MP stroke
0 88 -88 0 0 -88 88 0 2611 3383 5 MP stroke
0 88 -88 0 0 -88 88 0 2699 3383 5 MP stroke
0 88 -88 0 0 -88 88 0 2787 3383 5 MP stroke
0 88 -88 0 0 -88 88 0 2875 3383 5 MP stroke
0 88 -88 0 0 -88 88 0 2963 3383 5 MP stroke
0 88 -88 0 0 -88 88 0 3051 3383 5 MP stroke
0 88 -88 0 0 -88 88 0 3139 3383 5 MP stroke
0 88 -88 0 0 -88 88 0 3227 3383 5 MP stroke
0 88 -88 0 0 -88 88 0 3315 3383 5 MP stroke
0 88 -88 0 0 -88 88 0 3403 3383 5 MP stroke
0 88 -89 0 0 -88 89 0 3491 3383 5 MP stroke
0 88 -88 0 0 -88 88 0 3580 3383 5 MP stroke
0 88 -88 0 0 -88 88 0 3668 3383 5 MP stroke
0 88 -88 0 0 -88 88 0 3756 3383 5 MP stroke
0 88 -88 0 0 -88 88 0 3844 3383 5 MP stroke
0 88 -88 0 0 -88 88 0 3932 3383 5 MP stroke
0 88 -88 0 0 -88 88 0 4020 3383 5 MP stroke
0 88 -88 0 0 -88 88 0 4108 3383 5 MP stroke
0 88 -88 0 0 -88 88 0 4196 3383 5 MP stroke
0 88 -88 0 0 -88 88 0 4284 3383 5 MP stroke
0 88 -88 0 0 -88 88 0 4372 3383 5 MP stroke
0 88 -88 0 0 -88 88 0 4460 3383 5 MP stroke
0 88 -88 0 0 -88 88 0 4548 3383 5 MP stroke
0 88 -88 0 0 -88 88 0 4636 3383 5 MP stroke
0 88 -88 0 0 -88 88 0 4724 3383 5 MP stroke
0 88 -88 0 0 -88 88 0 4812 3383 5 MP stroke
0 88 -89 0 0 -88 89 0 4900 3383 5 MP stroke
0 88 -88 0 0 -88 88 0 4989 3383 5 MP stroke
0 88 -88 0 0 -88 88 0 5077 3383 5 MP stroke
0 88 -88 0 0 -88 88 0 5165 3383 5 MP stroke
0 88 -88 0 0 -88 88 0 5253 3383 5 MP stroke
0 88 -88 0 0 -88 88 0 1818 3295 5 MP stroke
0 88 -88 0 0 -88 88 0 1906 3295 5 MP stroke
0 88 -88 0 0 -88 88 0 1994 3295 5 MP stroke
0 88 -89 0 0 -88 89 0 2082 3295 5 MP stroke
0 88 -88 0 0 -88 88 0 2171 3295 5 MP stroke
0 88 -88 0 0 -88 88 0 2259 3295 5 MP stroke
0 88 -88 0 0 -88 88 0 2347 3295 5 MP stroke
0 88 -88 0 0 -88 88 0 2435 3295 5 MP stroke
0 88 -88 0 0 -88 88 0 2523 3295 5 MP stroke
0 88 -88 0 0 -88 88 0 2611 3295 5 MP stroke
0 88 -88 0 0 -88 88 0 2699 3295 5 MP stroke
0 88 -88 0 0 -88 88 0 2787 3295 5 MP stroke
0 88 -88 0 0 -88 88 0 2875 3295 5 MP stroke
0 88 -88 0 0 -88 88 0 2963 3295 5 MP stroke
0 88 -88 0 0 -88 88 0 3051 3295 5 MP stroke
0 88 -88 0 0 -88 88 0 3139 3295 5 MP stroke
0 88 -88 0 0 -88 88 0 3227 3295 5 MP stroke
0 88 -88 0 0 -88 88 0 3315 3295 5 MP stroke
0 88 -88 0 0 -88 88 0 3403 3295 5 MP stroke
0 88 -89 0 0 -88 89 0 3491 3295 5 MP stroke
0 88 -88 0 0 -88 88 0 3580 3295 5 MP stroke
0 88 -88 0 0 -88 88 0 3668 3295 5 MP stroke
0 88 -88 0 0 -88 88 0 3756 3295 5 MP stroke
0 88 -88 0 0 -88 88 0 3844 3295 5 MP stroke
0 88 -88 0 0 -88 88 0 3932 3295 5 MP stroke
0 88 -88 0 0 -88 88 0 4020 3295 5 MP stroke
0 88 -88 0 0 -88 88 0 4108 3295 5 MP stroke
0 88 -88 0 0 -88 88 0 4196 3295 5 MP stroke
0 88 -88 0 0 -88 88 0 4284 3295 5 MP stroke
0 88 -88 0 0 -88 88 0 4372 3295 5 MP stroke
0 88 -88 0 0 -88 88 0 4460 3295 5 MP stroke
0 88 -88 0 0 -88 88 0 4548 3295 5 MP stroke
0 88 -88 0 0 -88 88 0 4636 3295 5 MP stroke
0 88 -88 0 0 -88 88 0 4724 3295 5 MP stroke
0 88 -88 0 0 -88 88 0 4812 3295 5 MP stroke
0 88 -89 0 0 -88 89 0 4900 3295 5 MP stroke
0 88 -88 0 0 -88 88 0 4989 3295 5 MP stroke
0 88 -88 0 0 -88 88 0 5077 3295 5 MP stroke
0 88 -88 0 0 -88 88 0 5165 3295 5 MP stroke
0 88 -88 0 0 -88 88 0 5253 3295 5 MP stroke
0 89 -88 0 0 -89 88 0 1818 3207 5 MP stroke
0 89 -88 0 0 -89 88 0 1906 3207 5 MP stroke
0 89 -88 0 0 -89 88 0 1994 3207 5 MP stroke
0 89 -89 0 0 -89 89 0 2082 3207 5 MP stroke
0 89 -88 0 0 -89 88 0 2171 3207 5 MP stroke
0 89 -88 0 0 -89 88 0 2259 3207 5 MP stroke
0 89 -88 0 0 -89 88 0 2347 3207 5 MP stroke
0 89 -88 0 0 -89 88 0 2435 3207 5 MP stroke
0 89 -88 0 0 -89 88 0 2523 3207 5 MP stroke
0 89 -88 0 0 -89 88 0 2611 3207 5 MP stroke
0 89 -88 0 0 -89 88 0 2699 3207 5 MP stroke
0 89 -88 0 0 -89 88 0 2787 3207 5 MP stroke
0 89 -88 0 0 -89 88 0 2875 3207 5 MP stroke
0 89 -88 0 0 -89 88 0 2963 3207 5 MP stroke
0 89 -88 0 0 -89 88 0 3051 3207 5 MP stroke
0 89 -88 0 0 -89 88 0 3139 3207 5 MP stroke
0 89 -88 0 0 -89 88 0 3227 3207 5 MP stroke
0 89 -88 0 0 -89 88 0 3315 3207 5 MP stroke
0 89 -88 0 0 -89 88 0 3403 3207 5 MP stroke
0 89 -89 0 0 -89 89 0 3491 3207 5 MP stroke
0 89 -88 0 0 -89 88 0 3580 3207 5 MP stroke
0 89 -88 0 0 -89 88 0 3668 3207 5 MP stroke
0 89 -88 0 0 -89 88 0 3756 3207 5 MP stroke
0 89 -88 0 0 -89 88 0 3844 3207 5 MP stroke
0 89 -88 0 0 -89 88 0 3932 3207 5 MP stroke
0 89 -88 0 0 -89 88 0 4020 3207 5 MP stroke
0 89 -88 0 0 -89 88 0 4108 3207 5 MP stroke
0 89 -88 0 0 -89 88 0 4196 3207 5 MP stroke
0 89 -88 0 0 -89 88 0 4284 3207 5 MP stroke
0 89 -88 0 0 -89 88 0 4372 3207 5 MP stroke
0 89 -88 0 0 -89 88 0 4460 3207 5 MP stroke
0 89 -88 0 0 -89 88 0 4548 3207 5 MP stroke
0 89 -88 0 0 -89 88 0 4636 3207 5 MP stroke
0 89 -88 0 0 -89 88 0 4724 3207 5 MP stroke
0 89 -88 0 0 -89 88 0 4812 3207 5 MP stroke
0 89 -89 0 0 -89 89 0 4900 3207 5 MP stroke
0 89 -88 0 0 -89 88 0 4989 3207 5 MP stroke
0 89 -88 0 0 -89 88 0 5077 3207 5 MP stroke
0 89 -88 0 0 -89 88 0 5165 3207 5 MP stroke
0 89 -88 0 0 -89 88 0 5253 3207 5 MP stroke
0 88 -88 0 0 -88 88 0 1818 3118 5 MP stroke
0 88 -88 0 0 -88 88 0 1906 3118 5 MP stroke
0 88 -88 0 0 -88 88 0 1994 3118 5 MP stroke
0 88 -89 0 0 -88 89 0 2082 3118 5 MP stroke
0 88 -88 0 0 -88 88 0 2171 3118 5 MP stroke
0 88 -88 0 0 -88 88 0 2259 3118 5 MP stroke
0 88 -88 0 0 -88 88 0 2347 3118 5 MP stroke
0 88 -88 0 0 -88 88 0 2435 3118 5 MP stroke
0 88 -88 0 0 -88 88 0 2523 3118 5 MP stroke
0 88 -88 0 0 -88 88 0 2611 3118 5 MP stroke
0 88 -88 0 0 -88 88 0 2699 3118 5 MP stroke
0 88 -88 0 0 -88 88 0 2787 3118 5 MP stroke
0 88 -88 0 0 -88 88 0 2875 3118 5 MP stroke
0 88 -88 0 0 -88 88 0 2963 3118 5 MP stroke
0 88 -88 0 0 -88 88 0 3051 3118 5 MP stroke
0 88 -88 0 0 -88 88 0 3139 3118 5 MP stroke
0 88 -88 0 0 -88 88 0 3227 3118 5 MP stroke
0 88 -88 0 0 -88 88 0 3315 3118 5 MP stroke
0 88 -88 0 0 -88 88 0 3403 3118 5 MP stroke
0 88 -89 0 0 -88 89 0 3491 3118 5 MP stroke
0 88 -88 0 0 -88 88 0 3580 3118 5 MP stroke
0 88 -88 0 0 -88 88 0 3668 3118 5 MP stroke
0 88 -88 0 0 -88 88 0 3756 3118 5 MP stroke
0 88 -88 0 0 -88 88 0 3844 3118 5 MP stroke
0 88 -88 0 0 -88 88 0 3932 3118 5 MP stroke
0 88 -88 0 0 -88 88 0 4020 3118 5 MP stroke
0 88 -88 0 0 -88 88 0 4108 3118 5 MP stroke
0 88 -88 0 0 -88 88 0 4196 3118 5 MP stroke
0 88 -88 0 0 -88 88 0 4284 3118 5 MP stroke
0 88 -88 0 0 -88 88 0 4372 3118 5 MP stroke
0 88 -88 0 0 -88 88 0 4460 3118 5 MP stroke
0 88 -88 0 0 -88 88 0 4548 3118 5 MP stroke
0 88 -88 0 0 -88 88 0 4636 3118 5 MP stroke
0 88 -88 0 0 -88 88 0 4724 3118 5 MP stroke
0 88 -88 0 0 -88 88 0 4812 3118 5 MP stroke
0 88 -89 0 0 -88 89 0 4900 3118 5 MP stroke
0 88 -88 0 0 -88 88 0 4989 3118 5 MP stroke
0 88 -88 0 0 -88 88 0 5077 3118 5 MP stroke
0 88 -88 0 0 -88 88 0 5165 3118 5 MP stroke
0 88 -88 0 0 -88 88 0 5253 3118 5 MP stroke
0 88 -88 0 0 -88 88 0 1818 3030 5 MP stroke
0 88 -88 0 0 -88 88 0 1906 3030 5 MP stroke
0 88 -88 0 0 -88 88 0 1994 3030 5 MP stroke
0 88 -89 0 0 -88 89 0 2082 3030 5 MP stroke
0 88 -88 0 0 -88 88 0 2171 3030 5 MP stroke
0 88 -88 0 0 -88 88 0 2259 3030 5 MP stroke
0 88 -88 0 0 -88 88 0 2347 3030 5 MP stroke
0 88 -88 0 0 -88 88 0 2435 3030 5 MP stroke
0 88 -88 0 0 -88 88 0 2523 3030 5 MP stroke
0 88 -88 0 0 -88 88 0 2611 3030 5 MP stroke
0 88 -88 0 0 -88 88 0 2699 3030 5 MP stroke
0 88 -88 0 0 -88 88 0 2787 3030 5 MP stroke
0 88 -88 0 0 -88 88 0 2875 3030 5 MP stroke
0 88 -88 0 0 -88 88 0 2963 3030 5 MP stroke
0 88 -88 0 0 -88 88 0 3051 3030 5 MP stroke
0 88 -88 0 0 -88 88 0 3139 3030 5 MP stroke
0 88 -88 0 0 -88 88 0 3227 3030 5 MP stroke
0 88 -88 0 0 -88 88 0 3315 3030 5 MP stroke
0 88 -88 0 0 -88 88 0 3403 3030 5 MP stroke
0 88 -89 0 0 -88 89 0 3491 3030 5 MP stroke
0 88 -88 0 0 -88 88 0 3580 3030 5 MP stroke
0 88 -88 0 0 -88 88 0 3668 3030 5 MP stroke
0 88 -88 0 0 -88 88 0 3756 3030 5 MP stroke
0 88 -88 0 0 -88 88 0 3844 3030 5 MP stroke
0 88 -88 0 0 -88 88 0 3932 3030 5 MP stroke
0 88 -88 0 0 -88 88 0 4020 3030 5 MP stroke
0 88 -88 0 0 -88 88 0 4108 3030 5 MP stroke
0 88 -88 0 0 -88 88 0 4196 3030 5 MP stroke
0 88 -88 0 0 -88 88 0 4284 3030 5 MP stroke
0 88 -88 0 0 -88 88 0 4372 3030 5 MP stroke
0 88 -88 0 0 -88 88 0 4460 3030 5 MP stroke
0 88 -88 0 0 -88 88 0 4548 3030 5 MP stroke
0 88 -88 0 0 -88 88 0 4636 3030 5 MP stroke
0 88 -88 0 0 -88 88 0 4724 3030 5 MP stroke
0 88 -88 0 0 -88 88 0 4812 3030 5 MP stroke
0 88 -89 0 0 -88 89 0 4900 3030 5 MP stroke
0 88 -88 0 0 -88 88 0 4989 3030 5 MP stroke
0 88 -88 0 0 -88 88 0 5077 3030 5 MP stroke
0 88 -88 0 0 -88 88 0 5165 3030 5 MP stroke
0 88 -88 0 0 -88 88 0 5253 3030 5 MP stroke
0 88 -88 0 0 -88 88 0 1818 2942 5 MP stroke
0 88 -88 0 0 -88 88 0 1906 2942 5 MP stroke
0 88 -88 0 0 -88 88 0 1994 2942 5 MP stroke
0 88 -89 0 0 -88 89 0 2082 2942 5 MP stroke
0 88 -88 0 0 -88 88 0 2171 2942 5 MP stroke
0 88 -88 0 0 -88 88 0 2259 2942 5 MP stroke
0 88 -88 0 0 -88 88 0 2347 2942 5 MP stroke
0 88 -88 0 0 -88 88 0 2435 2942 5 MP stroke
0 88 -88 0 0 -88 88 0 2523 2942 5 MP stroke
0 88 -88 0 0 -88 88 0 2611 2942 5 MP stroke
0 88 -88 0 0 -88 88 0 2699 2942 5 MP stroke
0 88 -88 0 0 -88 88 0 2787 2942 5 MP stroke
0 88 -88 0 0 -88 88 0 2875 2942 5 MP stroke
0 88 -88 0 0 -88 88 0 2963 2942 5 MP stroke
0 88 -88 0 0 -88 88 0 3051 2942 5 MP stroke
0 88 -88 0 0 -88 88 0 3139 2942 5 MP stroke
0 88 -88 0 0 -88 88 0 3227 2942 5 MP stroke
0 88 -88 0 0 -88 88 0 3315 2942 5 MP stroke
0 88 -88 0 0 -88 88 0 3403 2942 5 MP stroke
0 88 -89 0 0 -88 89 0 3491 2942 5 MP stroke
0 88 -88 0 0 -88 88 0 3580 2942 5 MP stroke
0 88 -88 0 0 -88 88 0 3668 2942 5 MP stroke
0 88 -88 0 0 -88 88 0 3756 2942 5 MP stroke
0 88 -88 0 0 -88 88 0 3844 2942 5 MP stroke
0 88 -88 0 0 -88 88 0 3932 2942 5 MP stroke
0 88 -88 0 0 -88 88 0 4020 2942 5 MP stroke
0 88 -88 0 0 -88 88 0 4108 2942 5 MP stroke
0 88 -88 0 0 -88 88 0 4196 2942 5 MP stroke
0 88 -88 0 0 -88 88 0 4284 2942 5 MP stroke
0 88 -88 0 0 -88 88 0 4372 2942 5 MP stroke
0 88 -88 0 0 -88 88 0 4460 2942 5 MP stroke
0 88 -88 0 0 -88 88 0 4548 2942 5 MP stroke
0 88 -88 0 0 -88 88 0 4636 2942 5 MP stroke
0 88 -88 0 0 -88 88 0 4724 2942 5 MP stroke
0 88 -88 0 0 -88 88 0 4812 2942 5 MP stroke
0 88 -89 0 0 -88 89 0 4900 2942 5 MP stroke
0 88 -88 0 0 -88 88 0 4989 2942 5 MP stroke
0 88 -88 0 0 -88 88 0 5077 2942 5 MP stroke
0 88 -88 0 0 -88 88 0 5165 2942 5 MP stroke
0 88 -88 0 0 -88 88 0 5253 2942 5 MP stroke
0 88 -88 0 0 -88 88 0 1818 2854 5 MP stroke
0 88 -88 0 0 -88 88 0 1906 2854 5 MP stroke
0 88 -88 0 0 -88 88 0 1994 2854 5 MP stroke
0 88 -89 0 0 -88 89 0 2082 2854 5 MP stroke
0 88 -88 0 0 -88 88 0 2171 2854 5 MP stroke
0 88 -88 0 0 -88 88 0 2259 2854 5 MP stroke
0 88 -88 0 0 -88 88 0 2347 2854 5 MP stroke
0 88 -88 0 0 -88 88 0 2435 2854 5 MP stroke
0 88 -88 0 0 -88 88 0 2523 2854 5 MP stroke
0 88 -88 0 0 -88 88 0 2611 2854 5 MP stroke
0 88 -88 0 0 -88 88 0 2699 2854 5 MP stroke
0 88 -88 0 0 -88 88 0 2787 2854 5 MP stroke
0 88 -88 0 0 -88 88 0 2875 2854 5 MP stroke
0 88 -88 0 0 -88 88 0 2963 2854 5 MP stroke
0 88 -88 0 0 -88 88 0 3051 2854 5 MP stroke
0 88 -88 0 0 -88 88 0 3139 2854 5 MP stroke
0 88 -88 0 0 -88 88 0 3227 2854 5 MP stroke
0 88 -88 0 0 -88 88 0 3315 2854 5 MP stroke
0 88 -88 0 0 -88 88 0 3403 2854 5 MP stroke
0 88 -89 0 0 -88 89 0 3491 2854 5 MP stroke
0 88 -88 0 0 -88 88 0 3580 2854 5 MP stroke
0 88 -88 0 0 -88 88 0 3668 2854 5 MP stroke
0 88 -88 0 0 -88 88 0 3756 2854 5 MP stroke
0 88 -88 0 0 -88 88 0 3844 2854 5 MP stroke
0 88 -88 0 0 -88 88 0 3932 2854 5 MP stroke
0 88 -88 0 0 -88 88 0 4020 2854 5 MP stroke
0 88 -88 0 0 -88 88 0 4108 2854 5 MP stroke
0 88 -88 0 0 -88 88 0 4196 2854 5 MP stroke
0 88 -88 0 0 -88 88 0 4284 2854 5 MP stroke
0 88 -88 0 0 -88 88 0 4372 2854 5 MP stroke
0 88 -88 0 0 -88 88 0 4460 2854 5 MP stroke
0 88 -88 0 0 -88 88 0 4548 2854 5 MP stroke
0 88 -88 0 0 -88 88 0 4636 2854 5 MP stroke
0 88 -88 0 0 -88 88 0 4724 2854 5 MP stroke
0 88 -88 0 0 -88 88 0 4812 2854 5 MP stroke
0 88 -89 0 0 -88 89 0 4900 2854 5 MP stroke
0 88 -88 0 0 -88 88 0 4989 2854 5 MP stroke
0 88 -88 0 0 -88 88 0 5077 2854 5 MP stroke
0 88 -88 0 0 -88 88 0 5165 2854 5 MP stroke
0 88 -88 0 0 -88 88 0 5253 2854 5 MP stroke
0 88 -88 0 0 -88 88 0 1818 2766 5 MP stroke
0 88 -88 0 0 -88 88 0 1906 2766 5 MP stroke
0 88 -88 0 0 -88 88 0 1994 2766 5 MP stroke
0 88 -89 0 0 -88 89 0 2082 2766 5 MP stroke
0 88 -88 0 0 -88 88 0 2171 2766 5 MP stroke
0 88 -88 0 0 -88 88 0 2259 2766 5 MP stroke
0 88 -88 0 0 -88 88 0 2347 2766 5 MP stroke
0 88 -88 0 0 -88 88 0 2435 2766 5 MP stroke
0 88 -88 0 0 -88 88 0 2523 2766 5 MP stroke
0 88 -88 0 0 -88 88 0 2611 2766 5 MP stroke
0 88 -88 0 0 -88 88 0 2699 2766 5 MP stroke
0 88 -88 0 0 -88 88 0 2787 2766 5 MP stroke
0 88 -88 0 0 -88 88 0 2875 2766 5 MP stroke
0 88 -88 0 0 -88 88 0 2963 2766 5 MP stroke
0 88 -88 0 0 -88 88 0 3051 2766 5 MP stroke
0 88 -88 0 0 -88 88 0 3139 2766 5 MP stroke
0 88 -88 0 0 -88 88 0 3227 2766 5 MP stroke
0 88 -88 0 0 -88 88 0 3315 2766 5 MP stroke
0 88 -88 0 0 -88 88 0 3403 2766 5 MP stroke
0 88 -89 0 0 -88 89 0 3491 2766 5 MP stroke
0 88 -88 0 0 -88 88 0 3580 2766 5 MP stroke
0 88 -88 0 0 -88 88 0 3668 2766 5 MP stroke
0 88 -88 0 0 -88 88 0 3756 2766 5 MP stroke
0 88 -88 0 0 -88 88 0 3844 2766 5 MP stroke
0 88 -88 0 0 -88 88 0 3932 2766 5 MP stroke
0 88 -88 0 0 -88 88 0 4020 2766 5 MP stroke
0 88 -88 0 0 -88 88 0 4108 2766 5 MP stroke
0 88 -88 0 0 -88 88 0 4196 2766 5 MP stroke
0 88 -88 0 0 -88 88 0 4284 2766 5 MP stroke
0 88 -88 0 0 -88 88 0 4372 2766 5 MP stroke
0 88 -88 0 0 -88 88 0 4460 2766 5 MP stroke
0 88 -88 0 0 -88 88 0 4548 2766 5 MP stroke
0 88 -88 0 0 -88 88 0 4636 2766 5 MP stroke
0 88 -88 0 0 -88 88 0 4724 2766 5 MP stroke
0 88 -88 0 0 -88 88 0 4812 2766 5 MP stroke
0 88 -89 0 0 -88 89 0 4900 2766 5 MP stroke
0 88 -88 0 0 -88 88 0 4989 2766 5 MP stroke
0 88 -88 0 0 -88 88 0 5077 2766 5 MP stroke
0 88 -88 0 0 -88 88 0 5165 2766 5 MP stroke
0 88 -88 0 0 -88 88 0 5253 2766 5 MP stroke
0 88 -88 0 0 -88 88 0 1818 2678 5 MP stroke
0 88 -88 0 0 -88 88 0 1906 2678 5 MP stroke
0 88 -88 0 0 -88 88 0 1994 2678 5 MP stroke
0 88 -89 0 0 -88 89 0 2082 2678 5 MP stroke
0 88 -88 0 0 -88 88 0 2171 2678 5 MP stroke
0 88 -88 0 0 -88 88 0 2259 2678 5 MP stroke
0 88 -88 0 0 -88 88 0 2347 2678 5 MP stroke
0 88 -88 0 0 -88 88 0 2435 2678 5 MP stroke
0 88 -88 0 0 -88 88 0 2523 2678 5 MP stroke
0 88 -88 0 0 -88 88 0 2611 2678 5 MP stroke
0 88 -88 0 0 -88 88 0 2699 2678 5 MP stroke
0 88 -88 0 0 -88 88 0 2787 2678 5 MP stroke
0 88 -88 0 0 -88 88 0 2875 2678 5 MP stroke
0 88 -88 0 0 -88 88 0 2963 2678 5 MP stroke
0 88 -88 0 0 -88 88 0 3051 2678 5 MP stroke
0 88 -88 0 0 -88 88 0 3139 2678 5 MP stroke
0 88 -88 0 0 -88 88 0 3227 2678 5 MP stroke
0 88 -88 0 0 -88 88 0 3315 2678 5 MP stroke
0 88 -88 0 0 -88 88 0 3403 2678 5 MP stroke
0 88 -89 0 0 -88 89 0 3491 2678 5 MP stroke
0 88 -88 0 0 -88 88 0 3580 2678 5 MP stroke
0 88 -88 0 0 -88 88 0 3668 2678 5 MP stroke
0 88 -88 0 0 -88 88 0 3756 2678 5 MP stroke
0 88 -88 0 0 -88 88 0 3844 2678 5 MP stroke
0 88 -88 0 0 -88 88 0 3932 2678 5 MP stroke
0 88 -88 0 0 -88 88 0 4020 2678 5 MP stroke
0 88 -88 0 0 -88 88 0 4108 2678 5 MP stroke
0 88 -88 0 0 -88 88 0 4196 2678 5 MP stroke
0 88 -88 0 0 -88 88 0 4284 2678 5 MP stroke
0 88 -88 0 0 -88 88 0 4372 2678 5 MP stroke
0 88 -88 0 0 -88 88 0 4460 2678 5 MP stroke
0 88 -88 0 0 -88 88 0 4548 2678 5 MP stroke
0 88 -88 0 0 -88 88 0 4636 2678 5 MP stroke
0 88 -88 0 0 -88 88 0 4724 2678 5 MP stroke
0 88 -88 0 0 -88 88 0 4812 2678 5 MP stroke
0 88 -89 0 0 -88 89 0 4900 2678 5 MP stroke
0 88 -88 0 0 -88 88 0 4989 2678 5 MP stroke
0 88 -88 0 0 -88 88 0 5077 2678 5 MP stroke
0 88 -88 0 0 -88 88 0 5165 2678 5 MP stroke
0 88 -88 0 0 -88 88 0 5253 2678 5 MP stroke
0 88 -88 0 0 -88 88 0 1818 2590 5 MP stroke
0 88 -88 0 0 -88 88 0 1906 2590 5 MP stroke
0 88 -88 0 0 -88 88 0 1994 2590 5 MP stroke
0 88 -89 0 0 -88 89 0 2082 2590 5 MP stroke
0 88 -88 0 0 -88 88 0 2171 2590 5 MP stroke
0 88 -88 0 0 -88 88 0 2259 2590 5 MP stroke
0 88 -88 0 0 -88 88 0 2347 2590 5 MP stroke
0 88 -88 0 0 -88 88 0 2435 2590 5 MP stroke
0 88 -88 0 0 -88 88 0 2523 2590 5 MP stroke
0 88 -88 0 0 -88 88 0 2611 2590 5 MP stroke
0 88 -88 0 0 -88 88 0 2699 2590 5 MP stroke
0 88 -88 0 0 -88 88 0 2787 2590 5 MP stroke
0 88 -88 0 0 -88 88 0 2875 2590 5 MP stroke
0 88 -88 0 0 -88 88 0 2963 2590 5 MP stroke
0 88 -88 0 0 -88 88 0 3051 2590 5 MP stroke
0 88 -88 0 0 -88 88 0 3139 2590 5 MP stroke
0 88 -88 0 0 -88 88 0 3227 2590 5 MP stroke
0 88 -88 0 0 -88 88 0 3315 2590 5 MP stroke
0 88 -88 0 0 -88 88 0 3403 2590 5 MP stroke
0 88 -89 0 0 -88 89 0 3491 2590 5 MP stroke
0 88 -88 0 0 -88 88 0 3580 2590 5 MP stroke
0 88 -88 0 0 -88 88 0 3668 2590 5 MP stroke
0 88 -88 0 0 -88 88 0 3756 2590 5 MP stroke
0 88 -88 0 0 -88 88 0 3844 2590 5 MP stroke
0 88 -88 0 0 -88 88 0 3932 2590 5 MP stroke
0 88 -88 0 0 -88 88 0 4020 2590 5 MP stroke
0 88 -88 0 0 -88 88 0 4108 2590 5 MP stroke
0 88 -88 0 0 -88 88 0 4196 2590 5 MP stroke
0 88 -88 0 0 -88 88 0 4284 2590 5 MP stroke
0 88 -88 0 0 -88 88 0 4372 2590 5 MP stroke
0 88 -88 0 0 -88 88 0 4460 2590 5 MP stroke
0 88 -88 0 0 -88 88 0 4548 2590 5 MP stroke
0 88 -88 0 0 -88 88 0 4636 2590 5 MP stroke
0 88 -88 0 0 -88 88 0 4724 2590 5 MP stroke
0 88 -88 0 0 -88 88 0 4812 2590 5 MP stroke
0 88 -89 0 0 -88 89 0 4900 2590 5 MP stroke
0 88 -88 0 0 -88 88 0 4989 2590 5 MP stroke
0 88 -88 0 0 -88 88 0 5077 2590 5 MP stroke
0 88 -88 0 0 -88 88 0 5165 2590 5 MP stroke
0 88 -88 0 0 -88 88 0 5253 2590 5 MP stroke
0 88 -88 0 0 -88 88 0 1818 2502 5 MP stroke
0 88 -88 0 0 -88 88 0 1906 2502 5 MP stroke
0 88 -88 0 0 -88 88 0 1994 2502 5 MP stroke
0 88 -89 0 0 -88 89 0 2082 2502 5 MP stroke
0 88 -88 0 0 -88 88 0 2171 2502 5 MP stroke
0 88 -88 0 0 -88 88 0 2259 2502 5 MP stroke
0 88 -88 0 0 -88 88 0 2347 2502 5 MP stroke
0 88 -88 0 0 -88 88 0 2435 2502 5 MP stroke
0 88 -88 0 0 -88 88 0 2523 2502 5 MP stroke
0 88 -88 0 0 -88 88 0 2611 2502 5 MP stroke
0 88 -88 0 0 -88 88 0 2699 2502 5 MP stroke
0 88 -88 0 0 -88 88 0 2787 2502 5 MP stroke
0 88 -88 0 0 -88 88 0 2875 2502 5 MP stroke
0 88 -88 0 0 -88 88 0 2963 2502 5 MP stroke
0 88 -88 0 0 -88 88 0 3051 2502 5 MP stroke
0 88 -88 0 0 -88 88 0 3139 2502 5 MP stroke
0 88 -88 0 0 -88 88 0 3227 2502 5 MP stroke
0 88 -88 0 0 -88 88 0 3315 2502 5 MP stroke
0 88 -88 0 0 -88 88 0 3403 2502 5 MP stroke
0 88 -89 0 0 -88 89 0 3491 2502 5 MP stroke
0 88 -88 0 0 -88 88 0 3580 2502 5 MP stroke
0 88 -88 0 0 -88 88 0 3668 2502 5 MP stroke
0 88 -88 0 0 -88 88 0 3756 2502 5 MP stroke
0 88 -88 0 0 -88 88 0 3844 2502 5 MP stroke
0 88 -88 0 0 -88 88 0 3932 2502 5 MP stroke
0 88 -88 0 0 -88 88 0 4020 2502 5 MP stroke
0 88 -88 0 0 -88 88 0 4108 2502 5 MP stroke
0 88 -88 0 0 -88 88 0 4196 2502 5 MP stroke
0 88 -88 0 0 -88 88 0 4284 2502 5 MP stroke
0 88 -88 0 0 -88 88 0 4372 2502 5 MP stroke
0 88 -88 0 0 -88 88 0 4460 2502 5 MP stroke
0 88 -88 0 0 -88 88 0 4548 2502 5 MP stroke
0 88 -88 0 0 -88 88 0 4636 2502 5 MP stroke
0 88 -88 0 0 -88 88 0 4724 2502 5 MP stroke
0 88 -88 0 0 -88 88 0 4812 2502 5 MP stroke
0 88 -89 0 0 -88 89 0 4900 2502 5 MP stroke
0 88 -88 0 0 -88 88 0 4989 2502 5 MP stroke
0 88 -88 0 0 -88 88 0 5077 2502 5 MP stroke
0 88 -88 0 0 -88 88 0 5165 2502 5 MP stroke
0 88 -88 0 0 -88 88 0 5253 2502 5 MP stroke
0 88 -88 0 0 -88 88 0 1818 2414 5 MP stroke
0 88 -88 0 0 -88 88 0 1906 2414 5 MP stroke
0 88 -88 0 0 -88 88 0 1994 2414 5 MP stroke
0 88 -89 0 0 -88 89 0 2082 2414 5 MP stroke
0 88 -88 0 0 -88 88 0 2171 2414 5 MP stroke
0 88 -88 0 0 -88 88 0 2259 2414 5 MP stroke
0 88 -88 0 0 -88 88 0 2347 2414 5 MP stroke
0 88 -88 0 0 -88 88 0 2435 2414 5 MP stroke
0 88 -88 0 0 -88 88 0 2523 2414 5 MP stroke
0 88 -88 0 0 -88 88 0 2611 2414 5 MP stroke
0 88 -88 0 0 -88 88 0 2699 2414 5 MP stroke
0 88 -88 0 0 -88 88 0 2787 2414 5 MP stroke
0 88 -88 0 0 -88 88 0 2875 2414 5 MP stroke
0 88 -88 0 0 -88 88 0 2963 2414 5 MP stroke
0 88 -88 0 0 -88 88 0 3051 2414 5 MP stroke
0 88 -88 0 0 -88 88 0 3139 2414 5 MP stroke
0 88 -88 0 0 -88 88 0 3227 2414 5 MP stroke
0 88 -88 0 0 -88 88 0 3315 2414 5 MP stroke
0 88 -88 0 0 -88 88 0 3403 2414 5 MP stroke
0 88 -89 0 0 -88 89 0 3491 2414 5 MP stroke
0 88 -88 0 0 -88 88 0 3580 2414 5 MP stroke
0 88 -88 0 0 -88 88 0 3668 2414 5 MP stroke
0 88 -88 0 0 -88 88 0 3756 2414 5 MP stroke
0 88 -88 0 0 -88 88 0 3844 2414 5 MP stroke
0 88 -88 0 0 -88 88 0 3932 2414 5 MP stroke
0 88 -88 0 0 -88 88 0 4020 2414 5 MP stroke
0 88 -88 0 0 -88 88 0 4108 2414 5 MP stroke
0 88 -88 0 0 -88 88 0 4196 2414 5 MP stroke
0 88 -88 0 0 -88 88 0 4284 2414 5 MP stroke
0 88 -88 0 0 -88 88 0 4372 2414 5 MP stroke
0 88 -88 0 0 -88 88 0 4460 2414 5 MP stroke
0 88 -88 0 0 -88 88 0 4548 2414 5 MP stroke
0 88 -88 0 0 -88 88 0 4636 2414 5 MP stroke
0 88 -88 0 0 -88 88 0 4724 2414 5 MP stroke
0 88 -88 0 0 -88 88 0 4812 2414 5 MP stroke
0 88 -89 0 0 -88 89 0 4900 2414 5 MP stroke
0 88 -88 0 0 -88 88 0 4989 2414 5 MP stroke
0 88 -88 0 0 -88 88 0 5077 2414 5 MP stroke
0 88 -88 0 0 -88 88 0 5165 2414 5 MP stroke
0 88 -88 0 0 -88 88 0 5253 2414 5 MP stroke
0 88 -88 0 0 -88 88 0 1818 2326 5 MP stroke
0 88 -88 0 0 -88 88 0 1906 2326 5 MP stroke
0 88 -88 0 0 -88 88 0 1994 2326 5 MP stroke
0 88 -89 0 0 -88 89 0 2082 2326 5 MP stroke
0 88 -88 0 0 -88 88 0 2171 2326 5 MP stroke
0 88 -88 0 0 -88 88 0 2259 2326 5 MP stroke
0 88 -88 0 0 -88 88 0 2347 2326 5 MP stroke
0 88 -88 0 0 -88 88 0 2435 2326 5 MP stroke
0 88 -88 0 0 -88 88 0 2523 2326 5 MP stroke
0 88 -88 0 0 -88 88 0 2611 2326 5 MP stroke
0 88 -88 0 0 -88 88 0 2699 2326 5 MP stroke
0 88 -88 0 0 -88 88 0 2787 2326 5 MP stroke
0 88 -88 0 0 -88 88 0 2875 2326 5 MP stroke
0 88 -88 0 0 -88 88 0 2963 2326 5 MP stroke
0 88 -88 0 0 -88 88 0 3051 2326 5 MP stroke
0 88 -88 0 0 -88 88 0 3139 2326 5 MP stroke
0 88 -88 0 0 -88 88 0 3227 2326 5 MP stroke
0 88 -88 0 0 -88 88 0 3315 2326 5 MP stroke
0 88 -88 0 0 -88 88 0 3403 2326 5 MP stroke
0 88 -89 0 0 -88 89 0 3491 2326 5 MP stroke
0 88 -88 0 0 -88 88 0 3580 2326 5 MP stroke
0 88 -88 0 0 -88 88 0 3668 2326 5 MP stroke
0 88 -88 0 0 -88 88 0 3756 2326 5 MP stroke
0 88 -88 0 0 -88 88 0 3844 2326 5 MP stroke
0 88 -88 0 0 -88 88 0 3932 2326 5 MP stroke
0 88 -88 0 0 -88 88 0 4020 2326 5 MP stroke
0 88 -88 0 0 -88 88 0 4108 2326 5 MP stroke
0 88 -88 0 0 -88 88 0 4196 2326 5 MP stroke
0 88 -88 0 0 -88 88 0 4284 2326 5 MP stroke
0 88 -88 0 0 -88 88 0 4372 2326 5 MP stroke
0 88 -88 0 0 -88 88 0 4460 2326 5 MP stroke
0 88 -88 0 0 -88 88 0 4548 2326 5 MP stroke
0 88 -88 0 0 -88 88 0 4636 2326 5 MP stroke
0 88 -88 0 0 -88 88 0 4724 2326 5 MP stroke
0 88 -88 0 0 -88 88 0 4812 2326 5 MP stroke
0 88 -89 0 0 -88 89 0 4900 2326 5 MP stroke
0 88 -88 0 0 -88 88 0 4989 2326 5 MP stroke
0 88 -88 0 0 -88 88 0 5077 2326 5 MP stroke
0 88 -88 0 0 -88 88 0 5165 2326 5 MP stroke
0 88 -88 0 0 -88 88 0 5253 2326 5 MP stroke
0 88 -88 0 0 -88 88 0 1818 2238 5 MP stroke
0 88 -88 0 0 -88 88 0 1906 2238 5 MP stroke
0 88 -88 0 0 -88 88 0 1994 2238 5 MP stroke
0 88 -89 0 0 -88 89 0 2082 2238 5 MP stroke
0 88 -88 0 0 -88 88 0 2171 2238 5 MP stroke
0 88 -88 0 0 -88 88 0 2259 2238 5 MP stroke
0 88 -88 0 0 -88 88 0 2347 2238 5 MP stroke
0 88 -88 0 0 -88 88 0 2435 2238 5 MP stroke
0 88 -88 0 0 -88 88 0 2523 2238 5 MP stroke
0 88 -88 0 0 -88 88 0 2611 2238 5 MP stroke
0 88 -88 0 0 -88 88 0 2699 2238 5 MP stroke
0 88 -88 0 0 -88 88 0 2787 2238 5 MP stroke
0 88 -88 0 0 -88 88 0 2875 2238 5 MP stroke
0 88 -88 0 0 -88 88 0 2963 2238 5 MP stroke
0 88 -88 0 0 -88 88 0 3051 2238 5 MP stroke
0 88 -88 0 0 -88 88 0 3139 2238 5 MP stroke
0 88 -88 0 0 -88 88 0 3227 2238 5 MP stroke
0 88 -88 0 0 -88 88 0 3315 2238 5 MP stroke
0 88 -88 0 0 -88 88 0 3403 2238 5 MP stroke
0 88 -89 0 0 -88 89 0 3491 2238 5 MP stroke
0 88 -88 0 0 -88 88 0 3580 2238 5 MP stroke
0 88 -88 0 0 -88 88 0 3668 2238 5 MP stroke
0 88 -88 0 0 -88 88 0 3756 2238 5 MP stroke
0 88 -88 0 0 -88 88 0 3844 2238 5 MP stroke
0 88 -88 0 0 -88 88 0 3932 2238 5 MP stroke
0 88 -88 0 0 -88 88 0 4020 2238 5 MP stroke
0 88 -88 0 0 -88 88 0 4108 2238 5 MP stroke
0 88 -88 0 0 -88 88 0 4196 2238 5 MP stroke
0 88 -88 0 0 -88 88 0 4284 2238 5 MP stroke
0 88 -88 0 0 -88 88 0 4372 2238 5 MP stroke
0 88 -88 0 0 -88 88 0 4460 2238 5 MP stroke
0 88 -88 0 0 -88 88 0 4548 2238 5 MP stroke
0 88 -88 0 0 -88 88 0 4636 2238 5 MP stroke
0 88 -88 0 0 -88 88 0 4724 2238 5 MP stroke
0 88 -88 0 0 -88 88 0 4812 2238 5 MP stroke
0 88 -89 0 0 -88 89 0 4900 2238 5 MP stroke
0 88 -88 0 0 -88 88 0 4989 2238 5 MP stroke
0 88 -88 0 0 -88 88 0 5077 2238 5 MP stroke
0 88 -88 0 0 -88 88 0 5165 2238 5 MP stroke
0 88 -88 0 0 -88 88 0 5253 2238 5 MP stroke
0 88 -88 0 0 -88 88 0 1818 2150 5 MP stroke
0 88 -88 0 0 -88 88 0 1906 2150 5 MP stroke
0 88 -88 0 0 -88 88 0 1994 2150 5 MP stroke
0 88 -89 0 0 -88 89 0 2082 2150 5 MP stroke
0 88 -88 0 0 -88 88 0 2171 2150 5 MP stroke
0 88 -88 0 0 -88 88 0 2259 2150 5 MP stroke
0 88 -88 0 0 -88 88 0 2347 2150 5 MP stroke
0 88 -88 0 0 -88 88 0 2435 2150 5 MP stroke
0 88 -88 0 0 -88 88 0 2523 2150 5 MP stroke
0 88 -88 0 0 -88 88 0 2611 2150 5 MP stroke
0 88 -88 0 0 -88 88 0 2699 2150 5 MP stroke
0 88 -88 0 0 -88 88 0 2787 2150 5 MP stroke
0 88 -88 0 0 -88 88 0 2875 2150 5 MP stroke
0 88 -88 0 0 -88 88 0 2963 2150 5 MP stroke
0 88 -88 0 0 -88 88 0 3051 2150 5 MP stroke
0 88 -88 0 0 -88 88 0 3139 2150 5 MP stroke
0 88 -88 0 0 -88 88 0 3227 2150 5 MP stroke
0 88 -88 0 0 -88 88 0 3315 2150 5 MP stroke
0 88 -88 0 0 -88 88 0 3403 2150 5 MP stroke
0 88 -89 0 0 -88 89 0 3491 2150 5 MP stroke
0 88 -88 0 0 -88 88 0 3580 2150 5 MP stroke
0 88 -88 0 0 -88 88 0 3668 2150 5 MP stroke
0 88 -88 0 0 -88 88 0 3756 2150 5 MP stroke
0 88 -88 0 0 -88 88 0 3844 2150 5 MP stroke
0 88 -88 0 0 -88 88 0 3932 2150 5 MP stroke
0 88 -88 0 0 -88 88 0 4020 2150 5 MP stroke
0 88 -88 0 0 -88 88 0 4108 2150 5 MP stroke
0 88 -88 0 0 -88 88 0 4196 2150 5 MP stroke
0 88 -88 0 0 -88 88 0 4284 2150 5 MP stroke
0 88 -88 0 0 -88 88 0 4372 2150 5 MP stroke
0 88 -88 0 0 -88 88 0 4460 2150 5 MP stroke
0 88 -88 0 0 -88 88 0 4548 2150 5 MP stroke
0 88 -88 0 0 -88 88 0 4636 2150 5 MP stroke
0 88 -88 0 0 -88 88 0 4724 2150 5 MP stroke
0 88 -88 0 0 -88 88 0 4812 2150 5 MP stroke
0 88 -89 0 0 -88 89 0 4900 2150 5 MP stroke
0 88 -88 0 0 -88 88 0 4989 2150 5 MP stroke
0 88 -88 0 0 -88 88 0 5077 2150 5 MP stroke
0 88 -88 0 0 -88 88 0 5165 2150 5 MP stroke
0 88 -88 0 0 -88 88 0 5253 2150 5 MP stroke
0 88 -88 0 0 -88 88 0 1818 2062 5 MP stroke
0 88 -88 0 0 -88 88 0 1906 2062 5 MP stroke
0 88 -88 0 0 -88 88 0 1994 2062 5 MP stroke
0 88 -89 0 0 -88 89 0 2082 2062 5 MP stroke
0 88 -88 0 0 -88 88 0 2171 2062 5 MP stroke
0 88 -88 0 0 -88 88 0 2259 2062 5 MP stroke
0 88 -88 0 0 -88 88 0 2347 2062 5 MP stroke
0 88 -88 0 0 -88 88 0 2435 2062 5 MP stroke
0 88 -88 0 0 -88 88 0 2523 2062 5 MP stroke
0 88 -88 0 0 -88 88 0 2611 2062 5 MP stroke
0 88 -88 0 0 -88 88 0 2699 2062 5 MP stroke
0 88 -88 0 0 -88 88 0 2787 2062 5 MP stroke
0 88 -88 0 0 -88 88 0 2875 2062 5 MP stroke
0 88 -88 0 0 -88 88 0 2963 2062 5 MP stroke
0 88 -88 0 0 -88 88 0 3051 2062 5 MP stroke
0 88 -88 0 0 -88 88 0 3139 2062 5 MP stroke
0 88 -88 0 0 -88 88 0 3227 2062 5 MP stroke
0 88 -88 0 0 -88 88 0 3315 2062 5 MP stroke
0 88 -88 0 0 -88 88 0 3403 2062 5 MP stroke
0 88 -89 0 0 -88 89 0 3491 2062 5 MP stroke
0 88 -88 0 0 -88 88 0 3580 2062 5 MP stroke
0 88 -88 0 0 -88 88 0 3668 2062 5 MP stroke
0 88 -88 0 0 -88 88 0 3756 2062 5 MP stroke
0 88 -88 0 0 -88 88 0 3844 2062 5 MP stroke
0 88 -88 0 0 -88 88 0 3932 2062 5 MP stroke
0 88 -88 0 0 -88 88 0 4020 2062 5 MP stroke
0 88 -88 0 0 -88 88 0 4108 2062 5 MP stroke
0 88 -88 0 0 -88 88 0 4196 2062 5 MP stroke
0 88 -88 0 0 -88 88 0 4284 2062 5 MP stroke
0 88 -88 0 0 -88 88 0 4372 2062 5 MP stroke
0 88 -88 0 0 -88 88 0 4460 2062 5 MP stroke
0 88 -88 0 0 -88 88 0 4548 2062 5 MP stroke
0 88 -88 0 0 -88 88 0 4636 2062 5 MP stroke
0 88 -88 0 0 -88 88 0 4724 2062 5 MP stroke
0 88 -88 0 0 -88 88 0 4812 2062 5 MP stroke
0 88 -89 0 0 -88 89 0 4900 2062 5 MP stroke
0 88 -88 0 0 -88 88 0 4989 2062 5 MP stroke
0 88 -88 0 0 -88 88 0 5077 2062 5 MP stroke
0 88 -88 0 0 -88 88 0 5165 2062 5 MP stroke
0 88 -88 0 0 -88 88 0 5253 2062 5 MP stroke
0 88 -88 0 0 -88 88 0 1818 1974 5 MP stroke
0 88 -88 0 0 -88 88 0 1906 1974 5 MP stroke
0 88 -88 0 0 -88 88 0 1994 1974 5 MP stroke
0 88 -89 0 0 -88 89 0 2082 1974 5 MP stroke
0 88 -88 0 0 -88 88 0 2171 1974 5 MP stroke
0 88 -88 0 0 -88 88 0 2259 1974 5 MP stroke
0 88 -88 0 0 -88 88 0 2347 1974 5 MP stroke
0 88 -88 0 0 -88 88 0 2435 1974 5 MP stroke
0 88 -88 0 0 -88 88 0 2523 1974 5 MP stroke
0 88 -88 0 0 -88 88 0 2611 1974 5 MP stroke
0 88 -88 0 0 -88 88 0 2699 1974 5 MP stroke
0 88 -88 0 0 -88 88 0 2787 1974 5 MP stroke
0 88 -88 0 0 -88 88 0 2875 1974 5 MP stroke
0 88 -88 0 0 -88 88 0 2963 1974 5 MP stroke
0 88 -88 0 0 -88 88 0 3051 1974 5 MP stroke
0 88 -88 0 0 -88 88 0 3139 1974 5 MP stroke
0 88 -88 0 0 -88 88 0 3227 1974 5 MP stroke
0 88 -88 0 0 -88 88 0 3315 1974 5 MP stroke
0 88 -88 0 0 -88 88 0 3403 1974 5 MP stroke
0 88 -89 0 0 -88 89 0 3491 1974 5 MP stroke
0 88 -88 0 0 -88 88 0 3580 1974 5 MP stroke
0 88 -88 0 0 -88 88 0 3668 1974 5 MP stroke
0 88 -88 0 0 -88 88 0 3756 1974 5 MP stroke
0 88 -88 0 0 -88 88 0 3844 1974 5 MP stroke
0 88 -88 0 0 -88 88 0 3932 1974 5 MP stroke
0 88 -88 0 0 -88 88 0 4020 1974 5 MP stroke
0 88 -88 0 0 -88 88 0 4108 1974 5 MP stroke
0 88 -88 0 0 -88 88 0 4196 1974 5 MP stroke
0 88 -88 0 0 -88 88 0 4284 1974 5 MP stroke
0 88 -88 0 0 -88 88 0 4372 1974 5 MP stroke
0 88 -88 0 0 -88 88 0 4460 1974 5 MP stroke
0 88 -88 0 0 -88 88 0 4548 1974 5 MP stroke
0 88 -88 0 0 -88 88 0 4636 1974 5 MP stroke
0 88 -88 0 0 -88 88 0 4724 1974 5 MP stroke
0 88 -88 0 0 -88 88 0 4812 1974 5 MP stroke
0 88 -89 0 0 -88 89 0 4900 1974 5 MP stroke
0 88 -88 0 0 -88 88 0 4989 1974 5 MP stroke
0 88 -88 0 0 -88 88 0 5077 1974 5 MP stroke
0 88 -88 0 0 -88 88 0 5165 1974 5 MP stroke
0 88 -88 0 0 -88 88 0 5253 1974 5 MP stroke
0 88 -88 0 0 -88 88 0 1818 1886 5 MP stroke
0 88 -88 0 0 -88 88 0 1906 1886 5 MP stroke
0 88 -88 0 0 -88 88 0 1994 1886 5 MP stroke
0 88 -89 0 0 -88 89 0 2082 1886 5 MP stroke
0 88 -88 0 0 -88 88 0 2171 1886 5 MP stroke
0 88 -88 0 0 -88 88 0 2259 1886 5 MP stroke
0 88 -88 0 0 -88 88 0 2347 1886 5 MP stroke
0 88 -88 0 0 -88 88 0 2435 1886 5 MP stroke
0 88 -88 0 0 -88 88 0 2523 1886 5 MP stroke
0 88 -88 0 0 -88 88 0 2611 1886 5 MP stroke
0 88 -88 0 0 -88 88 0 2699 1886 5 MP stroke
0 88 -88 0 0 -88 88 0 2787 1886 5 MP stroke
0 88 -88 0 0 -88 88 0 2875 1886 5 MP stroke
0 88 -88 0 0 -88 88 0 2963 1886 5 MP stroke
0 88 -88 0 0 -88 88 0 3051 1886 5 MP stroke
0 88 -88 0 0 -88 88 0 3139 1886 5 MP stroke
0 88 -88 0 0 -88 88 0 3227 1886 5 MP stroke
0 88 -88 0 0 -88 88 0 3315 1886 5 MP stroke
0 88 -88 0 0 -88 88 0 3403 1886 5 MP stroke
0 88 -89 0 0 -88 89 0 3491 1886 5 MP stroke
0 88 -88 0 0 -88 88 0 3580 1886 5 MP stroke
0 88 -88 0 0 -88 88 0 3668 1886 5 MP stroke
0 88 -88 0 0 -88 88 0 3756 1886 5 MP stroke
0 88 -88 0 0 -88 88 0 3844 1886 5 MP stroke
0 88 -88 0 0 -88 88 0 3932 1886 5 MP stroke
0 88 -88 0 0 -88 88 0 4020 1886 5 MP stroke
0 88 -88 0 0 -88 88 0 4108 1886 5 MP stroke
0 88 -88 0 0 -88 88 0 4196 1886 5 MP stroke
0 88 -88 0 0 -88 88 0 4284 1886 5 MP stroke
0 88 -88 0 0 -88 88 0 4372 1886 5 MP stroke
0 88 -88 0 0 -88 88 0 4460 1886 5 MP stroke
0 88 -88 0 0 -88 88 0 4548 1886 5 MP stroke
0 88 -88 0 0 -88 88 0 4636 1886 5 MP stroke
0 88 -88 0 0 -88 88 0 4724 1886 5 MP stroke
0 88 -88 0 0 -88 88 0 4812 1886 5 MP stroke
0 88 -89 0 0 -88 89 0 4900 1886 5 MP stroke
0 88 -88 0 0 -88 88 0 4989 1886 5 MP stroke
0 88 -88 0 0 -88 88 0 5077 1886 5 MP stroke
0 88 -88 0 0 -88 88 0 5165 1886 5 MP stroke
0 88 -88 0 0 -88 88 0 5253 1886 5 MP stroke
0 89 -88 0 0 -89 88 0 1818 1798 5 MP stroke
0 89 -88 0 0 -89 88 0 1906 1798 5 MP stroke
0 89 -88 0 0 -89 88 0 1994 1798 5 MP stroke
0 89 -89 0 0 -89 89 0 2082 1798 5 MP stroke
0 89 -88 0 0 -89 88 0 2171 1798 5 MP stroke
0 89 -88 0 0 -89 88 0 2259 1798 5 MP stroke
0 89 -88 0 0 -89 88 0 2347 1798 5 MP stroke
0 89 -88 0 0 -89 88 0 2435 1798 5 MP stroke
0 89 -88 0 0 -89 88 0 2523 1798 5 MP stroke
0 89 -88 0 0 -89 88 0 2611 1798 5 MP stroke
0 89 -88 0 0 -89 88 0 2699 1798 5 MP stroke
0 89 -88 0 0 -89 88 0 2787 1798 5 MP stroke
0 89 -88 0 0 -89 88 0 2875 1798 5 MP stroke
0 89 -88 0 0 -89 88 0 2963 1798 5 MP stroke
0 89 -88 0 0 -89 88 0 3051 1798 5 MP stroke
0 89 -88 0 0 -89 88 0 3139 1798 5 MP stroke
0 89 -88 0 0 -89 88 0 3227 1798 5 MP stroke
0 89 -88 0 0 -89 88 0 3315 1798 5 MP stroke
0 89 -88 0 0 -89 88 0 3403 1798 5 MP stroke
0 89 -89 0 0 -89 89 0 3491 1798 5 MP stroke
0 89 -88 0 0 -89 88 0 3580 1798 5 MP stroke
0 89 -88 0 0 -89 88 0 3668 1798 5 MP stroke
0 89 -88 0 0 -89 88 0 3756 1798 5 MP stroke
0 89 -88 0 0 -89 88 0 3844 1798 5 MP stroke
0 89 -88 0 0 -89 88 0 3932 1798 5 MP stroke
0 89 -88 0 0 -89 88 0 4020 1798 5 MP stroke
0 89 -88 0 0 -89 88 0 4108 1798 5 MP stroke
0 89 -88 0 0 -89 88 0 4196 1798 5 MP stroke
0 89 -88 0 0 -89 88 0 4284 1798 5 MP stroke
0 89 -88 0 0 -89 88 0 4372 1798 5 MP stroke
0 89 -88 0 0 -89 88 0 4460 1798 5 MP stroke
0 89 -88 0 0 -89 88 0 4548 1798 5 MP stroke
0 89 -88 0 0 -89 88 0 4636 1798 5 MP stroke
0 89 -88 0 0 -89 88 0 4724 1798 5 MP stroke
0 89 -88 0 0 -89 88 0 4812 1798 5 MP stroke
0 89 -89 0 0 -89 89 0 4900 1798 5 MP stroke
0 89 -88 0 0 -89 88 0 4989 1798 5 MP stroke
0 89 -88 0 0 -89 88 0 5077 1798 5 MP stroke
0 89 -88 0 0 -89 88 0 5165 1798 5 MP stroke
0 89 -88 0 0 -89 88 0 5253 1798 5 MP stroke
0 88 -88 0 0 -88 88 0 1818 1709 5 MP stroke
0 88 -88 0 0 -88 88 0 1906 1709 5 MP stroke
0 88 -88 0 0 -88 88 0 1994 1709 5 MP stroke
0 88 -89 0 0 -88 89 0 2082 1709 5 MP stroke
0 88 -88 0 0 -88 88 0 2171 1709 5 MP stroke
0 88 -88 0 0 -88 88 0 2259 1709 5 MP stroke
0 88 -88 0 0 -88 88 0 2347 1709 5 MP stroke
0 88 -88 0 0 -88 88 0 2435 1709 5 MP stroke
0 88 -88 0 0 -88 88 0 2523 1709 5 MP stroke
0 88 -88 0 0 -88 88 0 2611 1709 5 MP stroke
0 88 -88 0 0 -88 88 0 2699 1709 5 MP stroke
0 88 -88 0 0 -88 88 0 2787 1709 5 MP stroke
0 88 -88 0 0 -88 88 0 2875 1709 5 MP stroke
0 88 -88 0 0 -88 88 0 2963 1709 5 MP stroke
0 88 -88 0 0 -88 88 0 3051 1709 5 MP stroke
0 88 -88 0 0 -88 88 0 3139 1709 5 MP stroke
0 88 -88 0 0 -88 88 0 3227 1709 5 MP stroke
0 88 -88 0 0 -88 88 0 3315 1709 5 MP stroke
0 88 -88 0 0 -88 88 0 3403 1709 5 MP stroke
0 88 -89 0 0 -88 89 0 3491 1709 5 MP stroke
0 88 -88 0 0 -88 88 0 3580 1709 5 MP stroke
0 88 -88 0 0 -88 88 0 3668 1709 5 MP stroke
0 88 -88 0 0 -88 88 0 3756 1709 5 MP stroke
0 88 -88 0 0 -88 88 0 3844 1709 5 MP stroke
0 88 -88 0 0 -88 88 0 3932 1709 5 MP stroke
0 88 -88 0 0 -88 88 0 4020 1709 5 MP stroke
0 88 -88 0 0 -88 88 0 4108 1709 5 MP stroke
0 88 -88 0 0 -88 88 0 4196 1709 5 MP stroke
0 88 -88 0 0 -88 88 0 4284 1709 5 MP stroke
0 88 -88 0 0 -88 88 0 4372 1709 5 MP stroke
0 88 -88 0 0 -88 88 0 4460 1709 5 MP stroke
0 88 -88 0 0 -88 88 0 4548 1709 5 MP stroke
0 88 -88 0 0 -88 88 0 4636 1709 5 MP stroke
0 88 -88 0 0 -88 88 0 4724 1709 5 MP stroke
0 88 -88 0 0 -88 88 0 4812 1709 5 MP stroke
0 88 -89 0 0 -88 89 0 4900 1709 5 MP stroke
0 88 -88 0 0 -88 88 0 4989 1709 5 MP stroke
0 88 -88 0 0 -88 88 0 5077 1709 5 MP stroke
0 88 -88 0 0 -88 88 0 5165 1709 5 MP stroke
0 88 -88 0 0 -88 88 0 5253 1709 5 MP stroke
0 88 -88 0 0 -88 88 0 1818 1621 5 MP stroke
0 88 -88 0 0 -88 88 0 1906 1621 5 MP stroke
0 88 -88 0 0 -88 88 0 1994 1621 5 MP stroke
0 88 -89 0 0 -88 89 0 2082 1621 5 MP stroke
0 88 -88 0 0 -88 88 0 2171 1621 5 MP stroke
0 88 -88 0 0 -88 88 0 2259 1621 5 MP stroke
0 88 -88 0 0 -88 88 0 2347 1621 5 MP stroke
0 88 -88 0 0 -88 88 0 2435 1621 5 MP stroke
0 88 -88 0 0 -88 88 0 2523 1621 5 MP stroke
0 88 -88 0 0 -88 88 0 2611 1621 5 MP stroke
0 88 -88 0 0 -88 88 0 2699 1621 5 MP stroke
0 88 -88 0 0 -88 88 0 2787 1621 5 MP stroke
0 88 -88 0 0 -88 88 0 2875 1621 5 MP stroke
0 88 -88 0 0 -88 88 0 2963 1621 5 MP stroke
0 88 -88 0 0 -88 88 0 3051 1621 5 MP stroke
0 88 -88 0 0 -88 88 0 3139 1621 5 MP stroke
0 88 -88 0 0 -88 88 0 3227 1621 5 MP stroke
0 88 -88 0 0 -88 88 0 3315 1621 5 MP stroke
0 88 -88 0 0 -88 88 0 3403 1621 5 MP stroke
0 88 -89 0 0 -88 89 0 3491 1621 5 MP stroke
0 88 -88 0 0 -88 88 0 3580 1621 5 MP stroke
0 88 -88 0 0 -88 88 0 3668 1621 5 MP stroke
0 88 -88 0 0 -88 88 0 3756 1621 5 MP stroke
0 88 -88 0 0 -88 88 0 3844 1621 5 MP stroke
0 88 -88 0 0 -88 88 0 3932 1621 5 MP stroke
0 88 -88 0 0 -88 88 0 4020 1621 5 MP stroke
0 88 -88 0 0 -88 88 0 4108 1621 5 MP stroke
0 88 -88 0 0 -88 88 0 4196 1621 5 MP stroke
0 88 -88 0 0 -88 88 0 4284 1621 5 MP stroke
0 88 -88 0 0 -88 88 0 4372 1621 5 MP stroke
0 88 -88 0 0 -88 88 0 4460 1621 5 MP stroke
0 88 -88 0 0 -88 88 0 4548 1621 5 MP stroke
0 88 -88 0 0 -88 88 0 4636 1621 5 MP stroke
0 88 -88 0 0 -88 88 0 4724 1621 5 MP stroke
0 88 -88 0 0 -88 88 0 4812 1621 5 MP stroke
0 88 -89 0 0 -88 89 0 4900 1621 5 MP stroke
0 88 -88 0 0 -88 88 0 4989 1621 5 MP stroke
0 88 -88 0 0 -88 88 0 5077 1621 5 MP stroke
0 88 -88 0 0 -88 88 0 5165 1621 5 MP stroke
0 88 -88 0 0 -88 88 0 5253 1621 5 MP stroke
0 88 -88 0 0 -88 88 0 1818 1533 5 MP stroke
0 88 -88 0 0 -88 88 0 1906 1533 5 MP stroke
0 88 -88 0 0 -88 88 0 1994 1533 5 MP stroke
0 88 -89 0 0 -88 89 0 2082 1533 5 MP stroke
0 88 -88 0 0 -88 88 0 2171 1533 5 MP stroke
0 88 -88 0 0 -88 88 0 2259 1533 5 MP stroke
0 88 -88 0 0 -88 88 0 2347 1533 5 MP stroke
0 88 -88 0 0 -88 88 0 2435 1533 5 MP stroke
0 88 -88 0 0 -88 88 0 2523 1533 5 MP stroke
0 88 -88 0 0 -88 88 0 2611 1533 5 MP stroke
0 88 -88 0 0 -88 88 0 2699 1533 5 MP stroke
0 88 -88 0 0 -88 88 0 2787 1533 5 MP stroke
0 88 -88 0 0 -88 88 0 2875 1533 5 MP stroke
0 88 -88 0 0 -88 88 0 2963 1533 5 MP stroke
0 88 -88 0 0 -88 88 0 3051 1533 5 MP stroke
0 88 -88 0 0 -88 88 0 3139 1533 5 MP stroke
0 88 -88 0 0 -88 88 0 3227 1533 5 MP stroke
0 88 -88 0 0 -88 88 0 3315 1533 5 MP stroke
0 88 -88 0 0 -88 88 0 3403 1533 5 MP stroke
0 88 -89 0 0 -88 89 0 3491 1533 5 MP stroke
0 88 -88 0 0 -88 88 0 3580 1533 5 MP stroke
0 88 -88 0 0 -88 88 0 3668 1533 5 MP stroke
0 88 -88 0 0 -88 88 0 3756 1533 5 MP stroke
0 88 -88 0 0 -88 88 0 3844 1533 5 MP stroke
0 88 -88 0 0 -88 88 0 3932 1533 5 MP stroke
0 88 -88 0 0 -88 88 0 4020 1533 5 MP stroke
0 88 -88 0 0 -88 88 0 4108 1533 5 MP stroke
0 88 -88 0 0 -88 88 0 4196 1533 5 MP stroke
0 88 -88 0 0 -88 88 0 4284 1533 5 MP stroke
0 88 -88 0 0 -88 88 0 4372 1533 5 MP stroke
0 88 -88 0 0 -88 88 0 4460 1533 5 MP stroke
0 88 -88 0 0 -88 88 0 4548 1533 5 MP stroke
0 88 -88 0 0 -88 88 0 4636 1533 5 MP stroke
0 88 -88 0 0 -88 88 0 4724 1533 5 MP stroke
0 88 -88 0 0 -88 88 0 4812 1533 5 MP stroke
0 88 -89 0 0 -88 89 0 4900 1533 5 MP stroke
0 88 -88 0 0 -88 88 0 4989 1533 5 MP stroke
0 88 -88 0 0 -88 88 0 5077 1533 5 MP stroke
0 88 -88 0 0 -88 88 0 5165 1533 5 MP stroke
0 88 -88 0 0 -88 88 0 5253 1533 5 MP stroke
0 88 -88 0 0 -88 88 0 1818 1445 5 MP stroke
0 88 -88 0 0 -88 88 0 1906 1445 5 MP stroke
0 88 -88 0 0 -88 88 0 1994 1445 5 MP stroke
0 88 -89 0 0 -88 89 0 2082 1445 5 MP stroke
0 88 -88 0 0 -88 88 0 2171 1445 5 MP stroke
0 88 -88 0 0 -88 88 0 2259 1445 5 MP stroke
0 88 -88 0 0 -88 88 0 2347 1445 5 MP stroke
0 88 -88 0 0 -88 88 0 2435 1445 5 MP stroke
0 88 -88 0 0 -88 88 0 2523 1445 5 MP stroke
0 88 -88 0 0 -88 88 0 2611 1445 5 MP stroke
0 88 -88 0 0 -88 88 0 2699 1445 5 MP stroke
0 88 -88 0 0 -88 88 0 2787 1445 5 MP stroke
0 88 -88 0 0 -88 88 0 2875 1445 5 MP stroke
0 88 -88 0 0 -88 88 0 2963 1445 5 MP stroke
0 88 -88 0 0 -88 88 0 3051 1445 5 MP stroke
0 88 -88 0 0 -88 88 0 3139 1445 5 MP stroke
0 88 -88 0 0 -88 88 0 3227 1445 5 MP stroke
0 88 -88 0 0 -88 88 0 3315 1445 5 MP stroke
0 88 -88 0 0 -88 88 0 3403 1445 5 MP stroke
0 88 -89 0 0 -88 89 0 3491 1445 5 MP stroke
0 88 -88 0 0 -88 88 0 3580 1445 5 MP stroke
0 88 -88 0 0 -88 88 0 3668 1445 5 MP stroke
0 88 -88 0 0 -88 88 0 3756 1445 5 MP stroke
0 88 -88 0 0 -88 88 0 3844 1445 5 MP stroke
0 88 -88 0 0 -88 88 0 3932 1445 5 MP stroke
0 88 -88 0 0 -88 88 0 4020 1445 5 MP stroke
0 88 -88 0 0 -88 88 0 4108 1445 5 MP stroke
0 88 -88 0 0 -88 88 0 4196 1445 5 MP stroke
0 88 -88 0 0 -88 88 0 4284 1445 5 MP stroke
0 88 -88 0 0 -88 88 0 4372 1445 5 MP stroke
0 88 -88 0 0 -88 88 0 4460 1445 5 MP stroke
0 88 -88 0 0 -88 88 0 4548 1445 5 MP stroke
0 88 -88 0 0 -88 88 0 4636 1445 5 MP stroke
0 88 -88 0 0 -88 88 0 4724 1445 5 MP stroke
0 88 -88 0 0 -88 88 0 4812 1445 5 MP stroke
0 88 -89 0 0 -88 89 0 4900 1445 5 MP stroke
0 88 -88 0 0 -88 88 0 4989 1445 5 MP stroke
0 88 -88 0 0 -88 88 0 5077 1445 5 MP stroke
0 88 -88 0 0 -88 88 0 5165 1445 5 MP stroke
0 88 -88 0 0 -88 88 0 5253 1445 5 MP stroke
0 88 -88 0 0 -88 88 0 1818 1357 5 MP stroke
0 88 -88 0 0 -88 88 0 1906 1357 5 MP stroke
0 88 -88 0 0 -88 88 0 1994 1357 5 MP stroke
0 88 -89 0 0 -88 89 0 2082 1357 5 MP stroke
0 88 -88 0 0 -88 88 0 2171 1357 5 MP stroke
0 88 -88 0 0 -88 88 0 2259 1357 5 MP stroke
0 88 -88 0 0 -88 88 0 2347 1357 5 MP stroke
0 88 -88 0 0 -88 88 0 2435 1357 5 MP stroke
0 88 -88 0 0 -88 88 0 2523 1357 5 MP stroke
0 88 -88 0 0 -88 88 0 2611 1357 5 MP stroke
0 88 -88 0 0 -88 88 0 2699 1357 5 MP stroke
0 88 -88 0 0 -88 88 0 2787 1357 5 MP stroke
0 88 -88 0 0 -88 88 0 2875 1357 5 MP stroke
0 88 -88 0 0 -88 88 0 2963 1357 5 MP stroke
0 88 -88 0 0 -88 88 0 3051 1357 5 MP stroke
0 88 -88 0 0 -88 88 0 3139 1357 5 MP stroke
0 88 -88 0 0 -88 88 0 3227 1357 5 MP stroke
0 88 -88 0 0 -88 88 0 3315 1357 5 MP stroke
0 88 -88 0 0 -88 88 0 3403 1357 5 MP stroke
0 88 -89 0 0 -88 89 0 3491 1357 5 MP stroke
0 88 -88 0 0 -88 88 0 3580 1357 5 MP stroke
0 88 -88 0 0 -88 88 0 3668 1357 5 MP stroke
0 88 -88 0 0 -88 88 0 3756 1357 5 MP stroke
0 88 -88 0 0 -88 88 0 3844 1357 5 MP stroke
0 88 -88 0 0 -88 88 0 3932 1357 5 MP stroke
0 88 -88 0 0 -88 88 0 4020 1357 5 MP stroke
0 88 -88 0 0 -88 88 0 4108 1357 5 MP stroke
0 88 -88 0 0 -88 88 0 4196 1357 5 MP stroke
0 88 -88 0 0 -88 88 0 4284 1357 5 MP stroke
0 88 -88 0 0 -88 88 0 4372 1357 5 MP stroke
0 88 -88 0 0 -88 88 0 4460 1357 5 MP stroke
0 88 -88 0 0 -88 88 0 4548 1357 5 MP stroke
0 88 -88 0 0 -88 88 0 4636 1357 5 MP stroke
0 88 -88 0 0 -88 88 0 4724 1357 5 MP stroke
0 88 -88 0 0 -88 88 0 4812 1357 5 MP stroke
0 88 -89 0 0 -88 89 0 4900 1357 5 MP stroke
0 88 -88 0 0 -88 88 0 4989 1357 5 MP stroke
0 88 -88 0 0 -88 88 0 5077 1357 5 MP stroke
0 88 -88 0 0 -88 88 0 5165 1357 5 MP stroke
0 88 -88 0 0 -88 88 0 5253 1357 5 MP stroke
0 88 -88 0 0 -88 88 0 1818 1269 5 MP stroke
0 88 -88 0 0 -88 88 0 1906 1269 5 MP stroke
0 88 -88 0 0 -88 88 0 1994 1269 5 MP stroke
0 88 -89 0 0 -88 89 0 2082 1269 5 MP stroke
0 88 -88 0 0 -88 88 0 2171 1269 5 MP stroke
0 88 -88 0 0 -88 88 0 2259 1269 5 MP stroke
0 88 -88 0 0 -88 88 0 2347 1269 5 MP stroke
0 88 -88 0 0 -88 88 0 2435 1269 5 MP stroke
0 88 -88 0 0 -88 88 0 2523 1269 5 MP stroke
0 88 -88 0 0 -88 88 0 2611 1269 5 MP stroke
0 88 -88 0 0 -88 88 0 2699 1269 5 MP stroke
0 88 -88 0 0 -88 88 0 2787 1269 5 MP stroke
0 88 -88 0 0 -88 88 0 2875 1269 5 MP stroke
0 88 -88 0 0 -88 88 0 2963 1269 5 MP stroke
0 88 -88 0 0 -88 88 0 3051 1269 5 MP stroke
0 88 -88 0 0 -88 88 0 3139 1269 5 MP stroke
0 88 -88 0 0 -88 88 0 3227 1269 5 MP stroke
0 88 -88 0 0 -88 88 0 3315 1269 5 MP stroke
0 88 -88 0 0 -88 88 0 3403 1269 5 MP stroke
0 88 -89 0 0 -88 89 0 3491 1269 5 MP stroke
0 88 -88 0 0 -88 88 0 3580 1269 5 MP stroke
0 88 -88 0 0 -88 88 0 3668 1269 5 MP stroke
0 88 -88 0 0 -88 88 0 3756 1269 5 MP stroke
0 88 -88 0 0 -88 88 0 3844 1269 5 MP stroke
0 88 -88 0 0 -88 88 0 3932 1269 5 MP stroke
0 88 -88 0 0 -88 88 0 4020 1269 5 MP stroke
0 88 -88 0 0 -88 88 0 4108 1269 5 MP stroke
0 88 -88 0 0 -88 88 0 4196 1269 5 MP stroke
0 88 -88 0 0 -88 88 0 4284 1269 5 MP stroke
0 88 -88 0 0 -88 88 0 4372 1269 5 MP stroke
0 88 -88 0 0 -88 88 0 4460 1269 5 MP stroke
0 88 -88 0 0 -88 88 0 4548 1269 5 MP stroke
0 88 -88 0 0 -88 88 0 4636 1269 5 MP stroke
0 88 -88 0 0 -88 88 0 4724 1269 5 MP stroke
0 88 -88 0 0 -88 88 0 4812 1269 5 MP stroke
0 88 -89 0 0 -88 89 0 4900 1269 5 MP stroke
0 88 -88 0 0 -88 88 0 4989 1269 5 MP stroke
0 88 -88 0 0 -88 88 0 5077 1269 5 MP stroke
0 88 -88 0 0 -88 88 0 5165 1269 5 MP stroke
0 88 -88 0 0 -88 88 0 5253 1269 5 MP stroke
0 88 -88 0 0 -88 88 0 1818 1181 5 MP stroke
0 88 -88 0 0 -88 88 0 1906 1181 5 MP stroke
0 88 -88 0 0 -88 88 0 1994 1181 5 MP stroke
0 88 -89 0 0 -88 89 0 2082 1181 5 MP stroke
0 88 -88 0 0 -88 88 0 2171 1181 5 MP stroke
0 88 -88 0 0 -88 88 0 2259 1181 5 MP stroke
0 88 -88 0 0 -88 88 0 2347 1181 5 MP stroke
0 88 -88 0 0 -88 88 0 2435 1181 5 MP stroke
0 88 -88 0 0 -88 88 0 2523 1181 5 MP stroke
0 88 -88 0 0 -88 88 0 2611 1181 5 MP stroke
0 88 -88 0 0 -88 88 0 2699 1181 5 MP stroke
0 88 -88 0 0 -88 88 0 2787 1181 5 MP stroke
0 88 -88 0 0 -88 88 0 2875 1181 5 MP stroke
0 88 -88 0 0 -88 88 0 2963 1181 5 MP stroke
0 88 -88 0 0 -88 88 0 3051 1181 5 MP stroke
0 88 -88 0 0 -88 88 0 3139 1181 5 MP stroke
0 88 -88 0 0 -88 88 0 3227 1181 5 MP stroke
0 88 -88 0 0 -88 88 0 3315 1181 5 MP stroke
0 88 -88 0 0 -88 88 0 3403 1181 5 MP stroke
0 88 -89 0 0 -88 89 0 3491 1181 5 MP stroke
0 88 -88 0 0 -88 88 0 3580 1181 5 MP stroke
0 88 -88 0 0 -88 88 0 3668 1181 5 MP stroke
0 88 -88 0 0 -88 88 0 3756 1181 5 MP stroke
0 88 -88 0 0 -88 88 0 3844 1181 5 MP stroke
0 88 -88 0 0 -88 88 0 3932 1181 5 MP stroke
0 88 -88 0 0 -88 88 0 4020 1181 5 MP stroke
0 88 -88 0 0 -88 88 0 4108 1181 5 MP stroke
0 88 -88 0 0 -88 88 0 4196 1181 5 MP stroke
0 88 -88 0 0 -88 88 0 4284 1181 5 MP stroke
0 88 -88 0 0 -88 88 0 4372 1181 5 MP stroke
0 88 -88 0 0 -88 88 0 4460 1181 5 MP stroke
0 88 -88 0 0 -88 88 0 4548 1181 5 MP stroke
0 88 -88 0 0 -88 88 0 4636 1181 5 MP stroke
0 88 -88 0 0 -88 88 0 4724 1181 5 MP stroke
0 88 -88 0 0 -88 88 0 4812 1181 5 MP stroke
0 88 -89 0 0 -88 89 0 4900 1181 5 MP stroke
0 88 -88 0 0 -88 88 0 4989 1181 5 MP stroke
0 88 -88 0 0 -88 88 0 5077 1181 5 MP stroke
0 88 -88 0 0 -88 88 0 5165 1181 5 MP stroke
0 88 -88 0 0 -88 88 0 5253 1181 5 MP stroke
0 88 -88 0 0 -88 88 0 1818 1093 5 MP stroke
0 88 -88 0 0 -88 88 0 1906 1093 5 MP stroke
0 88 -88 0 0 -88 88 0 1994 1093 5 MP stroke
0 88 -89 0 0 -88 89 0 2082 1093 5 MP stroke
0 88 -88 0 0 -88 88 0 2171 1093 5 MP stroke
0 88 -88 0 0 -88 88 0 2259 1093 5 MP stroke
0 88 -88 0 0 -88 88 0 2347 1093 5 MP stroke
0 88 -88 0 0 -88 88 0 2435 1093 5 MP stroke
0 88 -88 0 0 -88 88 0 2523 1093 5 MP stroke
0 88 -88 0 0 -88 88 0 2611 1093 5 MP stroke
0 88 -88 0 0 -88 88 0 2699 1093 5 MP stroke
0 88 -88 0 0 -88 88 0 2787 1093 5 MP stroke
0 88 -88 0 0 -88 88 0 2875 1093 5 MP stroke
0 88 -88 0 0 -88 88 0 2963 1093 5 MP stroke
0 88 -88 0 0 -88 88 0 3051 1093 5 MP stroke
0 88 -88 0 0 -88 88 0 3139 1093 5 MP stroke
0 88 -88 0 0 -88 88 0 3227 1093 5 MP stroke
0 88 -88 0 0 -88 88 0 3315 1093 5 MP stroke
0 88 -88 0 0 -88 88 0 3403 1093 5 MP stroke
0 88 -89 0 0 -88 89 0 3491 1093 5 MP stroke
0 88 -88 0 0 -88 88 0 3580 1093 5 MP stroke
0 88 -88 0 0 -88 88 0 3668 1093 5 MP stroke
0 88 -88 0 0 -88 88 0 3756 1093 5 MP stroke
0 88 -88 0 0 -88 88 0 3844 1093 5 MP stroke
0 88 -88 0 0 -88 88 0 3932 1093 5 MP stroke
0 88 -88 0 0 -88 88 0 4020 1093 5 MP stroke
0 88 -88 0 0 -88 88 0 4108 1093 5 MP stroke
0 88 -88 0 0 -88 88 0 4196 1093 5 MP stroke
0 88 -88 0 0 -88 88 0 4284 1093 5 MP stroke
0 88 -88 0 0 -88 88 0 4372 1093 5 MP stroke
0 88 -88 0 0 -88 88 0 4460 1093 5 MP stroke
0 88 -88 0 0 -88 88 0 4548 1093 5 MP stroke
0 88 -88 0 0 -88 88 0 4636 1093 5 MP stroke
0 88 -88 0 0 -88 88 0 4724 1093 5 MP stroke
0 88 -88 0 0 -88 88 0 4812 1093 5 MP stroke
0 88 -89 0 0 -88 89 0 4900 1093 5 MP stroke
0 88 -88 0 0 -88 88 0 4989 1093 5 MP stroke
0 88 -88 0 0 -88 88 0 5077 1093 5 MP stroke
0 88 -88 0 0 -88 88 0 5165 1093 5 MP stroke
0 88 -88 0 0 -88 88 0 5253 1093 5 MP stroke
0 88 -88 0 0 -88 88 0 1818 1005 5 MP stroke
0 88 -88 0 0 -88 88 0 1906 1005 5 MP stroke
0 88 -88 0 0 -88 88 0 1994 1005 5 MP stroke
0 88 -89 0 0 -88 89 0 2082 1005 5 MP stroke
0 88 -88 0 0 -88 88 0 2171 1005 5 MP stroke
0 88 -88 0 0 -88 88 0 2259 1005 5 MP stroke
0 88 -88 0 0 -88 88 0 2347 1005 5 MP stroke
0 88 -88 0 0 -88 88 0 2435 1005 5 MP stroke
0 88 -88 0 0 -88 88 0 2523 1005 5 MP stroke
0 88 -88 0 0 -88 88 0 2611 1005 5 MP stroke
0 88 -88 0 0 -88 88 0 2699 1005 5 MP stroke
0 88 -88 0 0 -88 88 0 2787 1005 5 MP stroke
0 88 -88 0 0 -88 88 0 2875 1005 5 MP stroke
0 88 -88 0 0 -88 88 0 2963 1005 5 MP stroke
0 88 -88 0 0 -88 88 0 3051 1005 5 MP stroke
0 88 -88 0 0 -88 88 0 3139 1005 5 MP stroke
0 88 -88 0 0 -88 88 0 3227 1005 5 MP stroke
0 88 -88 0 0 -88 88 0 3315 1005 5 MP stroke
0 88 -88 0 0 -88 88 0 3403 1005 5 MP stroke
0 88 -89 0 0 -88 89 0 3491 1005 5 MP stroke
0 88 -88 0 0 -88 88 0 3580 1005 5 MP stroke
0 88 -88 0 0 -88 88 0 3668 1005 5 MP stroke
0 88 -88 0 0 -88 88 0 3756 1005 5 MP stroke
0 88 -88 0 0 -88 88 0 3844 1005 5 MP stroke
0 88 -88 0 0 -88 88 0 3932 1005 5 MP stroke
0 88 -88 0 0 -88 88 0 4020 1005 5 MP stroke
0 88 -88 0 0 -88 88 0 4108 1005 5 MP stroke
0 88 -88 0 0 -88 88 0 4196 1005 5 MP stroke
0 88 -88 0 0 -88 88 0 4284 1005 5 MP stroke
0 88 -88 0 0 -88 88 0 4372 1005 5 MP stroke
0 88 -88 0 0 -88 88 0 4460 1005 5 MP stroke
0 88 -88 0 0 -88 88 0 4548 1005 5 MP stroke
0 88 -88 0 0 -88 88 0 4636 1005 5 MP stroke
0 88 -88 0 0 -88 88 0 4724 1005 5 MP stroke
0 88 -88 0 0 -88 88 0 4812 1005 5 MP stroke
0 88 -89 0 0 -88 89 0 4900 1005 5 MP stroke
0 88 -88 0 0 -88 88 0 4989 1005 5 MP stroke
0 88 -88 0 0 -88 88 0 5077 1005 5 MP stroke
0 88 -88 0 0 -88 88 0 5165 1005 5 MP stroke
0 88 -88 0 0 -88 88 0 5253 1005 5 MP stroke
0 88 -88 0 0 -88 88 0 1818 917 5 MP stroke
0 88 -88 0 0 -88 88 0 1906 917 5 MP stroke
0 88 -88 0 0 -88 88 0 1994 917 5 MP stroke
0 88 -89 0 0 -88 89 0 2082 917 5 MP stroke
0 88 -88 0 0 -88 88 0 2171 917 5 MP stroke
0 88 -88 0 0 -88 88 0 2259 917 5 MP stroke
0 88 -88 0 0 -88 88 0 2347 917 5 MP stroke
0 88 -88 0 0 -88 88 0 2435 917 5 MP stroke
0 88 -88 0 0 -88 88 0 2523 917 5 MP stroke
0 88 -88 0 0 -88 88 0 2611 917 5 MP stroke
0 88 -88 0 0 -88 88 0 2699 917 5 MP stroke
0 88 -88 0 0 -88 88 0 2787 917 5 MP stroke
0 88 -88 0 0 -88 88 0 2875 917 5 MP stroke
0 88 -88 0 0 -88 88 0 2963 917 5 MP stroke
0 88 -88 0 0 -88 88 0 3051 917 5 MP stroke
0 88 -88 0 0 -88 88 0 3139 917 5 MP stroke
0 88 -88 0 0 -88 88 0 3227 917 5 MP stroke
0 88 -88 0 0 -88 88 0 3315 917 5 MP stroke
0 88 -88 0 0 -88 88 0 3403 917 5 MP stroke
0 88 -89 0 0 -88 89 0 3491 917 5 MP stroke
0 88 -88 0 0 -88 88 0 3580 917 5 MP stroke
0 88 -88 0 0 -88 88 0 3668 917 5 MP stroke
0 88 -88 0 0 -88 88 0 3756 917 5 MP stroke
0 88 -88 0 0 -88 88 0 3844 917 5 MP stroke
0 88 -88 0 0 -88 88 0 3932 917 5 MP stroke
0 88 -88 0 0 -88 88 0 4020 917 5 MP stroke
0 88 -88 0 0 -88 88 0 4108 917 5 MP stroke
0 88 -88 0 0 -88 88 0 4196 917 5 MP stroke
0 88 -88 0 0 -88 88 0 4284 917 5 MP stroke
0 88 -88 0 0 -88 88 0 4372 917 5 MP stroke
0 88 -88 0 0 -88 88 0 4460 917 5 MP stroke
0 88 -88 0 0 -88 88 0 4548 917 5 MP stroke
0 88 -88 0 0 -88 88 0 4636 917 5 MP stroke
0 88 -88 0 0 -88 88 0 4724 917 5 MP stroke
0 88 -88 0 0 -88 88 0 4812 917 5 MP stroke
0 88 -89 0 0 -88 89 0 4900 917 5 MP stroke
0 88 -88 0 0 -88 88 0 4989 917 5 MP stroke
0 88 -88 0 0 -88 88 0 5077 917 5 MP stroke
0 88 -88 0 0 -88 88 0 5165 917 5 MP stroke
0 88 -88 0 0 -88 88 0 5253 917 5 MP stroke
0 88 -88 0 0 -88 88 0 1818 829 5 MP stroke
0 88 -88 0 0 -88 88 0 1906 829 5 MP stroke
0 88 -88 0 0 -88 88 0 1994 829 5 MP stroke
0 88 -89 0 0 -88 89 0 2082 829 5 MP stroke
0 88 -88 0 0 -88 88 0 2171 829 5 MP stroke
0 88 -88 0 0 -88 88 0 2259 829 5 MP stroke
0 88 -88 0 0 -88 88 0 2347 829 5 MP stroke
0 88 -88 0 0 -88 88 0 2435 829 5 MP stroke
0 88 -88 0 0 -88 88 0 2523 829 5 MP stroke
0 88 -88 0 0 -88 88 0 2611 829 5 MP stroke
0 88 -88 0 0 -88 88 0 2699 829 5 MP stroke
0 88 -88 0 0 -88 88 0 2787 829 5 MP stroke
0 88 -88 0 0 -88 88 0 2875 829 5 MP stroke
0 88 -88 0 0 -88 88 0 2963 829 5 MP stroke
0 88 -88 0 0 -88 88 0 3051 829 5 MP stroke
0 88 -88 0 0 -88 88 0 3139 829 5 MP stroke
0 88 -88 0 0 -88 88 0 3227 829 5 MP stroke
0 88 -88 0 0 -88 88 0 3315 829 5 MP stroke
0 88 -88 0 0 -88 88 0 3403 829 5 MP stroke
0 88 -89 0 0 -88 89 0 3491 829 5 MP stroke
0 88 -88 0 0 -88 88 0 3580 829 5 MP stroke
0 88 -88 0 0 -88 88 0 3668 829 5 MP stroke
0 88 -88 0 0 -88 88 0 3756 829 5 MP stroke
0 88 -88 0 0 -88 88 0 3844 829 5 MP stroke
0 88 -88 0 0 -88 88 0 3932 829 5 MP stroke
0 88 -88 0 0 -88 88 0 4020 829 5 MP stroke
0 88 -88 0 0 -88 88 0 4108 829 5 MP stroke
0 88 -88 0 0 -88 88 0 4196 829 5 MP stroke
0 88 -88 0 0 -88 88 0 4284 829 5 MP stroke
0 88 -88 0 0 -88 88 0 4372 829 5 MP stroke
0 88 -88 0 0 -88 88 0 4460 829 5 MP stroke
0 88 -88 0 0 -88 88 0 4548 829 5 MP stroke
0 88 -88 0 0 -88 88 0 4636 829 5 MP stroke
0 88 -88 0 0 -88 88 0 4724 829 5 MP stroke
0 88 -88 0 0 -88 88 0 4812 829 5 MP stroke
0 88 -89 0 0 -88 89 0 4900 829 5 MP stroke
0 88 -88 0 0 -88 88 0 4989 829 5 MP stroke
0 88 -88 0 0 -88 88 0 5077 829 5 MP stroke
0 88 -88 0 0 -88 88 0 5165 829 5 MP stroke
0 88 -88 0 0 -88 88 0 5253 829 5 MP stroke
gr


end %%Color Dict

eplot
%%EndObject

epage
end

showpage

%%Trailer
%%EOF
