%!PS-Adobe-3.0 EPSF-3.0
%%Creator: MATLAB, The MathWorks, Inc. Version 7.13.0.564 (R2011b). Operating System: Microsoft Windows 7.
%%Title: .\quadrati8x8.eps
%%CreationDate: 07/05/2012  18:28:23
%%DocumentNeededFonts: Helvetica
%%DocumentProcessColors: Cyan Magenta Yellow Black
%%LanguageLevel: 2
%%Pages: 1
%%BoundingBox:    76   215   543   583
%%EndComments

%%BeginProlog
% MathWorks dictionary
/MathWorks 160 dict begin
% definition operators
/bdef {bind def} bind def
/ldef {load def} bind def
/xdef {exch def} bdef
/xstore {exch store} bdef
% operator abbreviations
/c  /clip ldef
/cc /concat ldef
/cp /closepath ldef
/gr /grestore ldef
/gs /gsave ldef
/mt /moveto ldef
/np /newpath ldef
/cm /currentmatrix ldef
/sm /setmatrix ldef
/rm /rmoveto ldef
/rl /rlineto ldef
/s {show newpath} bdef
/sc {setcmykcolor} bdef
/sr /setrgbcolor ldef
/sg /setgray ldef
/w /setlinewidth ldef
/j /setlinejoin ldef
/cap /setlinecap ldef
/rc {rectclip} bdef
/rf {rectfill} bdef
% page state control
/pgsv () def
/bpage {/pgsv save def} bdef
/epage {pgsv restore} bdef
/bplot /gsave ldef
/eplot {stroke grestore} bdef
% orientation switch
/portraitMode 0 def /landscapeMode 1 def /rotateMode 2 def
% coordinate system mappings
/dpi2point 0 def
% font control
/FontSize 0 def
/FMS {/FontSize xstore findfont [FontSize 0 0 FontSize neg 0 0]
  makefont setfont} bdef
/ISOLatin1Encoding where {pop /WindowsLatin1Encoding 256 array bdef
ISOLatin1Encoding WindowsLatin1Encoding copy pop
/.notdef/.notdef/quotesinglbase/florin/quotedblbase/ellipsis/dagger
/daggerdbl/circumflex/perthousand/Scaron/guilsinglleft/OE/.notdef/.notdef
/.notdef/.notdef/quoteleft/quoteright/quotedblleft/quotedblright/bullet
/endash/emdash/tilde/trademark/scaron/guilsinglright/oe/.notdef/.notdef
/Ydieresis WindowsLatin1Encoding 128 32 getinterval astore pop}
{/WindowsLatin1Encoding StandardEncoding bdef} ifelse
/reencode {exch dup where {pop load} {pop StandardEncoding} ifelse
  exch dup 3 1 roll findfont dup length dict begin
  { 1 index /FID ne {def}{pop pop} ifelse } forall
  /Encoding exch def currentdict end definefont pop} bdef
/isroman {findfont /CharStrings get /Agrave known} bdef
/FMSR {3 1 roll 1 index dup isroman {reencode} {pop pop} ifelse
  exch FMS} bdef
/csm {1 dpi2point div -1 dpi2point div scale neg translate
 dup landscapeMode eq {pop -90 rotate}
  {rotateMode eq {90 rotate} if} ifelse} bdef
% line types: solid, dotted, dashed, dotdash
/SO { [] 0 setdash } bdef
/DO { [.5 dpi2point mul 4 dpi2point mul] 0 setdash } bdef
/DA { [6 dpi2point mul] 0 setdash } bdef
/DD { [.5 dpi2point mul 4 dpi2point mul 6 dpi2point mul 4
  dpi2point mul] 0 setdash } bdef
% macros for lines and objects
/L {lineto stroke} bdef
/MP {3 1 roll moveto 1 sub {rlineto} repeat} bdef
/AP {{rlineto} repeat} bdef
/PDlw -1 def
/W {/PDlw currentlinewidth def setlinewidth} def
/PP {closepath eofill} bdef
/DP {closepath stroke} bdef
/MR {4 -2 roll moveto dup  0 exch rlineto exch 0 rlineto
  neg 0 exch rlineto closepath} bdef
/FR {MR stroke} bdef
/PR {MR fill} bdef
/L1i {{currentfile picstr readhexstring pop} image} bdef
/tMatrix matrix def
/MakeOval {newpath tMatrix currentmatrix pop translate scale
0 0 1 0 360 arc tMatrix setmatrix} bdef
/FO {MakeOval stroke} bdef
/PO {MakeOval fill} bdef
/PD {currentlinewidth 2 div 0 360 arc fill
   PDlw -1 eq not {PDlw w /PDlw -1 def} if} def
/FA {newpath tMatrix currentmatrix pop translate scale
  0 0 1 5 -2 roll arc tMatrix setmatrix stroke} bdef
/PA {newpath tMatrix currentmatrix pop	translate 0 0 moveto scale
  0 0 1 5 -2 roll arc closepath tMatrix setmatrix fill} bdef
/FAn {newpath tMatrix currentmatrix pop translate scale
  0 0 1 5 -2 roll arcn tMatrix setmatrix stroke} bdef
/PAn {newpath tMatrix currentmatrix pop translate 0 0 moveto scale
  0 0 1 5 -2 roll arcn closepath tMatrix setmatrix fill} bdef
/vradius 0 def /hradius 0 def /lry 0 def
/lrx 0 def /uly 0 def /ulx 0 def /rad 0 def
/MRR {/vradius xdef /hradius xdef /lry xdef /lrx xdef /uly xdef
  /ulx xdef newpath tMatrix currentmatrix pop ulx hradius add uly
  vradius add translate hradius vradius scale 0 0 1 180 270 arc 
  tMatrix setmatrix lrx hradius sub uly vradius add translate
  hradius vradius scale 0 0 1 270 360 arc tMatrix setmatrix
  lrx hradius sub lry vradius sub translate hradius vradius scale
  0 0 1 0 90 arc tMatrix setmatrix ulx hradius add lry vradius sub
  translate hradius vradius scale 0 0 1 90 180 arc tMatrix setmatrix
  closepath} bdef
/FRR {MRR stroke } bdef
/PRR {MRR fill } bdef
/MlrRR {/lry xdef /lrx xdef /uly xdef /ulx xdef /rad lry uly sub 2 div def
  newpath tMatrix currentmatrix pop ulx rad add uly rad add translate
  rad rad scale 0 0 1 90 270 arc tMatrix setmatrix lrx rad sub lry rad
  sub translate rad rad scale 0 0 1 270 90 arc tMatrix setmatrix
  closepath} bdef
/FlrRR {MlrRR stroke } bdef
/PlrRR {MlrRR fill } bdef
/MtbRR {/lry xdef /lrx xdef /uly xdef /ulx xdef /rad lrx ulx sub 2 div def
  newpath tMatrix currentmatrix pop ulx rad add uly rad add translate
  rad rad scale 0 0 1 180 360 arc tMatrix setmatrix lrx rad sub lry rad
  sub translate rad rad scale 0 0 1 0 180 arc tMatrix setmatrix
  closepath} bdef
/FtbRR {MtbRR stroke } bdef
/PtbRR {MtbRR fill } bdef
/stri 6 array def /dtri 6 array def
/smat 6 array def /dmat 6 array def
/tmat1 6 array def /tmat2 6 array def /dif 3 array def
/asub {/ind2 exch def /ind1 exch def dup dup
  ind1 get exch ind2 get sub exch } bdef
/tri_to_matrix {
  2 0 asub 3 1 asub 4 0 asub 5 1 asub
  dup 0 get exch 1 get 7 -1 roll astore } bdef
/compute_transform {
  dmat dtri tri_to_matrix tmat1 invertmatrix 
  smat stri tri_to_matrix tmat2 concatmatrix } bdef
/ds {stri astore pop} bdef
/dt {dtri astore pop} bdef
/db {2 copy /cols xdef /rows xdef mul dup 3 mul string
  currentfile 
  3 index 0 eq {/ASCIIHexDecode filter}
  {/ASCII85Decode filter 3 index 2 eq {/RunLengthDecode filter} if }
  ifelse exch readstring pop
  dup 0 3 index getinterval /rbmap xdef
  dup 2 index dup getinterval /gbmap xdef
  1 index dup 2 mul exch getinterval /bbmap xdef pop pop}bdef
/it {gs np dtri aload pop moveto lineto lineto cp c
  cols rows 8 compute_transform 
  rbmap gbmap bbmap true 3 colorimage gr}bdef
/il {newpath moveto lineto stroke}bdef
currentdict end def
%%EndProlog

%%BeginSetup
MathWorks begin

0 cap

end
%%EndSetup

%%Page: 1 1
%%BeginPageSetup
%%PageBoundingBox:    76   215   543   583
MathWorks begin
bpage
%%EndPageSetup

%%BeginObject: obj1
bplot

/dpi2point 12 def
portraitMode 0216 7344 csm

  699   341  5610  4421 rc
85 dict begin %Colortable dictionary
/c0 { 0.000000 0.000000 0.000000 sr} bdef
/c1 { 1.000000 1.000000 1.000000 sr} bdef
/c2 { 0.900000 0.000000 0.000000 sr} bdef
/c3 { 0.000000 0.820000 0.000000 sr} bdef
/c4 { 0.000000 0.000000 0.800000 sr} bdef
/c5 { 0.910000 0.820000 0.320000 sr} bdef
/c6 { 1.000000 0.260000 0.820000 sr} bdef
/c7 { 0.000000 0.820000 0.820000 sr} bdef
c0
1 j
1 sg
   0    0 6919 5187 rf
6 w
0 4227 5359 0 0 -4227 900 4616 4 MP
PP
-5359 0 0 4227 5359 0 0 -4227 900 4616 5 MP stroke
4 w
DO
SO
6 w
0 sg
 900 4616 mt 6259 4616 L
 900 4616 mt  900  389 L
1114 4616 mt 1114 4562 L
%%IncludeResource: font Helvetica
/Helvetica /WindowsLatin1Encoding 120 FMSR

 961 4761 mt 
(-0.2) s
1818 4616 mt 1818 4562 L
1785 4761 mt 
(0) s
2523 4616 mt 2523 4562 L
2440 4761 mt 
(0.2) s
3227 4616 mt 3227 4562 L
3144 4761 mt 
(0.4) s
3932 4616 mt 3932 4562 L
3849 4761 mt 
(0.6) s
4636 4616 mt 4636 4562 L
4553 4761 mt 
(0.8) s
5341 4616 mt 5341 4562 L
5308 4761 mt 
(1) s
6045 4616 mt 6045 4562 L
5962 4761 mt 
(1.2) s
 900 4263 mt  953 4263 L
 799 4307 mt 
(0) s
 900 3559 mt  953 3559 L
 699 3603 mt 
(0.2) s
 900 2854 mt  953 2854 L
 699 2898 mt 
(0.4) s
 900 2150 mt  953 2150 L
 699 2194 mt 
(0.6) s
 900 1445 mt  953 1445 L
 699 1489 mt 
(0.8) s
 900  741 mt  953  741 L
 799  785 mt 
(1) s
gs 900 389 5360 4228 rc
0 440 -441 0 0 -440 441 0 1818 4263 5 MP stroke
0 440 -440 0 0 -440 440 0 2259 4263 5 MP stroke
0 440 -440 0 0 -440 440 0 2699 4263 5 MP stroke
0 440 -441 0 0 -440 441 0 3139 4263 5 MP stroke
0 440 -440 0 0 -440 440 0 3580 4263 5 MP stroke
0 440 -440 0 0 -440 440 0 4020 4263 5 MP stroke
0 440 -440 0 0 -440 440 0 4460 4263 5 MP stroke
0 440 -441 0 0 -440 441 0 4900 4263 5 MP stroke
0 440 -441 0 0 -440 441 0 1818 3823 5 MP stroke
0 440 -440 0 0 -440 440 0 2259 3823 5 MP stroke
0 440 -440 0 0 -440 440 0 2699 3823 5 MP stroke
0 440 -441 0 0 -440 441 0 3139 3823 5 MP stroke
0 440 -440 0 0 -440 440 0 3580 3823 5 MP stroke
0 440 -440 0 0 -440 440 0 4020 3823 5 MP stroke
0 440 -440 0 0 -440 440 0 4460 3823 5 MP stroke
0 440 -441 0 0 -440 441 0 4900 3823 5 MP stroke
0 441 -441 0 0 -441 441 0 1818 3383 5 MP stroke
0 441 -440 0 0 -441 440 0 2259 3383 5 MP stroke
0 441 -440 0 0 -441 440 0 2699 3383 5 MP stroke
0 441 -441 0 0 -441 441 0 3139 3383 5 MP stroke
0 441 -440 0 0 -441 440 0 3580 3383 5 MP stroke
0 441 -440 0 0 -441 440 0 4020 3383 5 MP stroke
0 441 -440 0 0 -441 440 0 4460 3383 5 MP stroke
0 441 -441 0 0 -441 441 0 4900 3383 5 MP stroke
0 440 -441 0 0 -440 441 0 1818 2942 5 MP stroke
0 440 -440 0 0 -440 440 0 2259 2942 5 MP stroke
0 440 -440 0 0 -440 440 0 2699 2942 5 MP stroke
0 440 -441 0 0 -440 441 0 3139 2942 5 MP stroke
0 440 -440 0 0 -440 440 0 3580 2942 5 MP stroke
0 440 -440 0 0 -440 440 0 4020 2942 5 MP stroke
0 440 -440 0 0 -440 440 0 4460 2942 5 MP stroke
0 440 -441 0 0 -440 441 0 4900 2942 5 MP stroke
0 440 -441 0 0 -440 441 0 1818 2502 5 MP stroke
0 440 -440 0 0 -440 440 0 2259 2502 5 MP stroke
0 440 -440 0 0 -440 440 0 2699 2502 5 MP stroke
0 440 -441 0 0 -440 441 0 3139 2502 5 MP stroke
0 440 -440 0 0 -440 440 0 3580 2502 5 MP stroke
0 440 -440 0 0 -440 440 0 4020 2502 5 MP stroke
0 440 -440 0 0 -440 440 0 4460 2502 5 MP stroke
0 440 -441 0 0 -440 441 0 4900 2502 5 MP stroke
0 441 -441 0 0 -441 441 0 1818 2062 5 MP stroke
0 441 -440 0 0 -441 440 0 2259 2062 5 MP stroke
0 441 -440 0 0 -441 440 0 2699 2062 5 MP stroke
0 441 -441 0 0 -441 441 0 3139 2062 5 MP stroke
0 441 -440 0 0 -441 440 0 3580 2062 5 MP stroke
0 441 -440 0 0 -441 440 0 4020 2062 5 MP stroke
0 441 -440 0 0 -441 440 0 4460 2062 5 MP stroke
0 441 -441 0 0 -441 441 0 4900 2062 5 MP stroke
0 440 -441 0 0 -440 441 0 1818 1621 5 MP stroke
0 440 -440 0 0 -440 440 0 2259 1621 5 MP stroke
0 440 -440 0 0 -440 440 0 2699 1621 5 MP stroke
0 440 -441 0 0 -440 441 0 3139 1621 5 MP stroke
0 440 -440 0 0 -440 440 0 3580 1621 5 MP stroke
0 440 -440 0 0 -440 440 0 4020 1621 5 MP stroke
0 440 -440 0 0 -440 440 0 4460 1621 5 MP stroke
0 440 -441 0 0 -440 441 0 4900 1621 5 MP stroke
0 440 -441 0 0 -440 441 0 1818 1181 5 MP stroke
0 440 -440 0 0 -440 440 0 2259 1181 5 MP stroke
0 440 -440 0 0 -440 440 0 2699 1181 5 MP stroke
0 440 -441 0 0 -440 441 0 3139 1181 5 MP stroke
0 440 -440 0 0 -440 440 0 3580 1181 5 MP stroke
0 440 -440 0 0 -440 440 0 4020 1181 5 MP stroke
0 440 -440 0 0 -440 440 0 4460 1181 5 MP stroke
0 440 -441 0 0 -440 441 0 4900 1181 5 MP stroke
gr


end %%Color Dict

eplot
%%EndObject

epage
end

showpage

%%Trailer
%%EOF
