%!PS-Adobe-3.0 EPSF-3.0
%%Creator: MATLAB, The MathWorks, Inc. Version 7.13.0.564 (R2011b). Operating System: Microsoft Windows 7.
%%Title: .\quadrati32x32.eps
%%CreationDate: 07/05/2012  18:28:41
%%DocumentNeededFonts: Helvetica
%%DocumentProcessColors: Cyan Magenta Yellow Black
%%LanguageLevel: 2
%%Pages: 1
%%BoundingBox:    76   215   543   583
%%EndComments

%%BeginProlog
% MathWorks dictionary
/MathWorks 160 dict begin
% definition operators
/bdef {bind def} bind def
/ldef {load def} bind def
/xdef {exch def} bdef
/xstore {exch store} bdef
% operator abbreviations
/c  /clip ldef
/cc /concat ldef
/cp /closepath ldef
/gr /grestore ldef
/gs /gsave ldef
/mt /moveto ldef
/np /newpath ldef
/cm /currentmatrix ldef
/sm /setmatrix ldef
/rm /rmoveto ldef
/rl /rlineto ldef
/s {show newpath} bdef
/sc {setcmykcolor} bdef
/sr /setrgbcolor ldef
/sg /setgray ldef
/w /setlinewidth ldef
/j /setlinejoin ldef
/cap /setlinecap ldef
/rc {rectclip} bdef
/rf {rectfill} bdef
% page state control
/pgsv () def
/bpage {/pgsv save def} bdef
/epage {pgsv restore} bdef
/bplot /gsave ldef
/eplot {stroke grestore} bdef
% orientation switch
/portraitMode 0 def /landscapeMode 1 def /rotateMode 2 def
% coordinate system mappings
/dpi2point 0 def
% font control
/FontSize 0 def
/FMS {/FontSize xstore findfont [FontSize 0 0 FontSize neg 0 0]
  makefont setfont} bdef
/ISOLatin1Encoding where {pop /WindowsLatin1Encoding 256 array bdef
ISOLatin1Encoding WindowsLatin1Encoding copy pop
/.notdef/.notdef/quotesinglbase/florin/quotedblbase/ellipsis/dagger
/daggerdbl/circumflex/perthousand/Scaron/guilsinglleft/OE/.notdef/.notdef
/.notdef/.notdef/quoteleft/quoteright/quotedblleft/quotedblright/bullet
/endash/emdash/tilde/trademark/scaron/guilsinglright/oe/.notdef/.notdef
/Ydieresis WindowsLatin1Encoding 128 32 getinterval astore pop}
{/WindowsLatin1Encoding StandardEncoding bdef} ifelse
/reencode {exch dup where {pop load} {pop StandardEncoding} ifelse
  exch dup 3 1 roll findfont dup length dict begin
  { 1 index /FID ne {def}{pop pop} ifelse } forall
  /Encoding exch def currentdict end definefont pop} bdef
/isroman {findfont /CharStrings get /Agrave known} bdef
/FMSR {3 1 roll 1 index dup isroman {reencode} {pop pop} ifelse
  exch FMS} bdef
/csm {1 dpi2point div -1 dpi2point div scale neg translate
 dup landscapeMode eq {pop -90 rotate}
  {rotateMode eq {90 rotate} if} ifelse} bdef
% line types: solid, dotted, dashed, dotdash
/SO { [] 0 setdash } bdef
/DO { [.5 dpi2point mul 4 dpi2point mul] 0 setdash } bdef
/DA { [6 dpi2point mul] 0 setdash } bdef
/DD { [.5 dpi2point mul 4 dpi2point mul 6 dpi2point mul 4
  dpi2point mul] 0 setdash } bdef
% macros for lines and objects
/L {lineto stroke} bdef
/MP {3 1 roll moveto 1 sub {rlineto} repeat} bdef
/AP {{rlineto} repeat} bdef
/PDlw -1 def
/W {/PDlw currentlinewidth def setlinewidth} def
/PP {closepath eofill} bdef
/DP {closepath stroke} bdef
/MR {4 -2 roll moveto dup  0 exch rlineto exch 0 rlineto
  neg 0 exch rlineto closepath} bdef
/FR {MR stroke} bdef
/PR {MR fill} bdef
/L1i {{currentfile picstr readhexstring pop} image} bdef
/tMatrix matrix def
/MakeOval {newpath tMatrix currentmatrix pop translate scale
0 0 1 0 360 arc tMatrix setmatrix} bdef
/FO {MakeOval stroke} bdef
/PO {MakeOval fill} bdef
/PD {currentlinewidth 2 div 0 360 arc fill
   PDlw -1 eq not {PDlw w /PDlw -1 def} if} def
/FA {newpath tMatrix currentmatrix pop translate scale
  0 0 1 5 -2 roll arc tMatrix setmatrix stroke} bdef
/PA {newpath tMatrix currentmatrix pop	translate 0 0 moveto scale
  0 0 1 5 -2 roll arc closepath tMatrix setmatrix fill} bdef
/FAn {newpath tMatrix currentmatrix pop translate scale
  0 0 1 5 -2 roll arcn tMatrix setmatrix stroke} bdef
/PAn {newpath tMatrix currentmatrix pop translate 0 0 moveto scale
  0 0 1 5 -2 roll arcn closepath tMatrix setmatrix fill} bdef
/vradius 0 def /hradius 0 def /lry 0 def
/lrx 0 def /uly 0 def /ulx 0 def /rad 0 def
/MRR {/vradius xdef /hradius xdef /lry xdef /lrx xdef /uly xdef
  /ulx xdef newpath tMatrix currentmatrix pop ulx hradius add uly
  vradius add translate hradius vradius scale 0 0 1 180 270 arc 
  tMatrix setmatrix lrx hradius sub uly vradius add translate
  hradius vradius scale 0 0 1 270 360 arc tMatrix setmatrix
  lrx hradius sub lry vradius sub translate hradius vradius scale
  0 0 1 0 90 arc tMatrix setmatrix ulx hradius add lry vradius sub
  translate hradius vradius scale 0 0 1 90 180 arc tMatrix setmatrix
  closepath} bdef
/FRR {MRR stroke } bdef
/PRR {MRR fill } bdef
/MlrRR {/lry xdef /lrx xdef /uly xdef /ulx xdef /rad lry uly sub 2 div def
  newpath tMatrix currentmatrix pop ulx rad add uly rad add translate
  rad rad scale 0 0 1 90 270 arc tMatrix setmatrix lrx rad sub lry rad
  sub translate rad rad scale 0 0 1 270 90 arc tMatrix setmatrix
  closepath} bdef
/FlrRR {MlrRR stroke } bdef
/PlrRR {MlrRR fill } bdef
/MtbRR {/lry xdef /lrx xdef /uly xdef /ulx xdef /rad lrx ulx sub 2 div def
  newpath tMatrix currentmatrix pop ulx rad add uly rad add translate
  rad rad scale 0 0 1 180 360 arc tMatrix setmatrix lrx rad sub lry rad
  sub translate rad rad scale 0 0 1 0 180 arc tMatrix setmatrix
  closepath} bdef
/FtbRR {MtbRR stroke } bdef
/PtbRR {MtbRR fill } bdef
/stri 6 array def /dtri 6 array def
/smat 6 array def /dmat 6 array def
/tmat1 6 array def /tmat2 6 array def /dif 3 array def
/asub {/ind2 exch def /ind1 exch def dup dup
  ind1 get exch ind2 get sub exch } bdef
/tri_to_matrix {
  2 0 asub 3 1 asub 4 0 asub 5 1 asub
  dup 0 get exch 1 get 7 -1 roll astore } bdef
/compute_transform {
  dmat dtri tri_to_matrix tmat1 invertmatrix 
  smat stri tri_to_matrix tmat2 concatmatrix } bdef
/ds {stri astore pop} bdef
/dt {dtri astore pop} bdef
/db {2 copy /cols xdef /rows xdef mul dup 3 mul string
  currentfile 
  3 index 0 eq {/ASCIIHexDecode filter}
  {/ASCII85Decode filter 3 index 2 eq {/RunLengthDecode filter} if }
  ifelse exch readstring pop
  dup 0 3 index getinterval /rbmap xdef
  dup 2 index dup getinterval /gbmap xdef
  1 index dup 2 mul exch getinterval /bbmap xdef pop pop}bdef
/it {gs np dtri aload pop moveto lineto lineto cp c
  cols rows 8 compute_transform 
  rbmap gbmap bbmap true 3 colorimage gr}bdef
/il {newpath moveto lineto stroke}bdef
currentdict end def
%%EndProlog

%%BeginSetup
MathWorks begin

0 cap

end
%%EndSetup

%%Page: 1 1
%%BeginPageSetup
%%PageBoundingBox:    76   215   543   583
MathWorks begin
bpage
%%EndPageSetup

%%BeginObject: obj1
bplot

/dpi2point 12 def
portraitMode 0216 7344 csm

  699   341  5610  4421 rc
85 dict begin %Colortable dictionary
/c0 { 0.000000 0.000000 0.000000 sr} bdef
/c1 { 1.000000 1.000000 1.000000 sr} bdef
/c2 { 0.900000 0.000000 0.000000 sr} bdef
/c3 { 0.000000 0.820000 0.000000 sr} bdef
/c4 { 0.000000 0.000000 0.800000 sr} bdef
/c5 { 0.910000 0.820000 0.320000 sr} bdef
/c6 { 1.000000 0.260000 0.820000 sr} bdef
/c7 { 0.000000 0.820000 0.820000 sr} bdef
c0
1 j
1 sg
   0    0 6919 5187 rf
6 w
0 4227 5359 0 0 -4227 900 4616 4 MP
PP
-5359 0 0 4227 5359 0 0 -4227 900 4616 5 MP stroke
4 w
DO
SO
6 w
0 sg
 900 4616 mt 6259 4616 L
 900 4616 mt  900  389 L
1114 4616 mt 1114 4562 L
%%IncludeResource: font Helvetica
/Helvetica /WindowsLatin1Encoding 120 FMSR

 961 4761 mt 
(-0.2) s
1818 4616 mt 1818 4562 L
1785 4761 mt 
(0) s
2523 4616 mt 2523 4562 L
2440 4761 mt 
(0.2) s
3227 4616 mt 3227 4562 L
3144 4761 mt 
(0.4) s
3932 4616 mt 3932 4562 L
3849 4761 mt 
(0.6) s
4636 4616 mt 4636 4562 L
4553 4761 mt 
(0.8) s
5341 4616 mt 5341 4562 L
5308 4761 mt 
(1) s
6045 4616 mt 6045 4562 L
5962 4761 mt 
(1.2) s
 900 4263 mt  953 4263 L
 799 4307 mt 
(0) s
 900 3559 mt  953 3559 L
 699 3603 mt 
(0.2) s
 900 2854 mt  953 2854 L
 699 2898 mt 
(0.4) s
 900 2150 mt  953 2150 L
 699 2194 mt 
(0.6) s
 900 1445 mt  953 1445 L
 699 1489 mt 
(0.8) s
 900  741 mt  953  741 L
 799  785 mt 
(1) s
gs 900 389 5360 4228 rc
0 110 -110 0 0 -110 110 0 1818 4263 5 MP stroke
0 110 -110 0 0 -110 110 0 1928 4263 5 MP stroke
0 110 -110 0 0 -110 110 0 2038 4263 5 MP stroke
0 110 -111 0 0 -110 111 0 2148 4263 5 MP stroke
0 110 -110 0 0 -110 110 0 2259 4263 5 MP stroke
0 110 -110 0 0 -110 110 0 2369 4263 5 MP stroke
0 110 -110 0 0 -110 110 0 2479 4263 5 MP stroke
0 110 -110 0 0 -110 110 0 2589 4263 5 MP stroke
0 110 -110 0 0 -110 110 0 2699 4263 5 MP stroke
0 110 -110 0 0 -110 110 0 2809 4263 5 MP stroke
0 110 -110 0 0 -110 110 0 2919 4263 5 MP stroke
0 110 -110 0 0 -110 110 0 3029 4263 5 MP stroke
0 110 -110 0 0 -110 110 0 3139 4263 5 MP stroke
0 110 -110 0 0 -110 110 0 3249 4263 5 MP stroke
0 110 -110 0 0 -110 110 0 3359 4263 5 MP stroke
0 110 -111 0 0 -110 111 0 3469 4263 5 MP stroke
0 110 -110 0 0 -110 110 0 3580 4263 5 MP stroke
0 110 -110 0 0 -110 110 0 3690 4263 5 MP stroke
0 110 -110 0 0 -110 110 0 3800 4263 5 MP stroke
0 110 -110 0 0 -110 110 0 3910 4263 5 MP stroke
0 110 -110 0 0 -110 110 0 4020 4263 5 MP stroke
0 110 -110 0 0 -110 110 0 4130 4263 5 MP stroke
0 110 -110 0 0 -110 110 0 4240 4263 5 MP stroke
0 110 -110 0 0 -110 110 0 4350 4263 5 MP stroke
0 110 -110 0 0 -110 110 0 4460 4263 5 MP stroke
0 110 -110 0 0 -110 110 0 4570 4263 5 MP stroke
0 110 -110 0 0 -110 110 0 4680 4263 5 MP stroke
0 110 -110 0 0 -110 110 0 4790 4263 5 MP stroke
0 110 -111 0 0 -110 111 0 4900 4263 5 MP stroke
0 110 -110 0 0 -110 110 0 5011 4263 5 MP stroke
0 110 -110 0 0 -110 110 0 5121 4263 5 MP stroke
0 110 -110 0 0 -110 110 0 5231 4263 5 MP stroke
0 110 -110 0 0 -110 110 0 1818 4153 5 MP stroke
0 110 -110 0 0 -110 110 0 1928 4153 5 MP stroke
0 110 -110 0 0 -110 110 0 2038 4153 5 MP stroke
0 110 -111 0 0 -110 111 0 2148 4153 5 MP stroke
0 110 -110 0 0 -110 110 0 2259 4153 5 MP stroke
0 110 -110 0 0 -110 110 0 2369 4153 5 MP stroke
0 110 -110 0 0 -110 110 0 2479 4153 5 MP stroke
0 110 -110 0 0 -110 110 0 2589 4153 5 MP stroke
0 110 -110 0 0 -110 110 0 2699 4153 5 MP stroke
0 110 -110 0 0 -110 110 0 2809 4153 5 MP stroke
0 110 -110 0 0 -110 110 0 2919 4153 5 MP stroke
0 110 -110 0 0 -110 110 0 3029 4153 5 MP stroke
0 110 -110 0 0 -110 110 0 3139 4153 5 MP stroke
0 110 -110 0 0 -110 110 0 3249 4153 5 MP stroke
0 110 -110 0 0 -110 110 0 3359 4153 5 MP stroke
0 110 -111 0 0 -110 111 0 3469 4153 5 MP stroke
0 110 -110 0 0 -110 110 0 3580 4153 5 MP stroke
0 110 -110 0 0 -110 110 0 3690 4153 5 MP stroke
0 110 -110 0 0 -110 110 0 3800 4153 5 MP stroke
0 110 -110 0 0 -110 110 0 3910 4153 5 MP stroke
0 110 -110 0 0 -110 110 0 4020 4153 5 MP stroke
0 110 -110 0 0 -110 110 0 4130 4153 5 MP stroke
0 110 -110 0 0 -110 110 0 4240 4153 5 MP stroke
0 110 -110 0 0 -110 110 0 4350 4153 5 MP stroke
0 110 -110 0 0 -110 110 0 4460 4153 5 MP stroke
0 110 -110 0 0 -110 110 0 4570 4153 5 MP stroke
0 110 -110 0 0 -110 110 0 4680 4153 5 MP stroke
0 110 -110 0 0 -110 110 0 4790 4153 5 MP stroke
0 110 -111 0 0 -110 111 0 4900 4153 5 MP stroke
0 110 -110 0 0 -110 110 0 5011 4153 5 MP stroke
0 110 -110 0 0 -110 110 0 5121 4153 5 MP stroke
0 110 -110 0 0 -110 110 0 5231 4153 5 MP stroke
0 110 -110 0 0 -110 110 0 1818 4043 5 MP stroke
0 110 -110 0 0 -110 110 0 1928 4043 5 MP stroke
0 110 -110 0 0 -110 110 0 2038 4043 5 MP stroke
0 110 -111 0 0 -110 111 0 2148 4043 5 MP stroke
0 110 -110 0 0 -110 110 0 2259 4043 5 MP stroke
0 110 -110 0 0 -110 110 0 2369 4043 5 MP stroke
0 110 -110 0 0 -110 110 0 2479 4043 5 MP stroke
0 110 -110 0 0 -110 110 0 2589 4043 5 MP stroke
0 110 -110 0 0 -110 110 0 2699 4043 5 MP stroke
0 110 -110 0 0 -110 110 0 2809 4043 5 MP stroke
0 110 -110 0 0 -110 110 0 2919 4043 5 MP stroke
0 110 -110 0 0 -110 110 0 3029 4043 5 MP stroke
0 110 -110 0 0 -110 110 0 3139 4043 5 MP stroke
0 110 -110 0 0 -110 110 0 3249 4043 5 MP stroke
0 110 -110 0 0 -110 110 0 3359 4043 5 MP stroke
0 110 -111 0 0 -110 111 0 3469 4043 5 MP stroke
0 110 -110 0 0 -110 110 0 3580 4043 5 MP stroke
0 110 -110 0 0 -110 110 0 3690 4043 5 MP stroke
0 110 -110 0 0 -110 110 0 3800 4043 5 MP stroke
0 110 -110 0 0 -110 110 0 3910 4043 5 MP stroke
0 110 -110 0 0 -110 110 0 4020 4043 5 MP stroke
0 110 -110 0 0 -110 110 0 4130 4043 5 MP stroke
0 110 -110 0 0 -110 110 0 4240 4043 5 MP stroke
0 110 -110 0 0 -110 110 0 4350 4043 5 MP stroke
0 110 -110 0 0 -110 110 0 4460 4043 5 MP stroke
0 110 -110 0 0 -110 110 0 4570 4043 5 MP stroke
0 110 -110 0 0 -110 110 0 4680 4043 5 MP stroke
0 110 -110 0 0 -110 110 0 4790 4043 5 MP stroke
0 110 -111 0 0 -110 111 0 4900 4043 5 MP stroke
0 110 -110 0 0 -110 110 0 5011 4043 5 MP stroke
0 110 -110 0 0 -110 110 0 5121 4043 5 MP stroke
0 110 -110 0 0 -110 110 0 5231 4043 5 MP stroke
0 110 -110 0 0 -110 110 0 1818 3933 5 MP stroke
0 110 -110 0 0 -110 110 0 1928 3933 5 MP stroke
0 110 -110 0 0 -110 110 0 2038 3933 5 MP stroke
0 110 -111 0 0 -110 111 0 2148 3933 5 MP stroke
0 110 -110 0 0 -110 110 0 2259 3933 5 MP stroke
0 110 -110 0 0 -110 110 0 2369 3933 5 MP stroke
0 110 -110 0 0 -110 110 0 2479 3933 5 MP stroke
0 110 -110 0 0 -110 110 0 2589 3933 5 MP stroke
0 110 -110 0 0 -110 110 0 2699 3933 5 MP stroke
0 110 -110 0 0 -110 110 0 2809 3933 5 MP stroke
0 110 -110 0 0 -110 110 0 2919 3933 5 MP stroke
0 110 -110 0 0 -110 110 0 3029 3933 5 MP stroke
0 110 -110 0 0 -110 110 0 3139 3933 5 MP stroke
0 110 -110 0 0 -110 110 0 3249 3933 5 MP stroke
0 110 -110 0 0 -110 110 0 3359 3933 5 MP stroke
0 110 -111 0 0 -110 111 0 3469 3933 5 MP stroke
0 110 -110 0 0 -110 110 0 3580 3933 5 MP stroke
0 110 -110 0 0 -110 110 0 3690 3933 5 MP stroke
0 110 -110 0 0 -110 110 0 3800 3933 5 MP stroke
0 110 -110 0 0 -110 110 0 3910 3933 5 MP stroke
0 110 -110 0 0 -110 110 0 4020 3933 5 MP stroke
0 110 -110 0 0 -110 110 0 4130 3933 5 MP stroke
0 110 -110 0 0 -110 110 0 4240 3933 5 MP stroke
0 110 -110 0 0 -110 110 0 4350 3933 5 MP stroke
0 110 -110 0 0 -110 110 0 4460 3933 5 MP stroke
0 110 -110 0 0 -110 110 0 4570 3933 5 MP stroke
0 110 -110 0 0 -110 110 0 4680 3933 5 MP stroke
0 110 -110 0 0 -110 110 0 4790 3933 5 MP stroke
0 110 -111 0 0 -110 111 0 4900 3933 5 MP stroke
0 110 -110 0 0 -110 110 0 5011 3933 5 MP stroke
0 110 -110 0 0 -110 110 0 5121 3933 5 MP stroke
0 110 -110 0 0 -110 110 0 5231 3933 5 MP stroke
0 110 -110 0 0 -110 110 0 1818 3823 5 MP stroke
0 110 -110 0 0 -110 110 0 1928 3823 5 MP stroke
0 110 -110 0 0 -110 110 0 2038 3823 5 MP stroke
0 110 -111 0 0 -110 111 0 2148 3823 5 MP stroke
0 110 -110 0 0 -110 110 0 2259 3823 5 MP stroke
0 110 -110 0 0 -110 110 0 2369 3823 5 MP stroke
0 110 -110 0 0 -110 110 0 2479 3823 5 MP stroke
0 110 -110 0 0 -110 110 0 2589 3823 5 MP stroke
0 110 -110 0 0 -110 110 0 2699 3823 5 MP stroke
0 110 -110 0 0 -110 110 0 2809 3823 5 MP stroke
0 110 -110 0 0 -110 110 0 2919 3823 5 MP stroke
0 110 -110 0 0 -110 110 0 3029 3823 5 MP stroke
0 110 -110 0 0 -110 110 0 3139 3823 5 MP stroke
0 110 -110 0 0 -110 110 0 3249 3823 5 MP stroke
0 110 -110 0 0 -110 110 0 3359 3823 5 MP stroke
0 110 -111 0 0 -110 111 0 3469 3823 5 MP stroke
0 110 -110 0 0 -110 110 0 3580 3823 5 MP stroke
0 110 -110 0 0 -110 110 0 3690 3823 5 MP stroke
0 110 -110 0 0 -110 110 0 3800 3823 5 MP stroke
0 110 -110 0 0 -110 110 0 3910 3823 5 MP stroke
0 110 -110 0 0 -110 110 0 4020 3823 5 MP stroke
0 110 -110 0 0 -110 110 0 4130 3823 5 MP stroke
0 110 -110 0 0 -110 110 0 4240 3823 5 MP stroke
0 110 -110 0 0 -110 110 0 4350 3823 5 MP stroke
0 110 -110 0 0 -110 110 0 4460 3823 5 MP stroke
0 110 -110 0 0 -110 110 0 4570 3823 5 MP stroke
0 110 -110 0 0 -110 110 0 4680 3823 5 MP stroke
0 110 -110 0 0 -110 110 0 4790 3823 5 MP stroke
0 110 -111 0 0 -110 111 0 4900 3823 5 MP stroke
0 110 -110 0 0 -110 110 0 5011 3823 5 MP stroke
0 110 -110 0 0 -110 110 0 5121 3823 5 MP stroke
0 110 -110 0 0 -110 110 0 5231 3823 5 MP stroke
0 110 -110 0 0 -110 110 0 1818 3713 5 MP stroke
0 110 -110 0 0 -110 110 0 1928 3713 5 MP stroke
0 110 -110 0 0 -110 110 0 2038 3713 5 MP stroke
0 110 -111 0 0 -110 111 0 2148 3713 5 MP stroke
0 110 -110 0 0 -110 110 0 2259 3713 5 MP stroke
0 110 -110 0 0 -110 110 0 2369 3713 5 MP stroke
0 110 -110 0 0 -110 110 0 2479 3713 5 MP stroke
0 110 -110 0 0 -110 110 0 2589 3713 5 MP stroke
0 110 -110 0 0 -110 110 0 2699 3713 5 MP stroke
0 110 -110 0 0 -110 110 0 2809 3713 5 MP stroke
0 110 -110 0 0 -110 110 0 2919 3713 5 MP stroke
0 110 -110 0 0 -110 110 0 3029 3713 5 MP stroke
0 110 -110 0 0 -110 110 0 3139 3713 5 MP stroke
0 110 -110 0 0 -110 110 0 3249 3713 5 MP stroke
0 110 -110 0 0 -110 110 0 3359 3713 5 MP stroke
0 110 -111 0 0 -110 111 0 3469 3713 5 MP stroke
0 110 -110 0 0 -110 110 0 3580 3713 5 MP stroke
0 110 -110 0 0 -110 110 0 3690 3713 5 MP stroke
0 110 -110 0 0 -110 110 0 3800 3713 5 MP stroke
0 110 -110 0 0 -110 110 0 3910 3713 5 MP stroke
0 110 -110 0 0 -110 110 0 4020 3713 5 MP stroke
0 110 -110 0 0 -110 110 0 4130 3713 5 MP stroke
0 110 -110 0 0 -110 110 0 4240 3713 5 MP stroke
0 110 -110 0 0 -110 110 0 4350 3713 5 MP stroke
0 110 -110 0 0 -110 110 0 4460 3713 5 MP stroke
0 110 -110 0 0 -110 110 0 4570 3713 5 MP stroke
0 110 -110 0 0 -110 110 0 4680 3713 5 MP stroke
0 110 -110 0 0 -110 110 0 4790 3713 5 MP stroke
0 110 -111 0 0 -110 111 0 4900 3713 5 MP stroke
0 110 -110 0 0 -110 110 0 5011 3713 5 MP stroke
0 110 -110 0 0 -110 110 0 5121 3713 5 MP stroke
0 110 -110 0 0 -110 110 0 5231 3713 5 MP stroke
0 110 -110 0 0 -110 110 0 1818 3603 5 MP stroke
0 110 -110 0 0 -110 110 0 1928 3603 5 MP stroke
0 110 -110 0 0 -110 110 0 2038 3603 5 MP stroke
0 110 -111 0 0 -110 111 0 2148 3603 5 MP stroke
0 110 -110 0 0 -110 110 0 2259 3603 5 MP stroke
0 110 -110 0 0 -110 110 0 2369 3603 5 MP stroke
0 110 -110 0 0 -110 110 0 2479 3603 5 MP stroke
0 110 -110 0 0 -110 110 0 2589 3603 5 MP stroke
0 110 -110 0 0 -110 110 0 2699 3603 5 MP stroke
0 110 -110 0 0 -110 110 0 2809 3603 5 MP stroke
0 110 -110 0 0 -110 110 0 2919 3603 5 MP stroke
0 110 -110 0 0 -110 110 0 3029 3603 5 MP stroke
0 110 -110 0 0 -110 110 0 3139 3603 5 MP stroke
0 110 -110 0 0 -110 110 0 3249 3603 5 MP stroke
0 110 -110 0 0 -110 110 0 3359 3603 5 MP stroke
0 110 -111 0 0 -110 111 0 3469 3603 5 MP stroke
0 110 -110 0 0 -110 110 0 3580 3603 5 MP stroke
0 110 -110 0 0 -110 110 0 3690 3603 5 MP stroke
0 110 -110 0 0 -110 110 0 3800 3603 5 MP stroke
0 110 -110 0 0 -110 110 0 3910 3603 5 MP stroke
0 110 -110 0 0 -110 110 0 4020 3603 5 MP stroke
0 110 -110 0 0 -110 110 0 4130 3603 5 MP stroke
0 110 -110 0 0 -110 110 0 4240 3603 5 MP stroke
0 110 -110 0 0 -110 110 0 4350 3603 5 MP stroke
0 110 -110 0 0 -110 110 0 4460 3603 5 MP stroke
0 110 -110 0 0 -110 110 0 4570 3603 5 MP stroke
0 110 -110 0 0 -110 110 0 4680 3603 5 MP stroke
0 110 -110 0 0 -110 110 0 4790 3603 5 MP stroke
0 110 -111 0 0 -110 111 0 4900 3603 5 MP stroke
0 110 -110 0 0 -110 110 0 5011 3603 5 MP stroke
0 110 -110 0 0 -110 110 0 5121 3603 5 MP stroke
0 110 -110 0 0 -110 110 0 5231 3603 5 MP stroke
0 110 -110 0 0 -110 110 0 1818 3493 5 MP stroke
0 110 -110 0 0 -110 110 0 1928 3493 5 MP stroke
0 110 -110 0 0 -110 110 0 2038 3493 5 MP stroke
0 110 -111 0 0 -110 111 0 2148 3493 5 MP stroke
0 110 -110 0 0 -110 110 0 2259 3493 5 MP stroke
0 110 -110 0 0 -110 110 0 2369 3493 5 MP stroke
0 110 -110 0 0 -110 110 0 2479 3493 5 MP stroke
0 110 -110 0 0 -110 110 0 2589 3493 5 MP stroke
0 110 -110 0 0 -110 110 0 2699 3493 5 MP stroke
0 110 -110 0 0 -110 110 0 2809 3493 5 MP stroke
0 110 -110 0 0 -110 110 0 2919 3493 5 MP stroke
0 110 -110 0 0 -110 110 0 3029 3493 5 MP stroke
0 110 -110 0 0 -110 110 0 3139 3493 5 MP stroke
0 110 -110 0 0 -110 110 0 3249 3493 5 MP stroke
0 110 -110 0 0 -110 110 0 3359 3493 5 MP stroke
0 110 -111 0 0 -110 111 0 3469 3493 5 MP stroke
0 110 -110 0 0 -110 110 0 3580 3493 5 MP stroke
0 110 -110 0 0 -110 110 0 3690 3493 5 MP stroke
0 110 -110 0 0 -110 110 0 3800 3493 5 MP stroke
0 110 -110 0 0 -110 110 0 3910 3493 5 MP stroke
0 110 -110 0 0 -110 110 0 4020 3493 5 MP stroke
0 110 -110 0 0 -110 110 0 4130 3493 5 MP stroke
0 110 -110 0 0 -110 110 0 4240 3493 5 MP stroke
0 110 -110 0 0 -110 110 0 4350 3493 5 MP stroke
0 110 -110 0 0 -110 110 0 4460 3493 5 MP stroke
0 110 -110 0 0 -110 110 0 4570 3493 5 MP stroke
0 110 -110 0 0 -110 110 0 4680 3493 5 MP stroke
0 110 -110 0 0 -110 110 0 4790 3493 5 MP stroke
0 110 -111 0 0 -110 111 0 4900 3493 5 MP stroke
0 110 -110 0 0 -110 110 0 5011 3493 5 MP stroke
0 110 -110 0 0 -110 110 0 5121 3493 5 MP stroke
0 110 -110 0 0 -110 110 0 5231 3493 5 MP stroke
0 110 -110 0 0 -110 110 0 1818 3383 5 MP stroke
0 110 -110 0 0 -110 110 0 1928 3383 5 MP stroke
0 110 -110 0 0 -110 110 0 2038 3383 5 MP stroke
0 110 -111 0 0 -110 111 0 2148 3383 5 MP stroke
0 110 -110 0 0 -110 110 0 2259 3383 5 MP stroke
0 110 -110 0 0 -110 110 0 2369 3383 5 MP stroke
0 110 -110 0 0 -110 110 0 2479 3383 5 MP stroke
0 110 -110 0 0 -110 110 0 2589 3383 5 MP stroke
0 110 -110 0 0 -110 110 0 2699 3383 5 MP stroke
0 110 -110 0 0 -110 110 0 2809 3383 5 MP stroke
0 110 -110 0 0 -110 110 0 2919 3383 5 MP stroke
0 110 -110 0 0 -110 110 0 3029 3383 5 MP stroke
0 110 -110 0 0 -110 110 0 3139 3383 5 MP stroke
0 110 -110 0 0 -110 110 0 3249 3383 5 MP stroke
0 110 -110 0 0 -110 110 0 3359 3383 5 MP stroke
0 110 -111 0 0 -110 111 0 3469 3383 5 MP stroke
0 110 -110 0 0 -110 110 0 3580 3383 5 MP stroke
0 110 -110 0 0 -110 110 0 3690 3383 5 MP stroke
0 110 -110 0 0 -110 110 0 3800 3383 5 MP stroke
0 110 -110 0 0 -110 110 0 3910 3383 5 MP stroke
0 110 -110 0 0 -110 110 0 4020 3383 5 MP stroke
0 110 -110 0 0 -110 110 0 4130 3383 5 MP stroke
0 110 -110 0 0 -110 110 0 4240 3383 5 MP stroke
0 110 -110 0 0 -110 110 0 4350 3383 5 MP stroke
0 110 -110 0 0 -110 110 0 4460 3383 5 MP stroke
0 110 -110 0 0 -110 110 0 4570 3383 5 MP stroke
0 110 -110 0 0 -110 110 0 4680 3383 5 MP stroke
0 110 -110 0 0 -110 110 0 4790 3383 5 MP stroke
0 110 -111 0 0 -110 111 0 4900 3383 5 MP stroke
0 110 -110 0 0 -110 110 0 5011 3383 5 MP stroke
0 110 -110 0 0 -110 110 0 5121 3383 5 MP stroke
0 110 -110 0 0 -110 110 0 5231 3383 5 MP stroke
0 111 -110 0 0 -111 110 0 1818 3273 5 MP stroke
0 111 -110 0 0 -111 110 0 1928 3273 5 MP stroke
0 111 -110 0 0 -111 110 0 2038 3273 5 MP stroke
0 111 -111 0 0 -111 111 0 2148 3273 5 MP stroke
0 111 -110 0 0 -111 110 0 2259 3273 5 MP stroke
0 111 -110 0 0 -111 110 0 2369 3273 5 MP stroke
0 111 -110 0 0 -111 110 0 2479 3273 5 MP stroke
0 111 -110 0 0 -111 110 0 2589 3273 5 MP stroke
0 111 -110 0 0 -111 110 0 2699 3273 5 MP stroke
0 111 -110 0 0 -111 110 0 2809 3273 5 MP stroke
0 111 -110 0 0 -111 110 0 2919 3273 5 MP stroke
0 111 -110 0 0 -111 110 0 3029 3273 5 MP stroke
0 111 -110 0 0 -111 110 0 3139 3273 5 MP stroke
0 111 -110 0 0 -111 110 0 3249 3273 5 MP stroke
0 111 -110 0 0 -111 110 0 3359 3273 5 MP stroke
0 111 -111 0 0 -111 111 0 3469 3273 5 MP stroke
0 111 -110 0 0 -111 110 0 3580 3273 5 MP stroke
0 111 -110 0 0 -111 110 0 3690 3273 5 MP stroke
0 111 -110 0 0 -111 110 0 3800 3273 5 MP stroke
0 111 -110 0 0 -111 110 0 3910 3273 5 MP stroke
0 111 -110 0 0 -111 110 0 4020 3273 5 MP stroke
0 111 -110 0 0 -111 110 0 4130 3273 5 MP stroke
0 111 -110 0 0 -111 110 0 4240 3273 5 MP stroke
0 111 -110 0 0 -111 110 0 4350 3273 5 MP stroke
0 111 -110 0 0 -111 110 0 4460 3273 5 MP stroke
0 111 -110 0 0 -111 110 0 4570 3273 5 MP stroke
0 111 -110 0 0 -111 110 0 4680 3273 5 MP stroke
0 111 -110 0 0 -111 110 0 4790 3273 5 MP stroke
0 111 -111 0 0 -111 111 0 4900 3273 5 MP stroke
0 111 -110 0 0 -111 110 0 5011 3273 5 MP stroke
0 111 -110 0 0 -111 110 0 5121 3273 5 MP stroke
0 111 -110 0 0 -111 110 0 5231 3273 5 MP stroke
0 110 -110 0 0 -110 110 0 1818 3162 5 MP stroke
0 110 -110 0 0 -110 110 0 1928 3162 5 MP stroke
0 110 -110 0 0 -110 110 0 2038 3162 5 MP stroke
0 110 -111 0 0 -110 111 0 2148 3162 5 MP stroke
0 110 -110 0 0 -110 110 0 2259 3162 5 MP stroke
0 110 -110 0 0 -110 110 0 2369 3162 5 MP stroke
0 110 -110 0 0 -110 110 0 2479 3162 5 MP stroke
0 110 -110 0 0 -110 110 0 2589 3162 5 MP stroke
0 110 -110 0 0 -110 110 0 2699 3162 5 MP stroke
0 110 -110 0 0 -110 110 0 2809 3162 5 MP stroke
0 110 -110 0 0 -110 110 0 2919 3162 5 MP stroke
0 110 -110 0 0 -110 110 0 3029 3162 5 MP stroke
0 110 -110 0 0 -110 110 0 3139 3162 5 MP stroke
0 110 -110 0 0 -110 110 0 3249 3162 5 MP stroke
0 110 -110 0 0 -110 110 0 3359 3162 5 MP stroke
0 110 -111 0 0 -110 111 0 3469 3162 5 MP stroke
0 110 -110 0 0 -110 110 0 3580 3162 5 MP stroke
0 110 -110 0 0 -110 110 0 3690 3162 5 MP stroke
0 110 -110 0 0 -110 110 0 3800 3162 5 MP stroke
0 110 -110 0 0 -110 110 0 3910 3162 5 MP stroke
0 110 -110 0 0 -110 110 0 4020 3162 5 MP stroke
0 110 -110 0 0 -110 110 0 4130 3162 5 MP stroke
0 110 -110 0 0 -110 110 0 4240 3162 5 MP stroke
0 110 -110 0 0 -110 110 0 4350 3162 5 MP stroke
0 110 -110 0 0 -110 110 0 4460 3162 5 MP stroke
0 110 -110 0 0 -110 110 0 4570 3162 5 MP stroke
0 110 -110 0 0 -110 110 0 4680 3162 5 MP stroke
0 110 -110 0 0 -110 110 0 4790 3162 5 MP stroke
0 110 -111 0 0 -110 111 0 4900 3162 5 MP stroke
0 110 -110 0 0 -110 110 0 5011 3162 5 MP stroke
0 110 -110 0 0 -110 110 0 5121 3162 5 MP stroke
0 110 -110 0 0 -110 110 0 5231 3162 5 MP stroke
0 110 -110 0 0 -110 110 0 1818 3052 5 MP stroke
0 110 -110 0 0 -110 110 0 1928 3052 5 MP stroke
0 110 -110 0 0 -110 110 0 2038 3052 5 MP stroke
0 110 -111 0 0 -110 111 0 2148 3052 5 MP stroke
0 110 -110 0 0 -110 110 0 2259 3052 5 MP stroke
0 110 -110 0 0 -110 110 0 2369 3052 5 MP stroke
0 110 -110 0 0 -110 110 0 2479 3052 5 MP stroke
0 110 -110 0 0 -110 110 0 2589 3052 5 MP stroke
0 110 -110 0 0 -110 110 0 2699 3052 5 MP stroke
0 110 -110 0 0 -110 110 0 2809 3052 5 MP stroke
0 110 -110 0 0 -110 110 0 2919 3052 5 MP stroke
0 110 -110 0 0 -110 110 0 3029 3052 5 MP stroke
0 110 -110 0 0 -110 110 0 3139 3052 5 MP stroke
0 110 -110 0 0 -110 110 0 3249 3052 5 MP stroke
0 110 -110 0 0 -110 110 0 3359 3052 5 MP stroke
0 110 -111 0 0 -110 111 0 3469 3052 5 MP stroke
0 110 -110 0 0 -110 110 0 3580 3052 5 MP stroke
0 110 -110 0 0 -110 110 0 3690 3052 5 MP stroke
0 110 -110 0 0 -110 110 0 3800 3052 5 MP stroke
0 110 -110 0 0 -110 110 0 3910 3052 5 MP stroke
0 110 -110 0 0 -110 110 0 4020 3052 5 MP stroke
0 110 -110 0 0 -110 110 0 4130 3052 5 MP stroke
0 110 -110 0 0 -110 110 0 4240 3052 5 MP stroke
0 110 -110 0 0 -110 110 0 4350 3052 5 MP stroke
0 110 -110 0 0 -110 110 0 4460 3052 5 MP stroke
0 110 -110 0 0 -110 110 0 4570 3052 5 MP stroke
0 110 -110 0 0 -110 110 0 4680 3052 5 MP stroke
0 110 -110 0 0 -110 110 0 4790 3052 5 MP stroke
0 110 -111 0 0 -110 111 0 4900 3052 5 MP stroke
0 110 -110 0 0 -110 110 0 5011 3052 5 MP stroke
0 110 -110 0 0 -110 110 0 5121 3052 5 MP stroke
0 110 -110 0 0 -110 110 0 5231 3052 5 MP stroke
0 110 -110 0 0 -110 110 0 1818 2942 5 MP stroke
0 110 -110 0 0 -110 110 0 1928 2942 5 MP stroke
0 110 -110 0 0 -110 110 0 2038 2942 5 MP stroke
0 110 -111 0 0 -110 111 0 2148 2942 5 MP stroke
0 110 -110 0 0 -110 110 0 2259 2942 5 MP stroke
0 110 -110 0 0 -110 110 0 2369 2942 5 MP stroke
0 110 -110 0 0 -110 110 0 2479 2942 5 MP stroke
0 110 -110 0 0 -110 110 0 2589 2942 5 MP stroke
0 110 -110 0 0 -110 110 0 2699 2942 5 MP stroke
0 110 -110 0 0 -110 110 0 2809 2942 5 MP stroke
0 110 -110 0 0 -110 110 0 2919 2942 5 MP stroke
0 110 -110 0 0 -110 110 0 3029 2942 5 MP stroke
0 110 -110 0 0 -110 110 0 3139 2942 5 MP stroke
0 110 -110 0 0 -110 110 0 3249 2942 5 MP stroke
0 110 -110 0 0 -110 110 0 3359 2942 5 MP stroke
0 110 -111 0 0 -110 111 0 3469 2942 5 MP stroke
0 110 -110 0 0 -110 110 0 3580 2942 5 MP stroke
0 110 -110 0 0 -110 110 0 3690 2942 5 MP stroke
0 110 -110 0 0 -110 110 0 3800 2942 5 MP stroke
0 110 -110 0 0 -110 110 0 3910 2942 5 MP stroke
0 110 -110 0 0 -110 110 0 4020 2942 5 MP stroke
0 110 -110 0 0 -110 110 0 4130 2942 5 MP stroke
0 110 -110 0 0 -110 110 0 4240 2942 5 MP stroke
0 110 -110 0 0 -110 110 0 4350 2942 5 MP stroke
0 110 -110 0 0 -110 110 0 4460 2942 5 MP stroke
0 110 -110 0 0 -110 110 0 4570 2942 5 MP stroke
0 110 -110 0 0 -110 110 0 4680 2942 5 MP stroke
0 110 -110 0 0 -110 110 0 4790 2942 5 MP stroke
0 110 -111 0 0 -110 111 0 4900 2942 5 MP stroke
0 110 -110 0 0 -110 110 0 5011 2942 5 MP stroke
0 110 -110 0 0 -110 110 0 5121 2942 5 MP stroke
0 110 -110 0 0 -110 110 0 5231 2942 5 MP stroke
0 110 -110 0 0 -110 110 0 1818 2832 5 MP stroke
0 110 -110 0 0 -110 110 0 1928 2832 5 MP stroke
0 110 -110 0 0 -110 110 0 2038 2832 5 MP stroke
0 110 -111 0 0 -110 111 0 2148 2832 5 MP stroke
0 110 -110 0 0 -110 110 0 2259 2832 5 MP stroke
0 110 -110 0 0 -110 110 0 2369 2832 5 MP stroke
0 110 -110 0 0 -110 110 0 2479 2832 5 MP stroke
0 110 -110 0 0 -110 110 0 2589 2832 5 MP stroke
0 110 -110 0 0 -110 110 0 2699 2832 5 MP stroke
0 110 -110 0 0 -110 110 0 2809 2832 5 MP stroke
0 110 -110 0 0 -110 110 0 2919 2832 5 MP stroke
0 110 -110 0 0 -110 110 0 3029 2832 5 MP stroke
0 110 -110 0 0 -110 110 0 3139 2832 5 MP stroke
0 110 -110 0 0 -110 110 0 3249 2832 5 MP stroke
0 110 -110 0 0 -110 110 0 3359 2832 5 MP stroke
0 110 -111 0 0 -110 111 0 3469 2832 5 MP stroke
0 110 -110 0 0 -110 110 0 3580 2832 5 MP stroke
0 110 -110 0 0 -110 110 0 3690 2832 5 MP stroke
0 110 -110 0 0 -110 110 0 3800 2832 5 MP stroke
0 110 -110 0 0 -110 110 0 3910 2832 5 MP stroke
0 110 -110 0 0 -110 110 0 4020 2832 5 MP stroke
0 110 -110 0 0 -110 110 0 4130 2832 5 MP stroke
0 110 -110 0 0 -110 110 0 4240 2832 5 MP stroke
0 110 -110 0 0 -110 110 0 4350 2832 5 MP stroke
0 110 -110 0 0 -110 110 0 4460 2832 5 MP stroke
0 110 -110 0 0 -110 110 0 4570 2832 5 MP stroke
0 110 -110 0 0 -110 110 0 4680 2832 5 MP stroke
0 110 -110 0 0 -110 110 0 4790 2832 5 MP stroke
0 110 -111 0 0 -110 111 0 4900 2832 5 MP stroke
0 110 -110 0 0 -110 110 0 5011 2832 5 MP stroke
0 110 -110 0 0 -110 110 0 5121 2832 5 MP stroke
0 110 -110 0 0 -110 110 0 5231 2832 5 MP stroke
0 110 -110 0 0 -110 110 0 1818 2722 5 MP stroke
0 110 -110 0 0 -110 110 0 1928 2722 5 MP stroke
0 110 -110 0 0 -110 110 0 2038 2722 5 MP stroke
0 110 -111 0 0 -110 111 0 2148 2722 5 MP stroke
0 110 -110 0 0 -110 110 0 2259 2722 5 MP stroke
0 110 -110 0 0 -110 110 0 2369 2722 5 MP stroke
0 110 -110 0 0 -110 110 0 2479 2722 5 MP stroke
0 110 -110 0 0 -110 110 0 2589 2722 5 MP stroke
0 110 -110 0 0 -110 110 0 2699 2722 5 MP stroke
0 110 -110 0 0 -110 110 0 2809 2722 5 MP stroke
0 110 -110 0 0 -110 110 0 2919 2722 5 MP stroke
0 110 -110 0 0 -110 110 0 3029 2722 5 MP stroke
0 110 -110 0 0 -110 110 0 3139 2722 5 MP stroke
0 110 -110 0 0 -110 110 0 3249 2722 5 MP stroke
0 110 -110 0 0 -110 110 0 3359 2722 5 MP stroke
0 110 -111 0 0 -110 111 0 3469 2722 5 MP stroke
0 110 -110 0 0 -110 110 0 3580 2722 5 MP stroke
0 110 -110 0 0 -110 110 0 3690 2722 5 MP stroke
0 110 -110 0 0 -110 110 0 3800 2722 5 MP stroke
0 110 -110 0 0 -110 110 0 3910 2722 5 MP stroke
0 110 -110 0 0 -110 110 0 4020 2722 5 MP stroke
0 110 -110 0 0 -110 110 0 4130 2722 5 MP stroke
0 110 -110 0 0 -110 110 0 4240 2722 5 MP stroke
0 110 -110 0 0 -110 110 0 4350 2722 5 MP stroke
0 110 -110 0 0 -110 110 0 4460 2722 5 MP stroke
0 110 -110 0 0 -110 110 0 4570 2722 5 MP stroke
0 110 -110 0 0 -110 110 0 4680 2722 5 MP stroke
0 110 -110 0 0 -110 110 0 4790 2722 5 MP stroke
0 110 -111 0 0 -110 111 0 4900 2722 5 MP stroke
0 110 -110 0 0 -110 110 0 5011 2722 5 MP stroke
0 110 -110 0 0 -110 110 0 5121 2722 5 MP stroke
0 110 -110 0 0 -110 110 0 5231 2722 5 MP stroke
0 110 -110 0 0 -110 110 0 1818 2612 5 MP stroke
0 110 -110 0 0 -110 110 0 1928 2612 5 MP stroke
0 110 -110 0 0 -110 110 0 2038 2612 5 MP stroke
0 110 -111 0 0 -110 111 0 2148 2612 5 MP stroke
0 110 -110 0 0 -110 110 0 2259 2612 5 MP stroke
0 110 -110 0 0 -110 110 0 2369 2612 5 MP stroke
0 110 -110 0 0 -110 110 0 2479 2612 5 MP stroke
0 110 -110 0 0 -110 110 0 2589 2612 5 MP stroke
0 110 -110 0 0 -110 110 0 2699 2612 5 MP stroke
0 110 -110 0 0 -110 110 0 2809 2612 5 MP stroke
0 110 -110 0 0 -110 110 0 2919 2612 5 MP stroke
0 110 -110 0 0 -110 110 0 3029 2612 5 MP stroke
0 110 -110 0 0 -110 110 0 3139 2612 5 MP stroke
0 110 -110 0 0 -110 110 0 3249 2612 5 MP stroke
0 110 -110 0 0 -110 110 0 3359 2612 5 MP stroke
0 110 -111 0 0 -110 111 0 3469 2612 5 MP stroke
0 110 -110 0 0 -110 110 0 3580 2612 5 MP stroke
0 110 -110 0 0 -110 110 0 3690 2612 5 MP stroke
0 110 -110 0 0 -110 110 0 3800 2612 5 MP stroke
0 110 -110 0 0 -110 110 0 3910 2612 5 MP stroke
0 110 -110 0 0 -110 110 0 4020 2612 5 MP stroke
0 110 -110 0 0 -110 110 0 4130 2612 5 MP stroke
0 110 -110 0 0 -110 110 0 4240 2612 5 MP stroke
0 110 -110 0 0 -110 110 0 4350 2612 5 MP stroke
0 110 -110 0 0 -110 110 0 4460 2612 5 MP stroke
0 110 -110 0 0 -110 110 0 4570 2612 5 MP stroke
0 110 -110 0 0 -110 110 0 4680 2612 5 MP stroke
0 110 -110 0 0 -110 110 0 4790 2612 5 MP stroke
0 110 -111 0 0 -110 111 0 4900 2612 5 MP stroke
0 110 -110 0 0 -110 110 0 5011 2612 5 MP stroke
0 110 -110 0 0 -110 110 0 5121 2612 5 MP stroke
0 110 -110 0 0 -110 110 0 5231 2612 5 MP stroke
0 110 -110 0 0 -110 110 0 1818 2502 5 MP stroke
0 110 -110 0 0 -110 110 0 1928 2502 5 MP stroke
0 110 -110 0 0 -110 110 0 2038 2502 5 MP stroke
0 110 -111 0 0 -110 111 0 2148 2502 5 MP stroke
0 110 -110 0 0 -110 110 0 2259 2502 5 MP stroke
0 110 -110 0 0 -110 110 0 2369 2502 5 MP stroke
0 110 -110 0 0 -110 110 0 2479 2502 5 MP stroke
0 110 -110 0 0 -110 110 0 2589 2502 5 MP stroke
0 110 -110 0 0 -110 110 0 2699 2502 5 MP stroke
0 110 -110 0 0 -110 110 0 2809 2502 5 MP stroke
0 110 -110 0 0 -110 110 0 2919 2502 5 MP stroke
0 110 -110 0 0 -110 110 0 3029 2502 5 MP stroke
0 110 -110 0 0 -110 110 0 3139 2502 5 MP stroke
0 110 -110 0 0 -110 110 0 3249 2502 5 MP stroke
0 110 -110 0 0 -110 110 0 3359 2502 5 MP stroke
0 110 -111 0 0 -110 111 0 3469 2502 5 MP stroke
0 110 -110 0 0 -110 110 0 3580 2502 5 MP stroke
0 110 -110 0 0 -110 110 0 3690 2502 5 MP stroke
0 110 -110 0 0 -110 110 0 3800 2502 5 MP stroke
0 110 -110 0 0 -110 110 0 3910 2502 5 MP stroke
0 110 -110 0 0 -110 110 0 4020 2502 5 MP stroke
0 110 -110 0 0 -110 110 0 4130 2502 5 MP stroke
0 110 -110 0 0 -110 110 0 4240 2502 5 MP stroke
0 110 -110 0 0 -110 110 0 4350 2502 5 MP stroke
0 110 -110 0 0 -110 110 0 4460 2502 5 MP stroke
0 110 -110 0 0 -110 110 0 4570 2502 5 MP stroke
0 110 -110 0 0 -110 110 0 4680 2502 5 MP stroke
0 110 -110 0 0 -110 110 0 4790 2502 5 MP stroke
0 110 -111 0 0 -110 111 0 4900 2502 5 MP stroke
0 110 -110 0 0 -110 110 0 5011 2502 5 MP stroke
0 110 -110 0 0 -110 110 0 5121 2502 5 MP stroke
0 110 -110 0 0 -110 110 0 5231 2502 5 MP stroke
0 110 -110 0 0 -110 110 0 1818 2392 5 MP stroke
0 110 -110 0 0 -110 110 0 1928 2392 5 MP stroke
0 110 -110 0 0 -110 110 0 2038 2392 5 MP stroke
0 110 -111 0 0 -110 111 0 2148 2392 5 MP stroke
0 110 -110 0 0 -110 110 0 2259 2392 5 MP stroke
0 110 -110 0 0 -110 110 0 2369 2392 5 MP stroke
0 110 -110 0 0 -110 110 0 2479 2392 5 MP stroke
0 110 -110 0 0 -110 110 0 2589 2392 5 MP stroke
0 110 -110 0 0 -110 110 0 2699 2392 5 MP stroke
0 110 -110 0 0 -110 110 0 2809 2392 5 MP stroke
0 110 -110 0 0 -110 110 0 2919 2392 5 MP stroke
0 110 -110 0 0 -110 110 0 3029 2392 5 MP stroke
0 110 -110 0 0 -110 110 0 3139 2392 5 MP stroke
0 110 -110 0 0 -110 110 0 3249 2392 5 MP stroke
0 110 -110 0 0 -110 110 0 3359 2392 5 MP stroke
0 110 -111 0 0 -110 111 0 3469 2392 5 MP stroke
0 110 -110 0 0 -110 110 0 3580 2392 5 MP stroke
0 110 -110 0 0 -110 110 0 3690 2392 5 MP stroke
0 110 -110 0 0 -110 110 0 3800 2392 5 MP stroke
0 110 -110 0 0 -110 110 0 3910 2392 5 MP stroke
0 110 -110 0 0 -110 110 0 4020 2392 5 MP stroke
0 110 -110 0 0 -110 110 0 4130 2392 5 MP stroke
0 110 -110 0 0 -110 110 0 4240 2392 5 MP stroke
0 110 -110 0 0 -110 110 0 4350 2392 5 MP stroke
0 110 -110 0 0 -110 110 0 4460 2392 5 MP stroke
0 110 -110 0 0 -110 110 0 4570 2392 5 MP stroke
0 110 -110 0 0 -110 110 0 4680 2392 5 MP stroke
0 110 -110 0 0 -110 110 0 4790 2392 5 MP stroke
0 110 -111 0 0 -110 111 0 4900 2392 5 MP stroke
0 110 -110 0 0 -110 110 0 5011 2392 5 MP stroke
0 110 -110 0 0 -110 110 0 5121 2392 5 MP stroke
0 110 -110 0 0 -110 110 0 5231 2392 5 MP stroke
0 110 -110 0 0 -110 110 0 1818 2282 5 MP stroke
0 110 -110 0 0 -110 110 0 1928 2282 5 MP stroke
0 110 -110 0 0 -110 110 0 2038 2282 5 MP stroke
0 110 -111 0 0 -110 111 0 2148 2282 5 MP stroke
0 110 -110 0 0 -110 110 0 2259 2282 5 MP stroke
0 110 -110 0 0 -110 110 0 2369 2282 5 MP stroke
0 110 -110 0 0 -110 110 0 2479 2282 5 MP stroke
0 110 -110 0 0 -110 110 0 2589 2282 5 MP stroke
0 110 -110 0 0 -110 110 0 2699 2282 5 MP stroke
0 110 -110 0 0 -110 110 0 2809 2282 5 MP stroke
0 110 -110 0 0 -110 110 0 2919 2282 5 MP stroke
0 110 -110 0 0 -110 110 0 3029 2282 5 MP stroke
0 110 -110 0 0 -110 110 0 3139 2282 5 MP stroke
0 110 -110 0 0 -110 110 0 3249 2282 5 MP stroke
0 110 -110 0 0 -110 110 0 3359 2282 5 MP stroke
0 110 -111 0 0 -110 111 0 3469 2282 5 MP stroke
0 110 -110 0 0 -110 110 0 3580 2282 5 MP stroke
0 110 -110 0 0 -110 110 0 3690 2282 5 MP stroke
0 110 -110 0 0 -110 110 0 3800 2282 5 MP stroke
0 110 -110 0 0 -110 110 0 3910 2282 5 MP stroke
0 110 -110 0 0 -110 110 0 4020 2282 5 MP stroke
0 110 -110 0 0 -110 110 0 4130 2282 5 MP stroke
0 110 -110 0 0 -110 110 0 4240 2282 5 MP stroke
0 110 -110 0 0 -110 110 0 4350 2282 5 MP stroke
0 110 -110 0 0 -110 110 0 4460 2282 5 MP stroke
0 110 -110 0 0 -110 110 0 4570 2282 5 MP stroke
0 110 -110 0 0 -110 110 0 4680 2282 5 MP stroke
0 110 -110 0 0 -110 110 0 4790 2282 5 MP stroke
0 110 -111 0 0 -110 111 0 4900 2282 5 MP stroke
0 110 -110 0 0 -110 110 0 5011 2282 5 MP stroke
0 110 -110 0 0 -110 110 0 5121 2282 5 MP stroke
0 110 -110 0 0 -110 110 0 5231 2282 5 MP stroke
0 110 -110 0 0 -110 110 0 1818 2172 5 MP stroke
0 110 -110 0 0 -110 110 0 1928 2172 5 MP stroke
0 110 -110 0 0 -110 110 0 2038 2172 5 MP stroke
0 110 -111 0 0 -110 111 0 2148 2172 5 MP stroke
0 110 -110 0 0 -110 110 0 2259 2172 5 MP stroke
0 110 -110 0 0 -110 110 0 2369 2172 5 MP stroke
0 110 -110 0 0 -110 110 0 2479 2172 5 MP stroke
0 110 -110 0 0 -110 110 0 2589 2172 5 MP stroke
0 110 -110 0 0 -110 110 0 2699 2172 5 MP stroke
0 110 -110 0 0 -110 110 0 2809 2172 5 MP stroke
0 110 -110 0 0 -110 110 0 2919 2172 5 MP stroke
0 110 -110 0 0 -110 110 0 3029 2172 5 MP stroke
0 110 -110 0 0 -110 110 0 3139 2172 5 MP stroke
0 110 -110 0 0 -110 110 0 3249 2172 5 MP stroke
0 110 -110 0 0 -110 110 0 3359 2172 5 MP stroke
0 110 -111 0 0 -110 111 0 3469 2172 5 MP stroke
0 110 -110 0 0 -110 110 0 3580 2172 5 MP stroke
0 110 -110 0 0 -110 110 0 3690 2172 5 MP stroke
0 110 -110 0 0 -110 110 0 3800 2172 5 MP stroke
0 110 -110 0 0 -110 110 0 3910 2172 5 MP stroke
0 110 -110 0 0 -110 110 0 4020 2172 5 MP stroke
0 110 -110 0 0 -110 110 0 4130 2172 5 MP stroke
0 110 -110 0 0 -110 110 0 4240 2172 5 MP stroke
0 110 -110 0 0 -110 110 0 4350 2172 5 MP stroke
0 110 -110 0 0 -110 110 0 4460 2172 5 MP stroke
0 110 -110 0 0 -110 110 0 4570 2172 5 MP stroke
0 110 -110 0 0 -110 110 0 4680 2172 5 MP stroke
0 110 -110 0 0 -110 110 0 4790 2172 5 MP stroke
0 110 -111 0 0 -110 111 0 4900 2172 5 MP stroke
0 110 -110 0 0 -110 110 0 5011 2172 5 MP stroke
0 110 -110 0 0 -110 110 0 5121 2172 5 MP stroke
0 110 -110 0 0 -110 110 0 5231 2172 5 MP stroke
0 110 -110 0 0 -110 110 0 1818 2062 5 MP stroke
0 110 -110 0 0 -110 110 0 1928 2062 5 MP stroke
0 110 -110 0 0 -110 110 0 2038 2062 5 MP stroke
0 110 -111 0 0 -110 111 0 2148 2062 5 MP stroke
0 110 -110 0 0 -110 110 0 2259 2062 5 MP stroke
0 110 -110 0 0 -110 110 0 2369 2062 5 MP stroke
0 110 -110 0 0 -110 110 0 2479 2062 5 MP stroke
0 110 -110 0 0 -110 110 0 2589 2062 5 MP stroke
0 110 -110 0 0 -110 110 0 2699 2062 5 MP stroke
0 110 -110 0 0 -110 110 0 2809 2062 5 MP stroke
0 110 -110 0 0 -110 110 0 2919 2062 5 MP stroke
0 110 -110 0 0 -110 110 0 3029 2062 5 MP stroke
0 110 -110 0 0 -110 110 0 3139 2062 5 MP stroke
0 110 -110 0 0 -110 110 0 3249 2062 5 MP stroke
0 110 -110 0 0 -110 110 0 3359 2062 5 MP stroke
0 110 -111 0 0 -110 111 0 3469 2062 5 MP stroke
0 110 -110 0 0 -110 110 0 3580 2062 5 MP stroke
0 110 -110 0 0 -110 110 0 3690 2062 5 MP stroke
0 110 -110 0 0 -110 110 0 3800 2062 5 MP stroke
0 110 -110 0 0 -110 110 0 3910 2062 5 MP stroke
0 110 -110 0 0 -110 110 0 4020 2062 5 MP stroke
0 110 -110 0 0 -110 110 0 4130 2062 5 MP stroke
0 110 -110 0 0 -110 110 0 4240 2062 5 MP stroke
0 110 -110 0 0 -110 110 0 4350 2062 5 MP stroke
0 110 -110 0 0 -110 110 0 4460 2062 5 MP stroke
0 110 -110 0 0 -110 110 0 4570 2062 5 MP stroke
0 110 -110 0 0 -110 110 0 4680 2062 5 MP stroke
0 110 -110 0 0 -110 110 0 4790 2062 5 MP stroke
0 110 -111 0 0 -110 111 0 4900 2062 5 MP stroke
0 110 -110 0 0 -110 110 0 5011 2062 5 MP stroke
0 110 -110 0 0 -110 110 0 5121 2062 5 MP stroke
0 110 -110 0 0 -110 110 0 5231 2062 5 MP stroke
0 110 -110 0 0 -110 110 0 1818 1952 5 MP stroke
0 110 -110 0 0 -110 110 0 1928 1952 5 MP stroke
0 110 -110 0 0 -110 110 0 2038 1952 5 MP stroke
0 110 -111 0 0 -110 111 0 2148 1952 5 MP stroke
0 110 -110 0 0 -110 110 0 2259 1952 5 MP stroke
0 110 -110 0 0 -110 110 0 2369 1952 5 MP stroke
0 110 -110 0 0 -110 110 0 2479 1952 5 MP stroke
0 110 -110 0 0 -110 110 0 2589 1952 5 MP stroke
0 110 -110 0 0 -110 110 0 2699 1952 5 MP stroke
0 110 -110 0 0 -110 110 0 2809 1952 5 MP stroke
0 110 -110 0 0 -110 110 0 2919 1952 5 MP stroke
0 110 -110 0 0 -110 110 0 3029 1952 5 MP stroke
0 110 -110 0 0 -110 110 0 3139 1952 5 MP stroke
0 110 -110 0 0 -110 110 0 3249 1952 5 MP stroke
0 110 -110 0 0 -110 110 0 3359 1952 5 MP stroke
0 110 -111 0 0 -110 111 0 3469 1952 5 MP stroke
0 110 -110 0 0 -110 110 0 3580 1952 5 MP stroke
0 110 -110 0 0 -110 110 0 3690 1952 5 MP stroke
0 110 -110 0 0 -110 110 0 3800 1952 5 MP stroke
0 110 -110 0 0 -110 110 0 3910 1952 5 MP stroke
0 110 -110 0 0 -110 110 0 4020 1952 5 MP stroke
0 110 -110 0 0 -110 110 0 4130 1952 5 MP stroke
0 110 -110 0 0 -110 110 0 4240 1952 5 MP stroke
0 110 -110 0 0 -110 110 0 4350 1952 5 MP stroke
0 110 -110 0 0 -110 110 0 4460 1952 5 MP stroke
0 110 -110 0 0 -110 110 0 4570 1952 5 MP stroke
0 110 -110 0 0 -110 110 0 4680 1952 5 MP stroke
0 110 -110 0 0 -110 110 0 4790 1952 5 MP stroke
0 110 -111 0 0 -110 111 0 4900 1952 5 MP stroke
0 110 -110 0 0 -110 110 0 5011 1952 5 MP stroke
0 110 -110 0 0 -110 110 0 5121 1952 5 MP stroke
0 110 -110 0 0 -110 110 0 5231 1952 5 MP stroke
0 111 -110 0 0 -111 110 0 1818 1842 5 MP stroke
0 111 -110 0 0 -111 110 0 1928 1842 5 MP stroke
0 111 -110 0 0 -111 110 0 2038 1842 5 MP stroke
0 111 -111 0 0 -111 111 0 2148 1842 5 MP stroke
0 111 -110 0 0 -111 110 0 2259 1842 5 MP stroke
0 111 -110 0 0 -111 110 0 2369 1842 5 MP stroke
0 111 -110 0 0 -111 110 0 2479 1842 5 MP stroke
0 111 -110 0 0 -111 110 0 2589 1842 5 MP stroke
0 111 -110 0 0 -111 110 0 2699 1842 5 MP stroke
0 111 -110 0 0 -111 110 0 2809 1842 5 MP stroke
0 111 -110 0 0 -111 110 0 2919 1842 5 MP stroke
0 111 -110 0 0 -111 110 0 3029 1842 5 MP stroke
0 111 -110 0 0 -111 110 0 3139 1842 5 MP stroke
0 111 -110 0 0 -111 110 0 3249 1842 5 MP stroke
0 111 -110 0 0 -111 110 0 3359 1842 5 MP stroke
0 111 -111 0 0 -111 111 0 3469 1842 5 MP stroke
0 111 -110 0 0 -111 110 0 3580 1842 5 MP stroke
0 111 -110 0 0 -111 110 0 3690 1842 5 MP stroke
0 111 -110 0 0 -111 110 0 3800 1842 5 MP stroke
0 111 -110 0 0 -111 110 0 3910 1842 5 MP stroke
0 111 -110 0 0 -111 110 0 4020 1842 5 MP stroke
0 111 -110 0 0 -111 110 0 4130 1842 5 MP stroke
0 111 -110 0 0 -111 110 0 4240 1842 5 MP stroke
0 111 -110 0 0 -111 110 0 4350 1842 5 MP stroke
0 111 -110 0 0 -111 110 0 4460 1842 5 MP stroke
0 111 -110 0 0 -111 110 0 4570 1842 5 MP stroke
0 111 -110 0 0 -111 110 0 4680 1842 5 MP stroke
0 111 -110 0 0 -111 110 0 4790 1842 5 MP stroke
0 111 -111 0 0 -111 111 0 4900 1842 5 MP stroke
0 111 -110 0 0 -111 110 0 5011 1842 5 MP stroke
0 111 -110 0 0 -111 110 0 5121 1842 5 MP stroke
0 111 -110 0 0 -111 110 0 5231 1842 5 MP stroke
0 110 -110 0 0 -110 110 0 1818 1731 5 MP stroke
0 110 -110 0 0 -110 110 0 1928 1731 5 MP stroke
0 110 -110 0 0 -110 110 0 2038 1731 5 MP stroke
0 110 -111 0 0 -110 111 0 2148 1731 5 MP stroke
0 110 -110 0 0 -110 110 0 2259 1731 5 MP stroke
0 110 -110 0 0 -110 110 0 2369 1731 5 MP stroke
0 110 -110 0 0 -110 110 0 2479 1731 5 MP stroke
0 110 -110 0 0 -110 110 0 2589 1731 5 MP stroke
0 110 -110 0 0 -110 110 0 2699 1731 5 MP stroke
0 110 -110 0 0 -110 110 0 2809 1731 5 MP stroke
0 110 -110 0 0 -110 110 0 2919 1731 5 MP stroke
0 110 -110 0 0 -110 110 0 3029 1731 5 MP stroke
0 110 -110 0 0 -110 110 0 3139 1731 5 MP stroke
0 110 -110 0 0 -110 110 0 3249 1731 5 MP stroke
0 110 -110 0 0 -110 110 0 3359 1731 5 MP stroke
0 110 -111 0 0 -110 111 0 3469 1731 5 MP stroke
0 110 -110 0 0 -110 110 0 3580 1731 5 MP stroke
0 110 -110 0 0 -110 110 0 3690 1731 5 MP stroke
0 110 -110 0 0 -110 110 0 3800 1731 5 MP stroke
0 110 -110 0 0 -110 110 0 3910 1731 5 MP stroke
0 110 -110 0 0 -110 110 0 4020 1731 5 MP stroke
0 110 -110 0 0 -110 110 0 4130 1731 5 MP stroke
0 110 -110 0 0 -110 110 0 4240 1731 5 MP stroke
0 110 -110 0 0 -110 110 0 4350 1731 5 MP stroke
0 110 -110 0 0 -110 110 0 4460 1731 5 MP stroke
0 110 -110 0 0 -110 110 0 4570 1731 5 MP stroke
0 110 -110 0 0 -110 110 0 4680 1731 5 MP stroke
0 110 -110 0 0 -110 110 0 4790 1731 5 MP stroke
0 110 -111 0 0 -110 111 0 4900 1731 5 MP stroke
0 110 -110 0 0 -110 110 0 5011 1731 5 MP stroke
0 110 -110 0 0 -110 110 0 5121 1731 5 MP stroke
0 110 -110 0 0 -110 110 0 5231 1731 5 MP stroke
0 110 -110 0 0 -110 110 0 1818 1621 5 MP stroke
0 110 -110 0 0 -110 110 0 1928 1621 5 MP stroke
0 110 -110 0 0 -110 110 0 2038 1621 5 MP stroke
0 110 -111 0 0 -110 111 0 2148 1621 5 MP stroke
0 110 -110 0 0 -110 110 0 2259 1621 5 MP stroke
0 110 -110 0 0 -110 110 0 2369 1621 5 MP stroke
0 110 -110 0 0 -110 110 0 2479 1621 5 MP stroke
0 110 -110 0 0 -110 110 0 2589 1621 5 MP stroke
0 110 -110 0 0 -110 110 0 2699 1621 5 MP stroke
0 110 -110 0 0 -110 110 0 2809 1621 5 MP stroke
0 110 -110 0 0 -110 110 0 2919 1621 5 MP stroke
0 110 -110 0 0 -110 110 0 3029 1621 5 MP stroke
0 110 -110 0 0 -110 110 0 3139 1621 5 MP stroke
0 110 -110 0 0 -110 110 0 3249 1621 5 MP stroke
0 110 -110 0 0 -110 110 0 3359 1621 5 MP stroke
0 110 -111 0 0 -110 111 0 3469 1621 5 MP stroke
0 110 -110 0 0 -110 110 0 3580 1621 5 MP stroke
0 110 -110 0 0 -110 110 0 3690 1621 5 MP stroke
0 110 -110 0 0 -110 110 0 3800 1621 5 MP stroke
0 110 -110 0 0 -110 110 0 3910 1621 5 MP stroke
0 110 -110 0 0 -110 110 0 4020 1621 5 MP stroke
0 110 -110 0 0 -110 110 0 4130 1621 5 MP stroke
0 110 -110 0 0 -110 110 0 4240 1621 5 MP stroke
0 110 -110 0 0 -110 110 0 4350 1621 5 MP stroke
0 110 -110 0 0 -110 110 0 4460 1621 5 MP stroke
0 110 -110 0 0 -110 110 0 4570 1621 5 MP stroke
0 110 -110 0 0 -110 110 0 4680 1621 5 MP stroke
0 110 -110 0 0 -110 110 0 4790 1621 5 MP stroke
0 110 -111 0 0 -110 111 0 4900 1621 5 MP stroke
0 110 -110 0 0 -110 110 0 5011 1621 5 MP stroke
0 110 -110 0 0 -110 110 0 5121 1621 5 MP stroke
0 110 -110 0 0 -110 110 0 5231 1621 5 MP stroke
0 110 -110 0 0 -110 110 0 1818 1511 5 MP stroke
0 110 -110 0 0 -110 110 0 1928 1511 5 MP stroke
0 110 -110 0 0 -110 110 0 2038 1511 5 MP stroke
0 110 -111 0 0 -110 111 0 2148 1511 5 MP stroke
0 110 -110 0 0 -110 110 0 2259 1511 5 MP stroke
0 110 -110 0 0 -110 110 0 2369 1511 5 MP stroke
0 110 -110 0 0 -110 110 0 2479 1511 5 MP stroke
0 110 -110 0 0 -110 110 0 2589 1511 5 MP stroke
0 110 -110 0 0 -110 110 0 2699 1511 5 MP stroke
0 110 -110 0 0 -110 110 0 2809 1511 5 MP stroke
0 110 -110 0 0 -110 110 0 2919 1511 5 MP stroke
0 110 -110 0 0 -110 110 0 3029 1511 5 MP stroke
0 110 -110 0 0 -110 110 0 3139 1511 5 MP stroke
0 110 -110 0 0 -110 110 0 3249 1511 5 MP stroke
0 110 -110 0 0 -110 110 0 3359 1511 5 MP stroke
0 110 -111 0 0 -110 111 0 3469 1511 5 MP stroke
0 110 -110 0 0 -110 110 0 3580 1511 5 MP stroke
0 110 -110 0 0 -110 110 0 3690 1511 5 MP stroke
0 110 -110 0 0 -110 110 0 3800 1511 5 MP stroke
0 110 -110 0 0 -110 110 0 3910 1511 5 MP stroke
0 110 -110 0 0 -110 110 0 4020 1511 5 MP stroke
0 110 -110 0 0 -110 110 0 4130 1511 5 MP stroke
0 110 -110 0 0 -110 110 0 4240 1511 5 MP stroke
0 110 -110 0 0 -110 110 0 4350 1511 5 MP stroke
0 110 -110 0 0 -110 110 0 4460 1511 5 MP stroke
0 110 -110 0 0 -110 110 0 4570 1511 5 MP stroke
0 110 -110 0 0 -110 110 0 4680 1511 5 MP stroke
0 110 -110 0 0 -110 110 0 4790 1511 5 MP stroke
0 110 -111 0 0 -110 111 0 4900 1511 5 MP stroke
0 110 -110 0 0 -110 110 0 5011 1511 5 MP stroke
0 110 -110 0 0 -110 110 0 5121 1511 5 MP stroke
0 110 -110 0 0 -110 110 0 5231 1511 5 MP stroke
0 110 -110 0 0 -110 110 0 1818 1401 5 MP stroke
0 110 -110 0 0 -110 110 0 1928 1401 5 MP stroke
0 110 -110 0 0 -110 110 0 2038 1401 5 MP stroke
0 110 -111 0 0 -110 111 0 2148 1401 5 MP stroke
0 110 -110 0 0 -110 110 0 2259 1401 5 MP stroke
0 110 -110 0 0 -110 110 0 2369 1401 5 MP stroke
0 110 -110 0 0 -110 110 0 2479 1401 5 MP stroke
0 110 -110 0 0 -110 110 0 2589 1401 5 MP stroke
0 110 -110 0 0 -110 110 0 2699 1401 5 MP stroke
0 110 -110 0 0 -110 110 0 2809 1401 5 MP stroke
0 110 -110 0 0 -110 110 0 2919 1401 5 MP stroke
0 110 -110 0 0 -110 110 0 3029 1401 5 MP stroke
0 110 -110 0 0 -110 110 0 3139 1401 5 MP stroke
0 110 -110 0 0 -110 110 0 3249 1401 5 MP stroke
0 110 -110 0 0 -110 110 0 3359 1401 5 MP stroke
0 110 -111 0 0 -110 111 0 3469 1401 5 MP stroke
0 110 -110 0 0 -110 110 0 3580 1401 5 MP stroke
0 110 -110 0 0 -110 110 0 3690 1401 5 MP stroke
0 110 -110 0 0 -110 110 0 3800 1401 5 MP stroke
0 110 -110 0 0 -110 110 0 3910 1401 5 MP stroke
0 110 -110 0 0 -110 110 0 4020 1401 5 MP stroke
0 110 -110 0 0 -110 110 0 4130 1401 5 MP stroke
0 110 -110 0 0 -110 110 0 4240 1401 5 MP stroke
0 110 -110 0 0 -110 110 0 4350 1401 5 MP stroke
0 110 -110 0 0 -110 110 0 4460 1401 5 MP stroke
0 110 -110 0 0 -110 110 0 4570 1401 5 MP stroke
0 110 -110 0 0 -110 110 0 4680 1401 5 MP stroke
0 110 -110 0 0 -110 110 0 4790 1401 5 MP stroke
0 110 -111 0 0 -110 111 0 4900 1401 5 MP stroke
0 110 -110 0 0 -110 110 0 5011 1401 5 MP stroke
0 110 -110 0 0 -110 110 0 5121 1401 5 MP stroke
0 110 -110 0 0 -110 110 0 5231 1401 5 MP stroke
0 110 -110 0 0 -110 110 0 1818 1291 5 MP stroke
0 110 -110 0 0 -110 110 0 1928 1291 5 MP stroke
0 110 -110 0 0 -110 110 0 2038 1291 5 MP stroke
0 110 -111 0 0 -110 111 0 2148 1291 5 MP stroke
0 110 -110 0 0 -110 110 0 2259 1291 5 MP stroke
0 110 -110 0 0 -110 110 0 2369 1291 5 MP stroke
0 110 -110 0 0 -110 110 0 2479 1291 5 MP stroke
0 110 -110 0 0 -110 110 0 2589 1291 5 MP stroke
0 110 -110 0 0 -110 110 0 2699 1291 5 MP stroke
0 110 -110 0 0 -110 110 0 2809 1291 5 MP stroke
0 110 -110 0 0 -110 110 0 2919 1291 5 MP stroke
0 110 -110 0 0 -110 110 0 3029 1291 5 MP stroke
0 110 -110 0 0 -110 110 0 3139 1291 5 MP stroke
0 110 -110 0 0 -110 110 0 3249 1291 5 MP stroke
0 110 -110 0 0 -110 110 0 3359 1291 5 MP stroke
0 110 -111 0 0 -110 111 0 3469 1291 5 MP stroke
0 110 -110 0 0 -110 110 0 3580 1291 5 MP stroke
0 110 -110 0 0 -110 110 0 3690 1291 5 MP stroke
0 110 -110 0 0 -110 110 0 3800 1291 5 MP stroke
0 110 -110 0 0 -110 110 0 3910 1291 5 MP stroke
0 110 -110 0 0 -110 110 0 4020 1291 5 MP stroke
0 110 -110 0 0 -110 110 0 4130 1291 5 MP stroke
0 110 -110 0 0 -110 110 0 4240 1291 5 MP stroke
0 110 -110 0 0 -110 110 0 4350 1291 5 MP stroke
0 110 -110 0 0 -110 110 0 4460 1291 5 MP stroke
0 110 -110 0 0 -110 110 0 4570 1291 5 MP stroke
0 110 -110 0 0 -110 110 0 4680 1291 5 MP stroke
0 110 -110 0 0 -110 110 0 4790 1291 5 MP stroke
0 110 -111 0 0 -110 111 0 4900 1291 5 MP stroke
0 110 -110 0 0 -110 110 0 5011 1291 5 MP stroke
0 110 -110 0 0 -110 110 0 5121 1291 5 MP stroke
0 110 -110 0 0 -110 110 0 5231 1291 5 MP stroke
0 110 -110 0 0 -110 110 0 1818 1181 5 MP stroke
0 110 -110 0 0 -110 110 0 1928 1181 5 MP stroke
0 110 -110 0 0 -110 110 0 2038 1181 5 MP stroke
0 110 -111 0 0 -110 111 0 2148 1181 5 MP stroke
0 110 -110 0 0 -110 110 0 2259 1181 5 MP stroke
0 110 -110 0 0 -110 110 0 2369 1181 5 MP stroke
0 110 -110 0 0 -110 110 0 2479 1181 5 MP stroke
0 110 -110 0 0 -110 110 0 2589 1181 5 MP stroke
0 110 -110 0 0 -110 110 0 2699 1181 5 MP stroke
0 110 -110 0 0 -110 110 0 2809 1181 5 MP stroke
0 110 -110 0 0 -110 110 0 2919 1181 5 MP stroke
0 110 -110 0 0 -110 110 0 3029 1181 5 MP stroke
0 110 -110 0 0 -110 110 0 3139 1181 5 MP stroke
0 110 -110 0 0 -110 110 0 3249 1181 5 MP stroke
0 110 -110 0 0 -110 110 0 3359 1181 5 MP stroke
0 110 -111 0 0 -110 111 0 3469 1181 5 MP stroke
0 110 -110 0 0 -110 110 0 3580 1181 5 MP stroke
0 110 -110 0 0 -110 110 0 3690 1181 5 MP stroke
0 110 -110 0 0 -110 110 0 3800 1181 5 MP stroke
0 110 -110 0 0 -110 110 0 3910 1181 5 MP stroke
0 110 -110 0 0 -110 110 0 4020 1181 5 MP stroke
0 110 -110 0 0 -110 110 0 4130 1181 5 MP stroke
0 110 -110 0 0 -110 110 0 4240 1181 5 MP stroke
0 110 -110 0 0 -110 110 0 4350 1181 5 MP stroke
0 110 -110 0 0 -110 110 0 4460 1181 5 MP stroke
0 110 -110 0 0 -110 110 0 4570 1181 5 MP stroke
0 110 -110 0 0 -110 110 0 4680 1181 5 MP stroke
0 110 -110 0 0 -110 110 0 4790 1181 5 MP stroke
0 110 -111 0 0 -110 111 0 4900 1181 5 MP stroke
0 110 -110 0 0 -110 110 0 5011 1181 5 MP stroke
0 110 -110 0 0 -110 110 0 5121 1181 5 MP stroke
0 110 -110 0 0 -110 110 0 5231 1181 5 MP stroke
0 110 -110 0 0 -110 110 0 1818 1071 5 MP stroke
0 110 -110 0 0 -110 110 0 1928 1071 5 MP stroke
0 110 -110 0 0 -110 110 0 2038 1071 5 MP stroke
0 110 -111 0 0 -110 111 0 2148 1071 5 MP stroke
0 110 -110 0 0 -110 110 0 2259 1071 5 MP stroke
0 110 -110 0 0 -110 110 0 2369 1071 5 MP stroke
0 110 -110 0 0 -110 110 0 2479 1071 5 MP stroke
0 110 -110 0 0 -110 110 0 2589 1071 5 MP stroke
0 110 -110 0 0 -110 110 0 2699 1071 5 MP stroke
0 110 -110 0 0 -110 110 0 2809 1071 5 MP stroke
0 110 -110 0 0 -110 110 0 2919 1071 5 MP stroke
0 110 -110 0 0 -110 110 0 3029 1071 5 MP stroke
0 110 -110 0 0 -110 110 0 3139 1071 5 MP stroke
0 110 -110 0 0 -110 110 0 3249 1071 5 MP stroke
0 110 -110 0 0 -110 110 0 3359 1071 5 MP stroke
0 110 -111 0 0 -110 111 0 3469 1071 5 MP stroke
0 110 -110 0 0 -110 110 0 3580 1071 5 MP stroke
0 110 -110 0 0 -110 110 0 3690 1071 5 MP stroke
0 110 -110 0 0 -110 110 0 3800 1071 5 MP stroke
0 110 -110 0 0 -110 110 0 3910 1071 5 MP stroke
0 110 -110 0 0 -110 110 0 4020 1071 5 MP stroke
0 110 -110 0 0 -110 110 0 4130 1071 5 MP stroke
0 110 -110 0 0 -110 110 0 4240 1071 5 MP stroke
0 110 -110 0 0 -110 110 0 4350 1071 5 MP stroke
0 110 -110 0 0 -110 110 0 4460 1071 5 MP stroke
0 110 -110 0 0 -110 110 0 4570 1071 5 MP stroke
0 110 -110 0 0 -110 110 0 4680 1071 5 MP stroke
0 110 -110 0 0 -110 110 0 4790 1071 5 MP stroke
0 110 -111 0 0 -110 111 0 4900 1071 5 MP stroke
0 110 -110 0 0 -110 110 0 5011 1071 5 MP stroke
0 110 -110 0 0 -110 110 0 5121 1071 5 MP stroke
0 110 -110 0 0 -110 110 0 5231 1071 5 MP stroke
0 110 -110 0 0 -110 110 0 1818 961 5 MP stroke
0 110 -110 0 0 -110 110 0 1928 961 5 MP stroke
0 110 -110 0 0 -110 110 0 2038 961 5 MP stroke
0 110 -111 0 0 -110 111 0 2148 961 5 MP stroke
0 110 -110 0 0 -110 110 0 2259 961 5 MP stroke
0 110 -110 0 0 -110 110 0 2369 961 5 MP stroke
0 110 -110 0 0 -110 110 0 2479 961 5 MP stroke
0 110 -110 0 0 -110 110 0 2589 961 5 MP stroke
0 110 -110 0 0 -110 110 0 2699 961 5 MP stroke
0 110 -110 0 0 -110 110 0 2809 961 5 MP stroke
0 110 -110 0 0 -110 110 0 2919 961 5 MP stroke
0 110 -110 0 0 -110 110 0 3029 961 5 MP stroke
0 110 -110 0 0 -110 110 0 3139 961 5 MP stroke
0 110 -110 0 0 -110 110 0 3249 961 5 MP stroke
0 110 -110 0 0 -110 110 0 3359 961 5 MP stroke
0 110 -111 0 0 -110 111 0 3469 961 5 MP stroke
0 110 -110 0 0 -110 110 0 3580 961 5 MP stroke
0 110 -110 0 0 -110 110 0 3690 961 5 MP stroke
0 110 -110 0 0 -110 110 0 3800 961 5 MP stroke
0 110 -110 0 0 -110 110 0 3910 961 5 MP stroke
0 110 -110 0 0 -110 110 0 4020 961 5 MP stroke
0 110 -110 0 0 -110 110 0 4130 961 5 MP stroke
0 110 -110 0 0 -110 110 0 4240 961 5 MP stroke
0 110 -110 0 0 -110 110 0 4350 961 5 MP stroke
0 110 -110 0 0 -110 110 0 4460 961 5 MP stroke
0 110 -110 0 0 -110 110 0 4570 961 5 MP stroke
0 110 -110 0 0 -110 110 0 4680 961 5 MP stroke
0 110 -110 0 0 -110 110 0 4790 961 5 MP stroke
0 110 -111 0 0 -110 111 0 4900 961 5 MP stroke
0 110 -110 0 0 -110 110 0 5011 961 5 MP stroke
0 110 -110 0 0 -110 110 0 5121 961 5 MP stroke
0 110 -110 0 0 -110 110 0 5231 961 5 MP stroke
0 110 -110 0 0 -110 110 0 1818 851 5 MP stroke
0 110 -110 0 0 -110 110 0 1928 851 5 MP stroke
0 110 -110 0 0 -110 110 0 2038 851 5 MP stroke
0 110 -111 0 0 -110 111 0 2148 851 5 MP stroke
0 110 -110 0 0 -110 110 0 2259 851 5 MP stroke
0 110 -110 0 0 -110 110 0 2369 851 5 MP stroke
0 110 -110 0 0 -110 110 0 2479 851 5 MP stroke
0 110 -110 0 0 -110 110 0 2589 851 5 MP stroke
0 110 -110 0 0 -110 110 0 2699 851 5 MP stroke
0 110 -110 0 0 -110 110 0 2809 851 5 MP stroke
0 110 -110 0 0 -110 110 0 2919 851 5 MP stroke
0 110 -110 0 0 -110 110 0 3029 851 5 MP stroke
0 110 -110 0 0 -110 110 0 3139 851 5 MP stroke
0 110 -110 0 0 -110 110 0 3249 851 5 MP stroke
0 110 -110 0 0 -110 110 0 3359 851 5 MP stroke
0 110 -111 0 0 -110 111 0 3469 851 5 MP stroke
0 110 -110 0 0 -110 110 0 3580 851 5 MP stroke
0 110 -110 0 0 -110 110 0 3690 851 5 MP stroke
0 110 -110 0 0 -110 110 0 3800 851 5 MP stroke
0 110 -110 0 0 -110 110 0 3910 851 5 MP stroke
0 110 -110 0 0 -110 110 0 4020 851 5 MP stroke
0 110 -110 0 0 -110 110 0 4130 851 5 MP stroke
0 110 -110 0 0 -110 110 0 4240 851 5 MP stroke
0 110 -110 0 0 -110 110 0 4350 851 5 MP stroke
0 110 -110 0 0 -110 110 0 4460 851 5 MP stroke
0 110 -110 0 0 -110 110 0 4570 851 5 MP stroke
0 110 -110 0 0 -110 110 0 4680 851 5 MP stroke
0 110 -110 0 0 -110 110 0 4790 851 5 MP stroke
0 110 -111 0 0 -110 111 0 4900 851 5 MP stroke
0 110 -110 0 0 -110 110 0 5011 851 5 MP stroke
0 110 -110 0 0 -110 110 0 5121 851 5 MP stroke
0 110 -110 0 0 -110 110 0 5231 851 5 MP stroke
gr


end %%Color Dict

eplot
%%EndObject

epage
end

showpage

%%Trailer
%%EOF
