%!PS-Adobe-3.0 EPSF-3.0
%%Creator: MATLAB, The MathWorks, Inc. Version 7.13.0.564 (R2011b). Operating System: Microsoft Windows 7.
%%Title: .\quadrati30x30.eps
%%CreationDate: 07/05/2012  18:26:51
%%DocumentNeededFonts: Helvetica
%%DocumentProcessColors: Cyan Magenta Yellow Black
%%LanguageLevel: 2
%%Pages: 1
%%BoundingBox:    76   215   543   583
%%EndComments

%%BeginProlog
% MathWorks dictionary
/MathWorks 160 dict begin
% definition operators
/bdef {bind def} bind def
/ldef {load def} bind def
/xdef {exch def} bdef
/xstore {exch store} bdef
% operator abbreviations
/c  /clip ldef
/cc /concat ldef
/cp /closepath ldef
/gr /grestore ldef
/gs /gsave ldef
/mt /moveto ldef
/np /newpath ldef
/cm /currentmatrix ldef
/sm /setmatrix ldef
/rm /rmoveto ldef
/rl /rlineto ldef
/s {show newpath} bdef
/sc {setcmykcolor} bdef
/sr /setrgbcolor ldef
/sg /setgray ldef
/w /setlinewidth ldef
/j /setlinejoin ldef
/cap /setlinecap ldef
/rc {rectclip} bdef
/rf {rectfill} bdef
% page state control
/pgsv () def
/bpage {/pgsv save def} bdef
/epage {pgsv restore} bdef
/bplot /gsave ldef
/eplot {stroke grestore} bdef
% orientation switch
/portraitMode 0 def /landscapeMode 1 def /rotateMode 2 def
% coordinate system mappings
/dpi2point 0 def
% font control
/FontSize 0 def
/FMS {/FontSize xstore findfont [FontSize 0 0 FontSize neg 0 0]
  makefont setfont} bdef
/ISOLatin1Encoding where {pop /WindowsLatin1Encoding 256 array bdef
ISOLatin1Encoding WindowsLatin1Encoding copy pop
/.notdef/.notdef/quotesinglbase/florin/quotedblbase/ellipsis/dagger
/daggerdbl/circumflex/perthousand/Scaron/guilsinglleft/OE/.notdef/.notdef
/.notdef/.notdef/quoteleft/quoteright/quotedblleft/quotedblright/bullet
/endash/emdash/tilde/trademark/scaron/guilsinglright/oe/.notdef/.notdef
/Ydieresis WindowsLatin1Encoding 128 32 getinterval astore pop}
{/WindowsLatin1Encoding StandardEncoding bdef} ifelse
/reencode {exch dup where {pop load} {pop StandardEncoding} ifelse
  exch dup 3 1 roll findfont dup length dict begin
  { 1 index /FID ne {def}{pop pop} ifelse } forall
  /Encoding exch def currentdict end definefont pop} bdef
/isroman {findfont /CharStrings get /Agrave known} bdef
/FMSR {3 1 roll 1 index dup isroman {reencode} {pop pop} ifelse
  exch FMS} bdef
/csm {1 dpi2point div -1 dpi2point div scale neg translate
 dup landscapeMode eq {pop -90 rotate}
  {rotateMode eq {90 rotate} if} ifelse} bdef
% line types: solid, dotted, dashed, dotdash
/SO { [] 0 setdash } bdef
/DO { [.5 dpi2point mul 4 dpi2point mul] 0 setdash } bdef
/DA { [6 dpi2point mul] 0 setdash } bdef
/DD { [.5 dpi2point mul 4 dpi2point mul 6 dpi2point mul 4
  dpi2point mul] 0 setdash } bdef
% macros for lines and objects
/L {lineto stroke} bdef
/MP {3 1 roll moveto 1 sub {rlineto} repeat} bdef
/AP {{rlineto} repeat} bdef
/PDlw -1 def
/W {/PDlw currentlinewidth def setlinewidth} def
/PP {closepath eofill} bdef
/DP {closepath stroke} bdef
/MR {4 -2 roll moveto dup  0 exch rlineto exch 0 rlineto
  neg 0 exch rlineto closepath} bdef
/FR {MR stroke} bdef
/PR {MR fill} bdef
/L1i {{currentfile picstr readhexstring pop} image} bdef
/tMatrix matrix def
/MakeOval {newpath tMatrix currentmatrix pop translate scale
0 0 1 0 360 arc tMatrix setmatrix} bdef
/FO {MakeOval stroke} bdef
/PO {MakeOval fill} bdef
/PD {currentlinewidth 2 div 0 360 arc fill
   PDlw -1 eq not {PDlw w /PDlw -1 def} if} def
/FA {newpath tMatrix currentmatrix pop translate scale
  0 0 1 5 -2 roll arc tMatrix setmatrix stroke} bdef
/PA {newpath tMatrix currentmatrix pop	translate 0 0 moveto scale
  0 0 1 5 -2 roll arc closepath tMatrix setmatrix fill} bdef
/FAn {newpath tMatrix currentmatrix pop translate scale
  0 0 1 5 -2 roll arcn tMatrix setmatrix stroke} bdef
/PAn {newpath tMatrix currentmatrix pop translate 0 0 moveto scale
  0 0 1 5 -2 roll arcn closepath tMatrix setmatrix fill} bdef
/vradius 0 def /hradius 0 def /lry 0 def
/lrx 0 def /uly 0 def /ulx 0 def /rad 0 def
/MRR {/vradius xdef /hradius xdef /lry xdef /lrx xdef /uly xdef
  /ulx xdef newpath tMatrix currentmatrix pop ulx hradius add uly
  vradius add translate hradius vradius scale 0 0 1 180 270 arc 
  tMatrix setmatrix lrx hradius sub uly vradius add translate
  hradius vradius scale 0 0 1 270 360 arc tMatrix setmatrix
  lrx hradius sub lry vradius sub translate hradius vradius scale
  0 0 1 0 90 arc tMatrix setmatrix ulx hradius add lry vradius sub
  translate hradius vradius scale 0 0 1 90 180 arc tMatrix setmatrix
  closepath} bdef
/FRR {MRR stroke } bdef
/PRR {MRR fill } bdef
/MlrRR {/lry xdef /lrx xdef /uly xdef /ulx xdef /rad lry uly sub 2 div def
  newpath tMatrix currentmatrix pop ulx rad add uly rad add translate
  rad rad scale 0 0 1 90 270 arc tMatrix setmatrix lrx rad sub lry rad
  sub translate rad rad scale 0 0 1 270 90 arc tMatrix setmatrix
  closepath} bdef
/FlrRR {MlrRR stroke } bdef
/PlrRR {MlrRR fill } bdef
/MtbRR {/lry xdef /lrx xdef /uly xdef /ulx xdef /rad lrx ulx sub 2 div def
  newpath tMatrix currentmatrix pop ulx rad add uly rad add translate
  rad rad scale 0 0 1 180 360 arc tMatrix setmatrix lrx rad sub lry rad
  sub translate rad rad scale 0 0 1 0 180 arc tMatrix setmatrix
  closepath} bdef
/FtbRR {MtbRR stroke } bdef
/PtbRR {MtbRR fill } bdef
/stri 6 array def /dtri 6 array def
/smat 6 array def /dmat 6 array def
/tmat1 6 array def /tmat2 6 array def /dif 3 array def
/asub {/ind2 exch def /ind1 exch def dup dup
  ind1 get exch ind2 get sub exch } bdef
/tri_to_matrix {
  2 0 asub 3 1 asub 4 0 asub 5 1 asub
  dup 0 get exch 1 get 7 -1 roll astore } bdef
/compute_transform {
  dmat dtri tri_to_matrix tmat1 invertmatrix 
  smat stri tri_to_matrix tmat2 concatmatrix } bdef
/ds {stri astore pop} bdef
/dt {dtri astore pop} bdef
/db {2 copy /cols xdef /rows xdef mul dup 3 mul string
  currentfile 
  3 index 0 eq {/ASCIIHexDecode filter}
  {/ASCII85Decode filter 3 index 2 eq {/RunLengthDecode filter} if }
  ifelse exch readstring pop
  dup 0 3 index getinterval /rbmap xdef
  dup 2 index dup getinterval /gbmap xdef
  1 index dup 2 mul exch getinterval /bbmap xdef pop pop}bdef
/it {gs np dtri aload pop moveto lineto lineto cp c
  cols rows 8 compute_transform 
  rbmap gbmap bbmap true 3 colorimage gr}bdef
/il {newpath moveto lineto stroke}bdef
currentdict end def
%%EndProlog

%%BeginSetup
MathWorks begin

0 cap

end
%%EndSetup

%%Page: 1 1
%%BeginPageSetup
%%PageBoundingBox:    76   215   543   583
MathWorks begin
bpage
%%EndPageSetup

%%BeginObject: obj1
bplot

/dpi2point 12 def
portraitMode 0216 7344 csm

  699   341  5610  4421 rc
85 dict begin %Colortable dictionary
/c0 { 0.000000 0.000000 0.000000 sr} bdef
/c1 { 1.000000 1.000000 1.000000 sr} bdef
/c2 { 0.900000 0.000000 0.000000 sr} bdef
/c3 { 0.000000 0.820000 0.000000 sr} bdef
/c4 { 0.000000 0.000000 0.800000 sr} bdef
/c5 { 0.910000 0.820000 0.320000 sr} bdef
/c6 { 1.000000 0.260000 0.820000 sr} bdef
/c7 { 0.000000 0.820000 0.820000 sr} bdef
c0
1 j
1 sg
   0    0 6919 5187 rf
6 w
0 4227 5359 0 0 -4227 900 4616 4 MP
PP
-5359 0 0 4227 5359 0 0 -4227 900 4616 5 MP stroke
4 w
DO
SO
6 w
0 sg
 900 4616 mt 6259 4616 L
 900 4616 mt  900  389 L
1114 4616 mt 1114 4562 L
%%IncludeResource: font Helvetica
/Helvetica /WindowsLatin1Encoding 120 FMSR

 961 4761 mt 
(-0.2) s
1818 4616 mt 1818 4562 L
1785 4761 mt 
(0) s
2523 4616 mt 2523 4562 L
2440 4761 mt 
(0.2) s
3227 4616 mt 3227 4562 L
3144 4761 mt 
(0.4) s
3932 4616 mt 3932 4562 L
3849 4761 mt 
(0.6) s
4636 4616 mt 4636 4562 L
4553 4761 mt 
(0.8) s
5341 4616 mt 5341 4562 L
5308 4761 mt 
(1) s
6045 4616 mt 6045 4562 L
5962 4761 mt 
(1.2) s
 900 4263 mt  953 4263 L
 799 4307 mt 
(0) s
 900 3559 mt  953 3559 L
 699 3603 mt 
(0.2) s
 900 2854 mt  953 2854 L
 699 2898 mt 
(0.4) s
 900 2150 mt  953 2150 L
 699 2194 mt 
(0.6) s
 900 1445 mt  953 1445 L
 699 1489 mt 
(0.8) s
 900  741 mt  953  741 L
 799  785 mt 
(1) s
gs 900 389 5360 4228 rc
0 117 -118 0 0 -117 118 0 1818 4263 5 MP stroke
0 117 -117 0 0 -117 117 0 1936 4263 5 MP stroke
0 117 -118 0 0 -117 118 0 2053 4263 5 MP stroke
0 117 -117 0 0 -117 117 0 2171 4263 5 MP stroke
0 117 -117 0 0 -117 117 0 2288 4263 5 MP stroke
0 117 -118 0 0 -117 118 0 2405 4263 5 MP stroke
0 117 -117 0 0 -117 117 0 2523 4263 5 MP stroke
0 117 -118 0 0 -117 118 0 2640 4263 5 MP stroke
0 117 -117 0 0 -117 117 0 2758 4263 5 MP stroke
0 117 -117 0 0 -117 117 0 2875 4263 5 MP stroke
0 117 -118 0 0 -117 118 0 2992 4263 5 MP stroke
0 117 -117 0 0 -117 117 0 3110 4263 5 MP stroke
0 117 -118 0 0 -117 118 0 3227 4263 5 MP stroke
0 117 -117 0 0 -117 117 0 3345 4263 5 MP stroke
0 117 -118 0 0 -117 118 0 3462 4263 5 MP stroke
0 117 -117 0 0 -117 117 0 3580 4263 5 MP stroke
0 117 -117 0 0 -117 117 0 3697 4263 5 MP stroke
0 117 -118 0 0 -117 118 0 3814 4263 5 MP stroke
0 117 -117 0 0 -117 117 0 3932 4263 5 MP stroke
0 117 -118 0 0 -117 118 0 4049 4263 5 MP stroke
0 117 -117 0 0 -117 117 0 4167 4263 5 MP stroke
0 117 -117 0 0 -117 117 0 4284 4263 5 MP stroke
0 117 -118 0 0 -117 118 0 4401 4263 5 MP stroke
0 117 -117 0 0 -117 117 0 4519 4263 5 MP stroke
0 117 -118 0 0 -117 118 0 4636 4263 5 MP stroke
0 117 -117 0 0 -117 117 0 4754 4263 5 MP stroke
0 117 -118 0 0 -117 118 0 4871 4263 5 MP stroke
0 117 -117 0 0 -117 117 0 4989 4263 5 MP stroke
0 117 -117 0 0 -117 117 0 5106 4263 5 MP stroke
0 117 -118 0 0 -117 118 0 5223 4263 5 MP stroke
0 118 -118 0 0 -118 118 0 1818 4146 5 MP stroke
0 118 -117 0 0 -118 117 0 1936 4146 5 MP stroke
0 118 -118 0 0 -118 118 0 2053 4146 5 MP stroke
0 118 -117 0 0 -118 117 0 2171 4146 5 MP stroke
0 118 -117 0 0 -118 117 0 2288 4146 5 MP stroke
0 118 -118 0 0 -118 118 0 2405 4146 5 MP stroke
0 118 -117 0 0 -118 117 0 2523 4146 5 MP stroke
0 118 -118 0 0 -118 118 0 2640 4146 5 MP stroke
0 118 -117 0 0 -118 117 0 2758 4146 5 MP stroke
0 118 -117 0 0 -118 117 0 2875 4146 5 MP stroke
0 118 -118 0 0 -118 118 0 2992 4146 5 MP stroke
0 118 -117 0 0 -118 117 0 3110 4146 5 MP stroke
0 118 -118 0 0 -118 118 0 3227 4146 5 MP stroke
0 118 -117 0 0 -118 117 0 3345 4146 5 MP stroke
0 118 -118 0 0 -118 118 0 3462 4146 5 MP stroke
0 118 -117 0 0 -118 117 0 3580 4146 5 MP stroke
0 118 -117 0 0 -118 117 0 3697 4146 5 MP stroke
0 118 -118 0 0 -118 118 0 3814 4146 5 MP stroke
0 118 -117 0 0 -118 117 0 3932 4146 5 MP stroke
0 118 -118 0 0 -118 118 0 4049 4146 5 MP stroke
0 118 -117 0 0 -118 117 0 4167 4146 5 MP stroke
0 118 -117 0 0 -118 117 0 4284 4146 5 MP stroke
0 118 -118 0 0 -118 118 0 4401 4146 5 MP stroke
0 118 -117 0 0 -118 117 0 4519 4146 5 MP stroke
0 118 -118 0 0 -118 118 0 4636 4146 5 MP stroke
0 118 -117 0 0 -118 117 0 4754 4146 5 MP stroke
0 118 -118 0 0 -118 118 0 4871 4146 5 MP stroke
0 118 -117 0 0 -118 117 0 4989 4146 5 MP stroke
0 118 -117 0 0 -118 117 0 5106 4146 5 MP stroke
0 118 -118 0 0 -118 118 0 5223 4146 5 MP stroke
0 117 -118 0 0 -117 118 0 1818 4028 5 MP stroke
0 117 -117 0 0 -117 117 0 1936 4028 5 MP stroke
0 117 -118 0 0 -117 118 0 2053 4028 5 MP stroke
0 117 -117 0 0 -117 117 0 2171 4028 5 MP stroke
0 117 -117 0 0 -117 117 0 2288 4028 5 MP stroke
0 117 -118 0 0 -117 118 0 2405 4028 5 MP stroke
0 117 -117 0 0 -117 117 0 2523 4028 5 MP stroke
0 117 -118 0 0 -117 118 0 2640 4028 5 MP stroke
0 117 -117 0 0 -117 117 0 2758 4028 5 MP stroke
0 117 -117 0 0 -117 117 0 2875 4028 5 MP stroke
0 117 -118 0 0 -117 118 0 2992 4028 5 MP stroke
0 117 -117 0 0 -117 117 0 3110 4028 5 MP stroke
0 117 -118 0 0 -117 118 0 3227 4028 5 MP stroke
0 117 -117 0 0 -117 117 0 3345 4028 5 MP stroke
0 117 -118 0 0 -117 118 0 3462 4028 5 MP stroke
0 117 -117 0 0 -117 117 0 3580 4028 5 MP stroke
0 117 -117 0 0 -117 117 0 3697 4028 5 MP stroke
0 117 -118 0 0 -117 118 0 3814 4028 5 MP stroke
0 117 -117 0 0 -117 117 0 3932 4028 5 MP stroke
0 117 -118 0 0 -117 118 0 4049 4028 5 MP stroke
0 117 -117 0 0 -117 117 0 4167 4028 5 MP stroke
0 117 -117 0 0 -117 117 0 4284 4028 5 MP stroke
0 117 -118 0 0 -117 118 0 4401 4028 5 MP stroke
0 117 -117 0 0 -117 117 0 4519 4028 5 MP stroke
0 117 -118 0 0 -117 118 0 4636 4028 5 MP stroke
0 117 -117 0 0 -117 117 0 4754 4028 5 MP stroke
0 117 -118 0 0 -117 118 0 4871 4028 5 MP stroke
0 117 -117 0 0 -117 117 0 4989 4028 5 MP stroke
0 117 -117 0 0 -117 117 0 5106 4028 5 MP stroke
0 117 -118 0 0 -117 118 0 5223 4028 5 MP stroke
0 117 -118 0 0 -117 118 0 1818 3911 5 MP stroke
0 117 -117 0 0 -117 117 0 1936 3911 5 MP stroke
0 117 -118 0 0 -117 118 0 2053 3911 5 MP stroke
0 117 -117 0 0 -117 117 0 2171 3911 5 MP stroke
0 117 -117 0 0 -117 117 0 2288 3911 5 MP stroke
0 117 -118 0 0 -117 118 0 2405 3911 5 MP stroke
0 117 -117 0 0 -117 117 0 2523 3911 5 MP stroke
0 117 -118 0 0 -117 118 0 2640 3911 5 MP stroke
0 117 -117 0 0 -117 117 0 2758 3911 5 MP stroke
0 117 -117 0 0 -117 117 0 2875 3911 5 MP stroke
0 117 -118 0 0 -117 118 0 2992 3911 5 MP stroke
0 117 -117 0 0 -117 117 0 3110 3911 5 MP stroke
0 117 -118 0 0 -117 118 0 3227 3911 5 MP stroke
0 117 -117 0 0 -117 117 0 3345 3911 5 MP stroke
0 117 -118 0 0 -117 118 0 3462 3911 5 MP stroke
0 117 -117 0 0 -117 117 0 3580 3911 5 MP stroke
0 117 -117 0 0 -117 117 0 3697 3911 5 MP stroke
0 117 -118 0 0 -117 118 0 3814 3911 5 MP stroke
0 117 -117 0 0 -117 117 0 3932 3911 5 MP stroke
0 117 -118 0 0 -117 118 0 4049 3911 5 MP stroke
0 117 -117 0 0 -117 117 0 4167 3911 5 MP stroke
0 117 -117 0 0 -117 117 0 4284 3911 5 MP stroke
0 117 -118 0 0 -117 118 0 4401 3911 5 MP stroke
0 117 -117 0 0 -117 117 0 4519 3911 5 MP stroke
0 117 -118 0 0 -117 118 0 4636 3911 5 MP stroke
0 117 -117 0 0 -117 117 0 4754 3911 5 MP stroke
0 117 -118 0 0 -117 118 0 4871 3911 5 MP stroke
0 117 -117 0 0 -117 117 0 4989 3911 5 MP stroke
0 117 -117 0 0 -117 117 0 5106 3911 5 MP stroke
0 117 -118 0 0 -117 118 0 5223 3911 5 MP stroke
0 118 -118 0 0 -118 118 0 1818 3794 5 MP stroke
0 118 -117 0 0 -118 117 0 1936 3794 5 MP stroke
0 118 -118 0 0 -118 118 0 2053 3794 5 MP stroke
0 118 -117 0 0 -118 117 0 2171 3794 5 MP stroke
0 118 -117 0 0 -118 117 0 2288 3794 5 MP stroke
0 118 -118 0 0 -118 118 0 2405 3794 5 MP stroke
0 118 -117 0 0 -118 117 0 2523 3794 5 MP stroke
0 118 -118 0 0 -118 118 0 2640 3794 5 MP stroke
0 118 -117 0 0 -118 117 0 2758 3794 5 MP stroke
0 118 -117 0 0 -118 117 0 2875 3794 5 MP stroke
0 118 -118 0 0 -118 118 0 2992 3794 5 MP stroke
0 118 -117 0 0 -118 117 0 3110 3794 5 MP stroke
0 118 -118 0 0 -118 118 0 3227 3794 5 MP stroke
0 118 -117 0 0 -118 117 0 3345 3794 5 MP stroke
0 118 -118 0 0 -118 118 0 3462 3794 5 MP stroke
0 118 -117 0 0 -118 117 0 3580 3794 5 MP stroke
0 118 -117 0 0 -118 117 0 3697 3794 5 MP stroke
0 118 -118 0 0 -118 118 0 3814 3794 5 MP stroke
0 118 -117 0 0 -118 117 0 3932 3794 5 MP stroke
0 118 -118 0 0 -118 118 0 4049 3794 5 MP stroke
0 118 -117 0 0 -118 117 0 4167 3794 5 MP stroke
0 118 -117 0 0 -118 117 0 4284 3794 5 MP stroke
0 118 -118 0 0 -118 118 0 4401 3794 5 MP stroke
0 118 -117 0 0 -118 117 0 4519 3794 5 MP stroke
0 118 -118 0 0 -118 118 0 4636 3794 5 MP stroke
0 118 -117 0 0 -118 117 0 4754 3794 5 MP stroke
0 118 -118 0 0 -118 118 0 4871 3794 5 MP stroke
0 118 -117 0 0 -118 117 0 4989 3794 5 MP stroke
0 118 -117 0 0 -118 117 0 5106 3794 5 MP stroke
0 118 -118 0 0 -118 118 0 5223 3794 5 MP stroke
0 117 -118 0 0 -117 118 0 1818 3676 5 MP stroke
0 117 -117 0 0 -117 117 0 1936 3676 5 MP stroke
0 117 -118 0 0 -117 118 0 2053 3676 5 MP stroke
0 117 -117 0 0 -117 117 0 2171 3676 5 MP stroke
0 117 -117 0 0 -117 117 0 2288 3676 5 MP stroke
0 117 -118 0 0 -117 118 0 2405 3676 5 MP stroke
0 117 -117 0 0 -117 117 0 2523 3676 5 MP stroke
0 117 -118 0 0 -117 118 0 2640 3676 5 MP stroke
0 117 -117 0 0 -117 117 0 2758 3676 5 MP stroke
0 117 -117 0 0 -117 117 0 2875 3676 5 MP stroke
0 117 -118 0 0 -117 118 0 2992 3676 5 MP stroke
0 117 -117 0 0 -117 117 0 3110 3676 5 MP stroke
0 117 -118 0 0 -117 118 0 3227 3676 5 MP stroke
0 117 -117 0 0 -117 117 0 3345 3676 5 MP stroke
0 117 -118 0 0 -117 118 0 3462 3676 5 MP stroke
0 117 -117 0 0 -117 117 0 3580 3676 5 MP stroke
0 117 -117 0 0 -117 117 0 3697 3676 5 MP stroke
0 117 -118 0 0 -117 118 0 3814 3676 5 MP stroke
0 117 -117 0 0 -117 117 0 3932 3676 5 MP stroke
0 117 -118 0 0 -117 118 0 4049 3676 5 MP stroke
0 117 -117 0 0 -117 117 0 4167 3676 5 MP stroke
0 117 -117 0 0 -117 117 0 4284 3676 5 MP stroke
0 117 -118 0 0 -117 118 0 4401 3676 5 MP stroke
0 117 -117 0 0 -117 117 0 4519 3676 5 MP stroke
0 117 -118 0 0 -117 118 0 4636 3676 5 MP stroke
0 117 -117 0 0 -117 117 0 4754 3676 5 MP stroke
0 117 -118 0 0 -117 118 0 4871 3676 5 MP stroke
0 117 -117 0 0 -117 117 0 4989 3676 5 MP stroke
0 117 -117 0 0 -117 117 0 5106 3676 5 MP stroke
0 117 -118 0 0 -117 118 0 5223 3676 5 MP stroke
0 118 -118 0 0 -118 118 0 1818 3559 5 MP stroke
0 118 -117 0 0 -118 117 0 1936 3559 5 MP stroke
0 118 -118 0 0 -118 118 0 2053 3559 5 MP stroke
0 118 -117 0 0 -118 117 0 2171 3559 5 MP stroke
0 118 -117 0 0 -118 117 0 2288 3559 5 MP stroke
0 118 -118 0 0 -118 118 0 2405 3559 5 MP stroke
0 118 -117 0 0 -118 117 0 2523 3559 5 MP stroke
0 118 -118 0 0 -118 118 0 2640 3559 5 MP stroke
0 118 -117 0 0 -118 117 0 2758 3559 5 MP stroke
0 118 -117 0 0 -118 117 0 2875 3559 5 MP stroke
0 118 -118 0 0 -118 118 0 2992 3559 5 MP stroke
0 118 -117 0 0 -118 117 0 3110 3559 5 MP stroke
0 118 -118 0 0 -118 118 0 3227 3559 5 MP stroke
0 118 -117 0 0 -118 117 0 3345 3559 5 MP stroke
0 118 -118 0 0 -118 118 0 3462 3559 5 MP stroke
0 118 -117 0 0 -118 117 0 3580 3559 5 MP stroke
0 118 -117 0 0 -118 117 0 3697 3559 5 MP stroke
0 118 -118 0 0 -118 118 0 3814 3559 5 MP stroke
0 118 -117 0 0 -118 117 0 3932 3559 5 MP stroke
0 118 -118 0 0 -118 118 0 4049 3559 5 MP stroke
0 118 -117 0 0 -118 117 0 4167 3559 5 MP stroke
0 118 -117 0 0 -118 117 0 4284 3559 5 MP stroke
0 118 -118 0 0 -118 118 0 4401 3559 5 MP stroke
0 118 -117 0 0 -118 117 0 4519 3559 5 MP stroke
0 118 -118 0 0 -118 118 0 4636 3559 5 MP stroke
0 118 -117 0 0 -118 117 0 4754 3559 5 MP stroke
0 118 -118 0 0 -118 118 0 4871 3559 5 MP stroke
0 118 -117 0 0 -118 117 0 4989 3559 5 MP stroke
0 118 -117 0 0 -118 117 0 5106 3559 5 MP stroke
0 118 -118 0 0 -118 118 0 5223 3559 5 MP stroke
0 117 -118 0 0 -117 118 0 1818 3441 5 MP stroke
0 117 -117 0 0 -117 117 0 1936 3441 5 MP stroke
0 117 -118 0 0 -117 118 0 2053 3441 5 MP stroke
0 117 -117 0 0 -117 117 0 2171 3441 5 MP stroke
0 117 -117 0 0 -117 117 0 2288 3441 5 MP stroke
0 117 -118 0 0 -117 118 0 2405 3441 5 MP stroke
0 117 -117 0 0 -117 117 0 2523 3441 5 MP stroke
0 117 -118 0 0 -117 118 0 2640 3441 5 MP stroke
0 117 -117 0 0 -117 117 0 2758 3441 5 MP stroke
0 117 -117 0 0 -117 117 0 2875 3441 5 MP stroke
0 117 -118 0 0 -117 118 0 2992 3441 5 MP stroke
0 117 -117 0 0 -117 117 0 3110 3441 5 MP stroke
0 117 -118 0 0 -117 118 0 3227 3441 5 MP stroke
0 117 -117 0 0 -117 117 0 3345 3441 5 MP stroke
0 117 -118 0 0 -117 118 0 3462 3441 5 MP stroke
0 117 -117 0 0 -117 117 0 3580 3441 5 MP stroke
0 117 -117 0 0 -117 117 0 3697 3441 5 MP stroke
0 117 -118 0 0 -117 118 0 3814 3441 5 MP stroke
0 117 -117 0 0 -117 117 0 3932 3441 5 MP stroke
0 117 -118 0 0 -117 118 0 4049 3441 5 MP stroke
0 117 -117 0 0 -117 117 0 4167 3441 5 MP stroke
0 117 -117 0 0 -117 117 0 4284 3441 5 MP stroke
0 117 -118 0 0 -117 118 0 4401 3441 5 MP stroke
0 117 -117 0 0 -117 117 0 4519 3441 5 MP stroke
0 117 -118 0 0 -117 118 0 4636 3441 5 MP stroke
0 117 -117 0 0 -117 117 0 4754 3441 5 MP stroke
0 117 -118 0 0 -117 118 0 4871 3441 5 MP stroke
0 117 -117 0 0 -117 117 0 4989 3441 5 MP stroke
0 117 -117 0 0 -117 117 0 5106 3441 5 MP stroke
0 117 -118 0 0 -117 118 0 5223 3441 5 MP stroke
0 117 -118 0 0 -117 118 0 1818 3324 5 MP stroke
0 117 -117 0 0 -117 117 0 1936 3324 5 MP stroke
0 117 -118 0 0 -117 118 0 2053 3324 5 MP stroke
0 117 -117 0 0 -117 117 0 2171 3324 5 MP stroke
0 117 -117 0 0 -117 117 0 2288 3324 5 MP stroke
0 117 -118 0 0 -117 118 0 2405 3324 5 MP stroke
0 117 -117 0 0 -117 117 0 2523 3324 5 MP stroke
0 117 -118 0 0 -117 118 0 2640 3324 5 MP stroke
0 117 -117 0 0 -117 117 0 2758 3324 5 MP stroke
0 117 -117 0 0 -117 117 0 2875 3324 5 MP stroke
0 117 -118 0 0 -117 118 0 2992 3324 5 MP stroke
0 117 -117 0 0 -117 117 0 3110 3324 5 MP stroke
0 117 -118 0 0 -117 118 0 3227 3324 5 MP stroke
0 117 -117 0 0 -117 117 0 3345 3324 5 MP stroke
0 117 -118 0 0 -117 118 0 3462 3324 5 MP stroke
0 117 -117 0 0 -117 117 0 3580 3324 5 MP stroke
0 117 -117 0 0 -117 117 0 3697 3324 5 MP stroke
0 117 -118 0 0 -117 118 0 3814 3324 5 MP stroke
0 117 -117 0 0 -117 117 0 3932 3324 5 MP stroke
0 117 -118 0 0 -117 118 0 4049 3324 5 MP stroke
0 117 -117 0 0 -117 117 0 4167 3324 5 MP stroke
0 117 -117 0 0 -117 117 0 4284 3324 5 MP stroke
0 117 -118 0 0 -117 118 0 4401 3324 5 MP stroke
0 117 -117 0 0 -117 117 0 4519 3324 5 MP stroke
0 117 -118 0 0 -117 118 0 4636 3324 5 MP stroke
0 117 -117 0 0 -117 117 0 4754 3324 5 MP stroke
0 117 -118 0 0 -117 118 0 4871 3324 5 MP stroke
0 117 -117 0 0 -117 117 0 4989 3324 5 MP stroke
0 117 -117 0 0 -117 117 0 5106 3324 5 MP stroke
0 117 -118 0 0 -117 118 0 5223 3324 5 MP stroke
0 118 -118 0 0 -118 118 0 1818 3207 5 MP stroke
0 118 -117 0 0 -118 117 0 1936 3207 5 MP stroke
0 118 -118 0 0 -118 118 0 2053 3207 5 MP stroke
0 118 -117 0 0 -118 117 0 2171 3207 5 MP stroke
0 118 -117 0 0 -118 117 0 2288 3207 5 MP stroke
0 118 -118 0 0 -118 118 0 2405 3207 5 MP stroke
0 118 -117 0 0 -118 117 0 2523 3207 5 MP stroke
0 118 -118 0 0 -118 118 0 2640 3207 5 MP stroke
0 118 -117 0 0 -118 117 0 2758 3207 5 MP stroke
0 118 -117 0 0 -118 117 0 2875 3207 5 MP stroke
0 118 -118 0 0 -118 118 0 2992 3207 5 MP stroke
0 118 -117 0 0 -118 117 0 3110 3207 5 MP stroke
0 118 -118 0 0 -118 118 0 3227 3207 5 MP stroke
0 118 -117 0 0 -118 117 0 3345 3207 5 MP stroke
0 118 -118 0 0 -118 118 0 3462 3207 5 MP stroke
0 118 -117 0 0 -118 117 0 3580 3207 5 MP stroke
0 118 -117 0 0 -118 117 0 3697 3207 5 MP stroke
0 118 -118 0 0 -118 118 0 3814 3207 5 MP stroke
0 118 -117 0 0 -118 117 0 3932 3207 5 MP stroke
0 118 -118 0 0 -118 118 0 4049 3207 5 MP stroke
0 118 -117 0 0 -118 117 0 4167 3207 5 MP stroke
0 118 -117 0 0 -118 117 0 4284 3207 5 MP stroke
0 118 -118 0 0 -118 118 0 4401 3207 5 MP stroke
0 118 -117 0 0 -118 117 0 4519 3207 5 MP stroke
0 118 -118 0 0 -118 118 0 4636 3207 5 MP stroke
0 118 -117 0 0 -118 117 0 4754 3207 5 MP stroke
0 118 -118 0 0 -118 118 0 4871 3207 5 MP stroke
0 118 -117 0 0 -118 117 0 4989 3207 5 MP stroke
0 118 -117 0 0 -118 117 0 5106 3207 5 MP stroke
0 118 -118 0 0 -118 118 0 5223 3207 5 MP stroke
0 117 -118 0 0 -117 118 0 1818 3089 5 MP stroke
0 117 -117 0 0 -117 117 0 1936 3089 5 MP stroke
0 117 -118 0 0 -117 118 0 2053 3089 5 MP stroke
0 117 -117 0 0 -117 117 0 2171 3089 5 MP stroke
0 117 -117 0 0 -117 117 0 2288 3089 5 MP stroke
0 117 -118 0 0 -117 118 0 2405 3089 5 MP stroke
0 117 -117 0 0 -117 117 0 2523 3089 5 MP stroke
0 117 -118 0 0 -117 118 0 2640 3089 5 MP stroke
0 117 -117 0 0 -117 117 0 2758 3089 5 MP stroke
0 117 -117 0 0 -117 117 0 2875 3089 5 MP stroke
0 117 -118 0 0 -117 118 0 2992 3089 5 MP stroke
0 117 -117 0 0 -117 117 0 3110 3089 5 MP stroke
0 117 -118 0 0 -117 118 0 3227 3089 5 MP stroke
0 117 -117 0 0 -117 117 0 3345 3089 5 MP stroke
0 117 -118 0 0 -117 118 0 3462 3089 5 MP stroke
0 117 -117 0 0 -117 117 0 3580 3089 5 MP stroke
0 117 -117 0 0 -117 117 0 3697 3089 5 MP stroke
0 117 -118 0 0 -117 118 0 3814 3089 5 MP stroke
0 117 -117 0 0 -117 117 0 3932 3089 5 MP stroke
0 117 -118 0 0 -117 118 0 4049 3089 5 MP stroke
0 117 -117 0 0 -117 117 0 4167 3089 5 MP stroke
0 117 -117 0 0 -117 117 0 4284 3089 5 MP stroke
0 117 -118 0 0 -117 118 0 4401 3089 5 MP stroke
0 117 -117 0 0 -117 117 0 4519 3089 5 MP stroke
0 117 -118 0 0 -117 118 0 4636 3089 5 MP stroke
0 117 -117 0 0 -117 117 0 4754 3089 5 MP stroke
0 117 -118 0 0 -117 118 0 4871 3089 5 MP stroke
0 117 -117 0 0 -117 117 0 4989 3089 5 MP stroke
0 117 -117 0 0 -117 117 0 5106 3089 5 MP stroke
0 117 -118 0 0 -117 118 0 5223 3089 5 MP stroke
0 118 -118 0 0 -118 118 0 1818 2972 5 MP stroke
0 118 -117 0 0 -118 117 0 1936 2972 5 MP stroke
0 118 -118 0 0 -118 118 0 2053 2972 5 MP stroke
0 118 -117 0 0 -118 117 0 2171 2972 5 MP stroke
0 118 -117 0 0 -118 117 0 2288 2972 5 MP stroke
0 118 -118 0 0 -118 118 0 2405 2972 5 MP stroke
0 118 -117 0 0 -118 117 0 2523 2972 5 MP stroke
0 118 -118 0 0 -118 118 0 2640 2972 5 MP stroke
0 118 -117 0 0 -118 117 0 2758 2972 5 MP stroke
0 118 -117 0 0 -118 117 0 2875 2972 5 MP stroke
0 118 -118 0 0 -118 118 0 2992 2972 5 MP stroke
0 118 -117 0 0 -118 117 0 3110 2972 5 MP stroke
0 118 -118 0 0 -118 118 0 3227 2972 5 MP stroke
0 118 -117 0 0 -118 117 0 3345 2972 5 MP stroke
0 118 -118 0 0 -118 118 0 3462 2972 5 MP stroke
0 118 -117 0 0 -118 117 0 3580 2972 5 MP stroke
0 118 -117 0 0 -118 117 0 3697 2972 5 MP stroke
0 118 -118 0 0 -118 118 0 3814 2972 5 MP stroke
0 118 -117 0 0 -118 117 0 3932 2972 5 MP stroke
0 118 -118 0 0 -118 118 0 4049 2972 5 MP stroke
0 118 -117 0 0 -118 117 0 4167 2972 5 MP stroke
0 118 -117 0 0 -118 117 0 4284 2972 5 MP stroke
0 118 -118 0 0 -118 118 0 4401 2972 5 MP stroke
0 118 -117 0 0 -118 117 0 4519 2972 5 MP stroke
0 118 -118 0 0 -118 118 0 4636 2972 5 MP stroke
0 118 -117 0 0 -118 117 0 4754 2972 5 MP stroke
0 118 -118 0 0 -118 118 0 4871 2972 5 MP stroke
0 118 -117 0 0 -118 117 0 4989 2972 5 MP stroke
0 118 -117 0 0 -118 117 0 5106 2972 5 MP stroke
0 118 -118 0 0 -118 118 0 5223 2972 5 MP stroke
0 117 -118 0 0 -117 118 0 1818 2854 5 MP stroke
0 117 -117 0 0 -117 117 0 1936 2854 5 MP stroke
0 117 -118 0 0 -117 118 0 2053 2854 5 MP stroke
0 117 -117 0 0 -117 117 0 2171 2854 5 MP stroke
0 117 -117 0 0 -117 117 0 2288 2854 5 MP stroke
0 117 -118 0 0 -117 118 0 2405 2854 5 MP stroke
0 117 -117 0 0 -117 117 0 2523 2854 5 MP stroke
0 117 -118 0 0 -117 118 0 2640 2854 5 MP stroke
0 117 -117 0 0 -117 117 0 2758 2854 5 MP stroke
0 117 -117 0 0 -117 117 0 2875 2854 5 MP stroke
0 117 -118 0 0 -117 118 0 2992 2854 5 MP stroke
0 117 -117 0 0 -117 117 0 3110 2854 5 MP stroke
0 117 -118 0 0 -117 118 0 3227 2854 5 MP stroke
0 117 -117 0 0 -117 117 0 3345 2854 5 MP stroke
0 117 -118 0 0 -117 118 0 3462 2854 5 MP stroke
0 117 -117 0 0 -117 117 0 3580 2854 5 MP stroke
0 117 -117 0 0 -117 117 0 3697 2854 5 MP stroke
0 117 -118 0 0 -117 118 0 3814 2854 5 MP stroke
0 117 -117 0 0 -117 117 0 3932 2854 5 MP stroke
0 117 -118 0 0 -117 118 0 4049 2854 5 MP stroke
0 117 -117 0 0 -117 117 0 4167 2854 5 MP stroke
0 117 -117 0 0 -117 117 0 4284 2854 5 MP stroke
0 117 -118 0 0 -117 118 0 4401 2854 5 MP stroke
0 117 -117 0 0 -117 117 0 4519 2854 5 MP stroke
0 117 -118 0 0 -117 118 0 4636 2854 5 MP stroke
0 117 -117 0 0 -117 117 0 4754 2854 5 MP stroke
0 117 -118 0 0 -117 118 0 4871 2854 5 MP stroke
0 117 -117 0 0 -117 117 0 4989 2854 5 MP stroke
0 117 -117 0 0 -117 117 0 5106 2854 5 MP stroke
0 117 -118 0 0 -117 118 0 5223 2854 5 MP stroke
0 118 -118 0 0 -118 118 0 1818 2737 5 MP stroke
0 118 -117 0 0 -118 117 0 1936 2737 5 MP stroke
0 118 -118 0 0 -118 118 0 2053 2737 5 MP stroke
0 118 -117 0 0 -118 117 0 2171 2737 5 MP stroke
0 118 -117 0 0 -118 117 0 2288 2737 5 MP stroke
0 118 -118 0 0 -118 118 0 2405 2737 5 MP stroke
0 118 -117 0 0 -118 117 0 2523 2737 5 MP stroke
0 118 -118 0 0 -118 118 0 2640 2737 5 MP stroke
0 118 -117 0 0 -118 117 0 2758 2737 5 MP stroke
0 118 -117 0 0 -118 117 0 2875 2737 5 MP stroke
0 118 -118 0 0 -118 118 0 2992 2737 5 MP stroke
0 118 -117 0 0 -118 117 0 3110 2737 5 MP stroke
0 118 -118 0 0 -118 118 0 3227 2737 5 MP stroke
0 118 -117 0 0 -118 117 0 3345 2737 5 MP stroke
0 118 -118 0 0 -118 118 0 3462 2737 5 MP stroke
0 118 -117 0 0 -118 117 0 3580 2737 5 MP stroke
0 118 -117 0 0 -118 117 0 3697 2737 5 MP stroke
0 118 -118 0 0 -118 118 0 3814 2737 5 MP stroke
0 118 -117 0 0 -118 117 0 3932 2737 5 MP stroke
0 118 -118 0 0 -118 118 0 4049 2737 5 MP stroke
0 118 -117 0 0 -118 117 0 4167 2737 5 MP stroke
0 118 -117 0 0 -118 117 0 4284 2737 5 MP stroke
0 118 -118 0 0 -118 118 0 4401 2737 5 MP stroke
0 118 -117 0 0 -118 117 0 4519 2737 5 MP stroke
0 118 -118 0 0 -118 118 0 4636 2737 5 MP stroke
0 118 -117 0 0 -118 117 0 4754 2737 5 MP stroke
0 118 -118 0 0 -118 118 0 4871 2737 5 MP stroke
0 118 -117 0 0 -118 117 0 4989 2737 5 MP stroke
0 118 -117 0 0 -118 117 0 5106 2737 5 MP stroke
0 118 -118 0 0 -118 118 0 5223 2737 5 MP stroke
0 117 -118 0 0 -117 118 0 1818 2619 5 MP stroke
0 117 -117 0 0 -117 117 0 1936 2619 5 MP stroke
0 117 -118 0 0 -117 118 0 2053 2619 5 MP stroke
0 117 -117 0 0 -117 117 0 2171 2619 5 MP stroke
0 117 -117 0 0 -117 117 0 2288 2619 5 MP stroke
0 117 -118 0 0 -117 118 0 2405 2619 5 MP stroke
0 117 -117 0 0 -117 117 0 2523 2619 5 MP stroke
0 117 -118 0 0 -117 118 0 2640 2619 5 MP stroke
0 117 -117 0 0 -117 117 0 2758 2619 5 MP stroke
0 117 -117 0 0 -117 117 0 2875 2619 5 MP stroke
0 117 -118 0 0 -117 118 0 2992 2619 5 MP stroke
0 117 -117 0 0 -117 117 0 3110 2619 5 MP stroke
0 117 -118 0 0 -117 118 0 3227 2619 5 MP stroke
0 117 -117 0 0 -117 117 0 3345 2619 5 MP stroke
0 117 -118 0 0 -117 118 0 3462 2619 5 MP stroke
0 117 -117 0 0 -117 117 0 3580 2619 5 MP stroke
0 117 -117 0 0 -117 117 0 3697 2619 5 MP stroke
0 117 -118 0 0 -117 118 0 3814 2619 5 MP stroke
0 117 -117 0 0 -117 117 0 3932 2619 5 MP stroke
0 117 -118 0 0 -117 118 0 4049 2619 5 MP stroke
0 117 -117 0 0 -117 117 0 4167 2619 5 MP stroke
0 117 -117 0 0 -117 117 0 4284 2619 5 MP stroke
0 117 -118 0 0 -117 118 0 4401 2619 5 MP stroke
0 117 -117 0 0 -117 117 0 4519 2619 5 MP stroke
0 117 -118 0 0 -117 118 0 4636 2619 5 MP stroke
0 117 -117 0 0 -117 117 0 4754 2619 5 MP stroke
0 117 -118 0 0 -117 118 0 4871 2619 5 MP stroke
0 117 -117 0 0 -117 117 0 4989 2619 5 MP stroke
0 117 -117 0 0 -117 117 0 5106 2619 5 MP stroke
0 117 -118 0 0 -117 118 0 5223 2619 5 MP stroke
0 117 -118 0 0 -117 118 0 1818 2502 5 MP stroke
0 117 -117 0 0 -117 117 0 1936 2502 5 MP stroke
0 117 -118 0 0 -117 118 0 2053 2502 5 MP stroke
0 117 -117 0 0 -117 117 0 2171 2502 5 MP stroke
0 117 -117 0 0 -117 117 0 2288 2502 5 MP stroke
0 117 -118 0 0 -117 118 0 2405 2502 5 MP stroke
0 117 -117 0 0 -117 117 0 2523 2502 5 MP stroke
0 117 -118 0 0 -117 118 0 2640 2502 5 MP stroke
0 117 -117 0 0 -117 117 0 2758 2502 5 MP stroke
0 117 -117 0 0 -117 117 0 2875 2502 5 MP stroke
0 117 -118 0 0 -117 118 0 2992 2502 5 MP stroke
0 117 -117 0 0 -117 117 0 3110 2502 5 MP stroke
0 117 -118 0 0 -117 118 0 3227 2502 5 MP stroke
0 117 -117 0 0 -117 117 0 3345 2502 5 MP stroke
0 117 -118 0 0 -117 118 0 3462 2502 5 MP stroke
0 117 -117 0 0 -117 117 0 3580 2502 5 MP stroke
0 117 -117 0 0 -117 117 0 3697 2502 5 MP stroke
0 117 -118 0 0 -117 118 0 3814 2502 5 MP stroke
0 117 -117 0 0 -117 117 0 3932 2502 5 MP stroke
0 117 -118 0 0 -117 118 0 4049 2502 5 MP stroke
0 117 -117 0 0 -117 117 0 4167 2502 5 MP stroke
0 117 -117 0 0 -117 117 0 4284 2502 5 MP stroke
0 117 -118 0 0 -117 118 0 4401 2502 5 MP stroke
0 117 -117 0 0 -117 117 0 4519 2502 5 MP stroke
0 117 -118 0 0 -117 118 0 4636 2502 5 MP stroke
0 117 -117 0 0 -117 117 0 4754 2502 5 MP stroke
0 117 -118 0 0 -117 118 0 4871 2502 5 MP stroke
0 117 -117 0 0 -117 117 0 4989 2502 5 MP stroke
0 117 -117 0 0 -117 117 0 5106 2502 5 MP stroke
0 117 -118 0 0 -117 118 0 5223 2502 5 MP stroke
0 118 -118 0 0 -118 118 0 1818 2385 5 MP stroke
0 118 -117 0 0 -118 117 0 1936 2385 5 MP stroke
0 118 -118 0 0 -118 118 0 2053 2385 5 MP stroke
0 118 -117 0 0 -118 117 0 2171 2385 5 MP stroke
0 118 -117 0 0 -118 117 0 2288 2385 5 MP stroke
0 118 -118 0 0 -118 118 0 2405 2385 5 MP stroke
0 118 -117 0 0 -118 117 0 2523 2385 5 MP stroke
0 118 -118 0 0 -118 118 0 2640 2385 5 MP stroke
0 118 -117 0 0 -118 117 0 2758 2385 5 MP stroke
0 118 -117 0 0 -118 117 0 2875 2385 5 MP stroke
0 118 -118 0 0 -118 118 0 2992 2385 5 MP stroke
0 118 -117 0 0 -118 117 0 3110 2385 5 MP stroke
0 118 -118 0 0 -118 118 0 3227 2385 5 MP stroke
0 118 -117 0 0 -118 117 0 3345 2385 5 MP stroke
0 118 -118 0 0 -118 118 0 3462 2385 5 MP stroke
0 118 -117 0 0 -118 117 0 3580 2385 5 MP stroke
0 118 -117 0 0 -118 117 0 3697 2385 5 MP stroke
0 118 -118 0 0 -118 118 0 3814 2385 5 MP stroke
0 118 -117 0 0 -118 117 0 3932 2385 5 MP stroke
0 118 -118 0 0 -118 118 0 4049 2385 5 MP stroke
0 118 -117 0 0 -118 117 0 4167 2385 5 MP stroke
0 118 -117 0 0 -118 117 0 4284 2385 5 MP stroke
0 118 -118 0 0 -118 118 0 4401 2385 5 MP stroke
0 118 -117 0 0 -118 117 0 4519 2385 5 MP stroke
0 118 -118 0 0 -118 118 0 4636 2385 5 MP stroke
0 118 -117 0 0 -118 117 0 4754 2385 5 MP stroke
0 118 -118 0 0 -118 118 0 4871 2385 5 MP stroke
0 118 -117 0 0 -118 117 0 4989 2385 5 MP stroke
0 118 -117 0 0 -118 117 0 5106 2385 5 MP stroke
0 118 -118 0 0 -118 118 0 5223 2385 5 MP stroke
0 117 -118 0 0 -117 118 0 1818 2267 5 MP stroke
0 117 -117 0 0 -117 117 0 1936 2267 5 MP stroke
0 117 -118 0 0 -117 118 0 2053 2267 5 MP stroke
0 117 -117 0 0 -117 117 0 2171 2267 5 MP stroke
0 117 -117 0 0 -117 117 0 2288 2267 5 MP stroke
0 117 -118 0 0 -117 118 0 2405 2267 5 MP stroke
0 117 -117 0 0 -117 117 0 2523 2267 5 MP stroke
0 117 -118 0 0 -117 118 0 2640 2267 5 MP stroke
0 117 -117 0 0 -117 117 0 2758 2267 5 MP stroke
0 117 -117 0 0 -117 117 0 2875 2267 5 MP stroke
0 117 -118 0 0 -117 118 0 2992 2267 5 MP stroke
0 117 -117 0 0 -117 117 0 3110 2267 5 MP stroke
0 117 -118 0 0 -117 118 0 3227 2267 5 MP stroke
0 117 -117 0 0 -117 117 0 3345 2267 5 MP stroke
0 117 -118 0 0 -117 118 0 3462 2267 5 MP stroke
0 117 -117 0 0 -117 117 0 3580 2267 5 MP stroke
0 117 -117 0 0 -117 117 0 3697 2267 5 MP stroke
0 117 -118 0 0 -117 118 0 3814 2267 5 MP stroke
0 117 -117 0 0 -117 117 0 3932 2267 5 MP stroke
0 117 -118 0 0 -117 118 0 4049 2267 5 MP stroke
0 117 -117 0 0 -117 117 0 4167 2267 5 MP stroke
0 117 -117 0 0 -117 117 0 4284 2267 5 MP stroke
0 117 -118 0 0 -117 118 0 4401 2267 5 MP stroke
0 117 -117 0 0 -117 117 0 4519 2267 5 MP stroke
0 117 -118 0 0 -117 118 0 4636 2267 5 MP stroke
0 117 -117 0 0 -117 117 0 4754 2267 5 MP stroke
0 117 -118 0 0 -117 118 0 4871 2267 5 MP stroke
0 117 -117 0 0 -117 117 0 4989 2267 5 MP stroke
0 117 -117 0 0 -117 117 0 5106 2267 5 MP stroke
0 117 -118 0 0 -117 118 0 5223 2267 5 MP stroke
0 118 -118 0 0 -118 118 0 1818 2150 5 MP stroke
0 118 -117 0 0 -118 117 0 1936 2150 5 MP stroke
0 118 -118 0 0 -118 118 0 2053 2150 5 MP stroke
0 118 -117 0 0 -118 117 0 2171 2150 5 MP stroke
0 118 -117 0 0 -118 117 0 2288 2150 5 MP stroke
0 118 -118 0 0 -118 118 0 2405 2150 5 MP stroke
0 118 -117 0 0 -118 117 0 2523 2150 5 MP stroke
0 118 -118 0 0 -118 118 0 2640 2150 5 MP stroke
0 118 -117 0 0 -118 117 0 2758 2150 5 MP stroke
0 118 -117 0 0 -118 117 0 2875 2150 5 MP stroke
0 118 -118 0 0 -118 118 0 2992 2150 5 MP stroke
0 118 -117 0 0 -118 117 0 3110 2150 5 MP stroke
0 118 -118 0 0 -118 118 0 3227 2150 5 MP stroke
0 118 -117 0 0 -118 117 0 3345 2150 5 MP stroke
0 118 -118 0 0 -118 118 0 3462 2150 5 MP stroke
0 118 -117 0 0 -118 117 0 3580 2150 5 MP stroke
0 118 -117 0 0 -118 117 0 3697 2150 5 MP stroke
0 118 -118 0 0 -118 118 0 3814 2150 5 MP stroke
0 118 -117 0 0 -118 117 0 3932 2150 5 MP stroke
0 118 -118 0 0 -118 118 0 4049 2150 5 MP stroke
0 118 -117 0 0 -118 117 0 4167 2150 5 MP stroke
0 118 -117 0 0 -118 117 0 4284 2150 5 MP stroke
0 118 -118 0 0 -118 118 0 4401 2150 5 MP stroke
0 118 -117 0 0 -118 117 0 4519 2150 5 MP stroke
0 118 -118 0 0 -118 118 0 4636 2150 5 MP stroke
0 118 -117 0 0 -118 117 0 4754 2150 5 MP stroke
0 118 -118 0 0 -118 118 0 4871 2150 5 MP stroke
0 118 -117 0 0 -118 117 0 4989 2150 5 MP stroke
0 118 -117 0 0 -118 117 0 5106 2150 5 MP stroke
0 118 -118 0 0 -118 118 0 5223 2150 5 MP stroke
0 117 -118 0 0 -117 118 0 1818 2032 5 MP stroke
0 117 -117 0 0 -117 117 0 1936 2032 5 MP stroke
0 117 -118 0 0 -117 118 0 2053 2032 5 MP stroke
0 117 -117 0 0 -117 117 0 2171 2032 5 MP stroke
0 117 -117 0 0 -117 117 0 2288 2032 5 MP stroke
0 117 -118 0 0 -117 118 0 2405 2032 5 MP stroke
0 117 -117 0 0 -117 117 0 2523 2032 5 MP stroke
0 117 -118 0 0 -117 118 0 2640 2032 5 MP stroke
0 117 -117 0 0 -117 117 0 2758 2032 5 MP stroke
0 117 -117 0 0 -117 117 0 2875 2032 5 MP stroke
0 117 -118 0 0 -117 118 0 2992 2032 5 MP stroke
0 117 -117 0 0 -117 117 0 3110 2032 5 MP stroke
0 117 -118 0 0 -117 118 0 3227 2032 5 MP stroke
0 117 -117 0 0 -117 117 0 3345 2032 5 MP stroke
0 117 -118 0 0 -117 118 0 3462 2032 5 MP stroke
0 117 -117 0 0 -117 117 0 3580 2032 5 MP stroke
0 117 -117 0 0 -117 117 0 3697 2032 5 MP stroke
0 117 -118 0 0 -117 118 0 3814 2032 5 MP stroke
0 117 -117 0 0 -117 117 0 3932 2032 5 MP stroke
0 117 -118 0 0 -117 118 0 4049 2032 5 MP stroke
0 117 -117 0 0 -117 117 0 4167 2032 5 MP stroke
0 117 -117 0 0 -117 117 0 4284 2032 5 MP stroke
0 117 -118 0 0 -117 118 0 4401 2032 5 MP stroke
0 117 -117 0 0 -117 117 0 4519 2032 5 MP stroke
0 117 -118 0 0 -117 118 0 4636 2032 5 MP stroke
0 117 -117 0 0 -117 117 0 4754 2032 5 MP stroke
0 117 -118 0 0 -117 118 0 4871 2032 5 MP stroke
0 117 -117 0 0 -117 117 0 4989 2032 5 MP stroke
0 117 -117 0 0 -117 117 0 5106 2032 5 MP stroke
0 117 -118 0 0 -117 118 0 5223 2032 5 MP stroke
0 117 -118 0 0 -117 118 0 1818 1915 5 MP stroke
0 117 -117 0 0 -117 117 0 1936 1915 5 MP stroke
0 117 -118 0 0 -117 118 0 2053 1915 5 MP stroke
0 117 -117 0 0 -117 117 0 2171 1915 5 MP stroke
0 117 -117 0 0 -117 117 0 2288 1915 5 MP stroke
0 117 -118 0 0 -117 118 0 2405 1915 5 MP stroke
0 117 -117 0 0 -117 117 0 2523 1915 5 MP stroke
0 117 -118 0 0 -117 118 0 2640 1915 5 MP stroke
0 117 -117 0 0 -117 117 0 2758 1915 5 MP stroke
0 117 -117 0 0 -117 117 0 2875 1915 5 MP stroke
0 117 -118 0 0 -117 118 0 2992 1915 5 MP stroke
0 117 -117 0 0 -117 117 0 3110 1915 5 MP stroke
0 117 -118 0 0 -117 118 0 3227 1915 5 MP stroke
0 117 -117 0 0 -117 117 0 3345 1915 5 MP stroke
0 117 -118 0 0 -117 118 0 3462 1915 5 MP stroke
0 117 -117 0 0 -117 117 0 3580 1915 5 MP stroke
0 117 -117 0 0 -117 117 0 3697 1915 5 MP stroke
0 117 -118 0 0 -117 118 0 3814 1915 5 MP stroke
0 117 -117 0 0 -117 117 0 3932 1915 5 MP stroke
0 117 -118 0 0 -117 118 0 4049 1915 5 MP stroke
0 117 -117 0 0 -117 117 0 4167 1915 5 MP stroke
0 117 -117 0 0 -117 117 0 4284 1915 5 MP stroke
0 117 -118 0 0 -117 118 0 4401 1915 5 MP stroke
0 117 -117 0 0 -117 117 0 4519 1915 5 MP stroke
0 117 -118 0 0 -117 118 0 4636 1915 5 MP stroke
0 117 -117 0 0 -117 117 0 4754 1915 5 MP stroke
0 117 -118 0 0 -117 118 0 4871 1915 5 MP stroke
0 117 -117 0 0 -117 117 0 4989 1915 5 MP stroke
0 117 -117 0 0 -117 117 0 5106 1915 5 MP stroke
0 117 -118 0 0 -117 118 0 5223 1915 5 MP stroke
0 118 -118 0 0 -118 118 0 1818 1798 5 MP stroke
0 118 -117 0 0 -118 117 0 1936 1798 5 MP stroke
0 118 -118 0 0 -118 118 0 2053 1798 5 MP stroke
0 118 -117 0 0 -118 117 0 2171 1798 5 MP stroke
0 118 -117 0 0 -118 117 0 2288 1798 5 MP stroke
0 118 -118 0 0 -118 118 0 2405 1798 5 MP stroke
0 118 -117 0 0 -118 117 0 2523 1798 5 MP stroke
0 118 -118 0 0 -118 118 0 2640 1798 5 MP stroke
0 118 -117 0 0 -118 117 0 2758 1798 5 MP stroke
0 118 -117 0 0 -118 117 0 2875 1798 5 MP stroke
0 118 -118 0 0 -118 118 0 2992 1798 5 MP stroke
0 118 -117 0 0 -118 117 0 3110 1798 5 MP stroke
0 118 -118 0 0 -118 118 0 3227 1798 5 MP stroke
0 118 -117 0 0 -118 117 0 3345 1798 5 MP stroke
0 118 -118 0 0 -118 118 0 3462 1798 5 MP stroke
0 118 -117 0 0 -118 117 0 3580 1798 5 MP stroke
0 118 -117 0 0 -118 117 0 3697 1798 5 MP stroke
0 118 -118 0 0 -118 118 0 3814 1798 5 MP stroke
0 118 -117 0 0 -118 117 0 3932 1798 5 MP stroke
0 118 -118 0 0 -118 118 0 4049 1798 5 MP stroke
0 118 -117 0 0 -118 117 0 4167 1798 5 MP stroke
0 118 -117 0 0 -118 117 0 4284 1798 5 MP stroke
0 118 -118 0 0 -118 118 0 4401 1798 5 MP stroke
0 118 -117 0 0 -118 117 0 4519 1798 5 MP stroke
0 118 -118 0 0 -118 118 0 4636 1798 5 MP stroke
0 118 -117 0 0 -118 117 0 4754 1798 5 MP stroke
0 118 -118 0 0 -118 118 0 4871 1798 5 MP stroke
0 118 -117 0 0 -118 117 0 4989 1798 5 MP stroke
0 118 -117 0 0 -118 117 0 5106 1798 5 MP stroke
0 118 -118 0 0 -118 118 0 5223 1798 5 MP stroke
0 117 -118 0 0 -117 118 0 1818 1680 5 MP stroke
0 117 -117 0 0 -117 117 0 1936 1680 5 MP stroke
0 117 -118 0 0 -117 118 0 2053 1680 5 MP stroke
0 117 -117 0 0 -117 117 0 2171 1680 5 MP stroke
0 117 -117 0 0 -117 117 0 2288 1680 5 MP stroke
0 117 -118 0 0 -117 118 0 2405 1680 5 MP stroke
0 117 -117 0 0 -117 117 0 2523 1680 5 MP stroke
0 117 -118 0 0 -117 118 0 2640 1680 5 MP stroke
0 117 -117 0 0 -117 117 0 2758 1680 5 MP stroke
0 117 -117 0 0 -117 117 0 2875 1680 5 MP stroke
0 117 -118 0 0 -117 118 0 2992 1680 5 MP stroke
0 117 -117 0 0 -117 117 0 3110 1680 5 MP stroke
0 117 -118 0 0 -117 118 0 3227 1680 5 MP stroke
0 117 -117 0 0 -117 117 0 3345 1680 5 MP stroke
0 117 -118 0 0 -117 118 0 3462 1680 5 MP stroke
0 117 -117 0 0 -117 117 0 3580 1680 5 MP stroke
0 117 -117 0 0 -117 117 0 3697 1680 5 MP stroke
0 117 -118 0 0 -117 118 0 3814 1680 5 MP stroke
0 117 -117 0 0 -117 117 0 3932 1680 5 MP stroke
0 117 -118 0 0 -117 118 0 4049 1680 5 MP stroke
0 117 -117 0 0 -117 117 0 4167 1680 5 MP stroke
0 117 -117 0 0 -117 117 0 4284 1680 5 MP stroke
0 117 -118 0 0 -117 118 0 4401 1680 5 MP stroke
0 117 -117 0 0 -117 117 0 4519 1680 5 MP stroke
0 117 -118 0 0 -117 118 0 4636 1680 5 MP stroke
0 117 -117 0 0 -117 117 0 4754 1680 5 MP stroke
0 117 -118 0 0 -117 118 0 4871 1680 5 MP stroke
0 117 -117 0 0 -117 117 0 4989 1680 5 MP stroke
0 117 -117 0 0 -117 117 0 5106 1680 5 MP stroke
0 117 -118 0 0 -117 118 0 5223 1680 5 MP stroke
0 118 -118 0 0 -118 118 0 1818 1563 5 MP stroke
0 118 -117 0 0 -118 117 0 1936 1563 5 MP stroke
0 118 -118 0 0 -118 118 0 2053 1563 5 MP stroke
0 118 -117 0 0 -118 117 0 2171 1563 5 MP stroke
0 118 -117 0 0 -118 117 0 2288 1563 5 MP stroke
0 118 -118 0 0 -118 118 0 2405 1563 5 MP stroke
0 118 -117 0 0 -118 117 0 2523 1563 5 MP stroke
0 118 -118 0 0 -118 118 0 2640 1563 5 MP stroke
0 118 -117 0 0 -118 117 0 2758 1563 5 MP stroke
0 118 -117 0 0 -118 117 0 2875 1563 5 MP stroke
0 118 -118 0 0 -118 118 0 2992 1563 5 MP stroke
0 118 -117 0 0 -118 117 0 3110 1563 5 MP stroke
0 118 -118 0 0 -118 118 0 3227 1563 5 MP stroke
0 118 -117 0 0 -118 117 0 3345 1563 5 MP stroke
0 118 -118 0 0 -118 118 0 3462 1563 5 MP stroke
0 118 -117 0 0 -118 117 0 3580 1563 5 MP stroke
0 118 -117 0 0 -118 117 0 3697 1563 5 MP stroke
0 118 -118 0 0 -118 118 0 3814 1563 5 MP stroke
0 118 -117 0 0 -118 117 0 3932 1563 5 MP stroke
0 118 -118 0 0 -118 118 0 4049 1563 5 MP stroke
0 118 -117 0 0 -118 117 0 4167 1563 5 MP stroke
0 118 -117 0 0 -118 117 0 4284 1563 5 MP stroke
0 118 -118 0 0 -118 118 0 4401 1563 5 MP stroke
0 118 -117 0 0 -118 117 0 4519 1563 5 MP stroke
0 118 -118 0 0 -118 118 0 4636 1563 5 MP stroke
0 118 -117 0 0 -118 117 0 4754 1563 5 MP stroke
0 118 -118 0 0 -118 118 0 4871 1563 5 MP stroke
0 118 -117 0 0 -118 117 0 4989 1563 5 MP stroke
0 118 -117 0 0 -118 117 0 5106 1563 5 MP stroke
0 118 -118 0 0 -118 118 0 5223 1563 5 MP stroke
0 117 -118 0 0 -117 118 0 1818 1445 5 MP stroke
0 117 -117 0 0 -117 117 0 1936 1445 5 MP stroke
0 117 -118 0 0 -117 118 0 2053 1445 5 MP stroke
0 117 -117 0 0 -117 117 0 2171 1445 5 MP stroke
0 117 -117 0 0 -117 117 0 2288 1445 5 MP stroke
0 117 -118 0 0 -117 118 0 2405 1445 5 MP stroke
0 117 -117 0 0 -117 117 0 2523 1445 5 MP stroke
0 117 -118 0 0 -117 118 0 2640 1445 5 MP stroke
0 117 -117 0 0 -117 117 0 2758 1445 5 MP stroke
0 117 -117 0 0 -117 117 0 2875 1445 5 MP stroke
0 117 -118 0 0 -117 118 0 2992 1445 5 MP stroke
0 117 -117 0 0 -117 117 0 3110 1445 5 MP stroke
0 117 -118 0 0 -117 118 0 3227 1445 5 MP stroke
0 117 -117 0 0 -117 117 0 3345 1445 5 MP stroke
0 117 -118 0 0 -117 118 0 3462 1445 5 MP stroke
0 117 -117 0 0 -117 117 0 3580 1445 5 MP stroke
0 117 -117 0 0 -117 117 0 3697 1445 5 MP stroke
0 117 -118 0 0 -117 118 0 3814 1445 5 MP stroke
0 117 -117 0 0 -117 117 0 3932 1445 5 MP stroke
0 117 -118 0 0 -117 118 0 4049 1445 5 MP stroke
0 117 -117 0 0 -117 117 0 4167 1445 5 MP stroke
0 117 -117 0 0 -117 117 0 4284 1445 5 MP stroke
0 117 -118 0 0 -117 118 0 4401 1445 5 MP stroke
0 117 -117 0 0 -117 117 0 4519 1445 5 MP stroke
0 117 -118 0 0 -117 118 0 4636 1445 5 MP stroke
0 117 -117 0 0 -117 117 0 4754 1445 5 MP stroke
0 117 -118 0 0 -117 118 0 4871 1445 5 MP stroke
0 117 -117 0 0 -117 117 0 4989 1445 5 MP stroke
0 117 -117 0 0 -117 117 0 5106 1445 5 MP stroke
0 117 -118 0 0 -117 118 0 5223 1445 5 MP stroke
0 118 -118 0 0 -118 118 0 1818 1328 5 MP stroke
0 118 -117 0 0 -118 117 0 1936 1328 5 MP stroke
0 118 -118 0 0 -118 118 0 2053 1328 5 MP stroke
0 118 -117 0 0 -118 117 0 2171 1328 5 MP stroke
0 118 -117 0 0 -118 117 0 2288 1328 5 MP stroke
0 118 -118 0 0 -118 118 0 2405 1328 5 MP stroke
0 118 -117 0 0 -118 117 0 2523 1328 5 MP stroke
0 118 -118 0 0 -118 118 0 2640 1328 5 MP stroke
0 118 -117 0 0 -118 117 0 2758 1328 5 MP stroke
0 118 -117 0 0 -118 117 0 2875 1328 5 MP stroke
0 118 -118 0 0 -118 118 0 2992 1328 5 MP stroke
0 118 -117 0 0 -118 117 0 3110 1328 5 MP stroke
0 118 -118 0 0 -118 118 0 3227 1328 5 MP stroke
0 118 -117 0 0 -118 117 0 3345 1328 5 MP stroke
0 118 -118 0 0 -118 118 0 3462 1328 5 MP stroke
0 118 -117 0 0 -118 117 0 3580 1328 5 MP stroke
0 118 -117 0 0 -118 117 0 3697 1328 5 MP stroke
0 118 -118 0 0 -118 118 0 3814 1328 5 MP stroke
0 118 -117 0 0 -118 117 0 3932 1328 5 MP stroke
0 118 -118 0 0 -118 118 0 4049 1328 5 MP stroke
0 118 -117 0 0 -118 117 0 4167 1328 5 MP stroke
0 118 -117 0 0 -118 117 0 4284 1328 5 MP stroke
0 118 -118 0 0 -118 118 0 4401 1328 5 MP stroke
0 118 -117 0 0 -118 117 0 4519 1328 5 MP stroke
0 118 -118 0 0 -118 118 0 4636 1328 5 MP stroke
0 118 -117 0 0 -118 117 0 4754 1328 5 MP stroke
0 118 -118 0 0 -118 118 0 4871 1328 5 MP stroke
0 118 -117 0 0 -118 117 0 4989 1328 5 MP stroke
0 118 -117 0 0 -118 117 0 5106 1328 5 MP stroke
0 118 -118 0 0 -118 118 0 5223 1328 5 MP stroke
0 117 -118 0 0 -117 118 0 1818 1210 5 MP stroke
0 117 -117 0 0 -117 117 0 1936 1210 5 MP stroke
0 117 -118 0 0 -117 118 0 2053 1210 5 MP stroke
0 117 -117 0 0 -117 117 0 2171 1210 5 MP stroke
0 117 -117 0 0 -117 117 0 2288 1210 5 MP stroke
0 117 -118 0 0 -117 118 0 2405 1210 5 MP stroke
0 117 -117 0 0 -117 117 0 2523 1210 5 MP stroke
0 117 -118 0 0 -117 118 0 2640 1210 5 MP stroke
0 117 -117 0 0 -117 117 0 2758 1210 5 MP stroke
0 117 -117 0 0 -117 117 0 2875 1210 5 MP stroke
0 117 -118 0 0 -117 118 0 2992 1210 5 MP stroke
0 117 -117 0 0 -117 117 0 3110 1210 5 MP stroke
0 117 -118 0 0 -117 118 0 3227 1210 5 MP stroke
0 117 -117 0 0 -117 117 0 3345 1210 5 MP stroke
0 117 -118 0 0 -117 118 0 3462 1210 5 MP stroke
0 117 -117 0 0 -117 117 0 3580 1210 5 MP stroke
0 117 -117 0 0 -117 117 0 3697 1210 5 MP stroke
0 117 -118 0 0 -117 118 0 3814 1210 5 MP stroke
0 117 -117 0 0 -117 117 0 3932 1210 5 MP stroke
0 117 -118 0 0 -117 118 0 4049 1210 5 MP stroke
0 117 -117 0 0 -117 117 0 4167 1210 5 MP stroke
0 117 -117 0 0 -117 117 0 4284 1210 5 MP stroke
0 117 -118 0 0 -117 118 0 4401 1210 5 MP stroke
0 117 -117 0 0 -117 117 0 4519 1210 5 MP stroke
0 117 -118 0 0 -117 118 0 4636 1210 5 MP stroke
0 117 -117 0 0 -117 117 0 4754 1210 5 MP stroke
0 117 -118 0 0 -117 118 0 4871 1210 5 MP stroke
0 117 -117 0 0 -117 117 0 4989 1210 5 MP stroke
0 117 -117 0 0 -117 117 0 5106 1210 5 MP stroke
0 117 -118 0 0 -117 118 0 5223 1210 5 MP stroke
0 117 -118 0 0 -117 118 0 1818 1093 5 MP stroke
0 117 -117 0 0 -117 117 0 1936 1093 5 MP stroke
0 117 -118 0 0 -117 118 0 2053 1093 5 MP stroke
0 117 -117 0 0 -117 117 0 2171 1093 5 MP stroke
0 117 -117 0 0 -117 117 0 2288 1093 5 MP stroke
0 117 -118 0 0 -117 118 0 2405 1093 5 MP stroke
0 117 -117 0 0 -117 117 0 2523 1093 5 MP stroke
0 117 -118 0 0 -117 118 0 2640 1093 5 MP stroke
0 117 -117 0 0 -117 117 0 2758 1093 5 MP stroke
0 117 -117 0 0 -117 117 0 2875 1093 5 MP stroke
0 117 -118 0 0 -117 118 0 2992 1093 5 MP stroke
0 117 -117 0 0 -117 117 0 3110 1093 5 MP stroke
0 117 -118 0 0 -117 118 0 3227 1093 5 MP stroke
0 117 -117 0 0 -117 117 0 3345 1093 5 MP stroke
0 117 -118 0 0 -117 118 0 3462 1093 5 MP stroke
0 117 -117 0 0 -117 117 0 3580 1093 5 MP stroke
0 117 -117 0 0 -117 117 0 3697 1093 5 MP stroke
0 117 -118 0 0 -117 118 0 3814 1093 5 MP stroke
0 117 -117 0 0 -117 117 0 3932 1093 5 MP stroke
0 117 -118 0 0 -117 118 0 4049 1093 5 MP stroke
0 117 -117 0 0 -117 117 0 4167 1093 5 MP stroke
0 117 -117 0 0 -117 117 0 4284 1093 5 MP stroke
0 117 -118 0 0 -117 118 0 4401 1093 5 MP stroke
0 117 -117 0 0 -117 117 0 4519 1093 5 MP stroke
0 117 -118 0 0 -117 118 0 4636 1093 5 MP stroke
0 117 -117 0 0 -117 117 0 4754 1093 5 MP stroke
0 117 -118 0 0 -117 118 0 4871 1093 5 MP stroke
0 117 -117 0 0 -117 117 0 4989 1093 5 MP stroke
0 117 -117 0 0 -117 117 0 5106 1093 5 MP stroke
0 117 -118 0 0 -117 118 0 5223 1093 5 MP stroke
0 118 -118 0 0 -118 118 0 1818 976 5 MP stroke
0 118 -117 0 0 -118 117 0 1936 976 5 MP stroke
0 118 -118 0 0 -118 118 0 2053 976 5 MP stroke
0 118 -117 0 0 -118 117 0 2171 976 5 MP stroke
0 118 -117 0 0 -118 117 0 2288 976 5 MP stroke
0 118 -118 0 0 -118 118 0 2405 976 5 MP stroke
0 118 -117 0 0 -118 117 0 2523 976 5 MP stroke
0 118 -118 0 0 -118 118 0 2640 976 5 MP stroke
0 118 -117 0 0 -118 117 0 2758 976 5 MP stroke
0 118 -117 0 0 -118 117 0 2875 976 5 MP stroke
0 118 -118 0 0 -118 118 0 2992 976 5 MP stroke
0 118 -117 0 0 -118 117 0 3110 976 5 MP stroke
0 118 -118 0 0 -118 118 0 3227 976 5 MP stroke
0 118 -117 0 0 -118 117 0 3345 976 5 MP stroke
0 118 -118 0 0 -118 118 0 3462 976 5 MP stroke
0 118 -117 0 0 -118 117 0 3580 976 5 MP stroke
0 118 -117 0 0 -118 117 0 3697 976 5 MP stroke
0 118 -118 0 0 -118 118 0 3814 976 5 MP stroke
0 118 -117 0 0 -118 117 0 3932 976 5 MP stroke
0 118 -118 0 0 -118 118 0 4049 976 5 MP stroke
0 118 -117 0 0 -118 117 0 4167 976 5 MP stroke
0 118 -117 0 0 -118 117 0 4284 976 5 MP stroke
0 118 -118 0 0 -118 118 0 4401 976 5 MP stroke
0 118 -117 0 0 -118 117 0 4519 976 5 MP stroke
0 118 -118 0 0 -118 118 0 4636 976 5 MP stroke
0 118 -117 0 0 -118 117 0 4754 976 5 MP stroke
0 118 -118 0 0 -118 118 0 4871 976 5 MP stroke
0 118 -117 0 0 -118 117 0 4989 976 5 MP stroke
0 118 -117 0 0 -118 117 0 5106 976 5 MP stroke
0 118 -118 0 0 -118 118 0 5223 976 5 MP stroke
0 117 -118 0 0 -117 118 0 1818 858 5 MP stroke
0 117 -117 0 0 -117 117 0 1936 858 5 MP stroke
0 117 -118 0 0 -117 118 0 2053 858 5 MP stroke
0 117 -117 0 0 -117 117 0 2171 858 5 MP stroke
0 117 -117 0 0 -117 117 0 2288 858 5 MP stroke
0 117 -118 0 0 -117 118 0 2405 858 5 MP stroke
0 117 -117 0 0 -117 117 0 2523 858 5 MP stroke
0 117 -118 0 0 -117 118 0 2640 858 5 MP stroke
0 117 -117 0 0 -117 117 0 2758 858 5 MP stroke
0 117 -117 0 0 -117 117 0 2875 858 5 MP stroke
0 117 -118 0 0 -117 118 0 2992 858 5 MP stroke
0 117 -117 0 0 -117 117 0 3110 858 5 MP stroke
0 117 -118 0 0 -117 118 0 3227 858 5 MP stroke
0 117 -117 0 0 -117 117 0 3345 858 5 MP stroke
0 117 -118 0 0 -117 118 0 3462 858 5 MP stroke
0 117 -117 0 0 -117 117 0 3580 858 5 MP stroke
0 117 -117 0 0 -117 117 0 3697 858 5 MP stroke
0 117 -118 0 0 -117 118 0 3814 858 5 MP stroke
0 117 -117 0 0 -117 117 0 3932 858 5 MP stroke
0 117 -118 0 0 -117 118 0 4049 858 5 MP stroke
0 117 -117 0 0 -117 117 0 4167 858 5 MP stroke
0 117 -117 0 0 -117 117 0 4284 858 5 MP stroke
0 117 -118 0 0 -117 118 0 4401 858 5 MP stroke
0 117 -117 0 0 -117 117 0 4519 858 5 MP stroke
0 117 -118 0 0 -117 118 0 4636 858 5 MP stroke
0 117 -117 0 0 -117 117 0 4754 858 5 MP stroke
0 117 -118 0 0 -117 118 0 4871 858 5 MP stroke
0 117 -117 0 0 -117 117 0 4989 858 5 MP stroke
0 117 -117 0 0 -117 117 0 5106 858 5 MP stroke
0 117 -118 0 0 -117 118 0 5223 858 5 MP stroke
gr


end %%Color Dict

eplot
%%EndObject

epage
end

showpage

%%Trailer
%%EOF
